{
  "vertices": [
    [
      12,
      24
    ],
    [
      8,
      30
    ],
    [
      6,
      42
    ],
    [
      0,
      45
    ],
    [
      22,
      15
    ],
    [
      18,
      21
    ],
    [
      14,
      33
    ],
    [
      12,
      40
    ],
    [
      6,
      48
    ],
    [
      26,
      3
    ],
    [
      27,
      10
    ],
    [
      24,
      24
    ],
    [
      20,
      30
    ],
    [
      19,
      42
    ],
    [
      13,
      45
    ],
    [
      32,
      0
    ],
    [
      31,
      16
    ],
    [
      31,
      23
    ],
    [
      27,
      33
    ],
    [
      26,
      40
    ],
    [
      37,
      4
    ],
    [
      37,
      11
    ],
    [
      38,
      24
    ],
    [
      34,
      30
    ],
    [
      32,
      42
    ],
    [
      32,
      49
    ],
    [
      44,
      2
    ],
    [
      42,
      18
    ],
    [
      46,
      24
    ],
    [
      38,
      37
    ],
    [
      40,
      44
    ],
    [
      37,
      56
    ],
    [
      48,
      8
    ],
    [
      49,
      15
    ],
    [
      48,
      30
    ],
    [
      45,
      36
    ],
    [
      46,
      46
    ],
    [
      41,
      50
    ],
    [
      55,
      7
    ],
    [
      54,
      21
    ],
    [
      54,
      28
    ],
    [
      52,
      37
    ],
    [
      52,
      44
    ],
    [
      61,
      8
    ],
    [
      59,
      15
    ],
    [
      60,
      29
    ],
    [
      59,
      36
    ],
    [
      59,
      46
    ],
    [
      64,
      50
    ],
    [
      64,
      21
    ],
    [
      67,
      27
    ],
    [
      65,
      40
    ],
    [
      65,
      47
    ],
    [
      71,
      49
    ],
    [
      73,
      28
    ],
    [
      71,
      35
    ],
    [
      71,
      49
    ],
    [
      78,
      47
    ]
  ],
  "problem": 70,
  "time": "20210710_201738",
  "solver": "nakayama-sa"
}