{
  "vertices": [
    [
      1,
      81
    ],
    [
      13,
      63
    ],
    [
      20,
      94
    ],
    [
      35,
      51
    ],
    [
      33,
      74
    ],
    [
      44,
      94
    ],
    [
      55,
      66
    ],
    [
      48,
      22
    ],
    [
      49,
      90
    ],
    [
      54,
      129
    ],
    [
      58,
      113
    ],
    [
      64,
      79
    ],
    [
      67,
      1
    ],
    [
      69,
      40
    ],
    [
      75,
      105
    ],
    [
      80,
      140
    ],
    [
      88,
      20
    ],
    [
      85,
      122
    ]
  ],
  "problem": 59,
  "time": "20210710_144623",
  "solver": "nakayama-sa"
}