problem	your	minimal
1	632	624
2	420	193
3	268	203
4	0	0
5	83	54
6	2669	2663
7	120	112
8	1040	1040
9	1117	779
10	35	18
11	0	0
12	0	0
13	0	0
14	116	116
15	0	0
16	0	0
17	0	0
18	0	0
19	5318	5318
20	0	0
21	0	0
22	0	0
23	0	0
24	0	0
25	0	0
26	0	0
27	2423	2423
28	3216	3216
29	3114	3114
30	1937	1837
31	10457	10457
32	2016	1894
33	2362	2362
34	413	0
35	233	0
36	1444	1444
37	2275	1683
38	8	0
39	0	0
40	5282	3768
41	0	0
42	1656	1655
43	63	0
44	8706	8706
45	6379	6379
46	0	0
47	0	0
48	3617	3617
49	0	0
50	3299	3299
51	0	0
52	235	0
53	345	0
54	0	0
55	101	0
56	3021	3021
57	4514	4514
58	2171	2171
59	25	0
60	240	240
61	12587	12587
62	5137	4181
63	116	0
64	6339	6205
65	7386	0
66	7585	7585
67	209	0
68	21241	2071
69	738	738
70	29	0
71	5230	5230
72	0	0
73	17	0
74	2383	2383
75	9083	0
76	553	0
77	0	0
78	248	193