{
  "vertices": [
    [
      3,
      30
    ],
    [
      21,
      14
    ],
    [
      26,
      29
    ],
    [
      19,
      37
    ],
    [
      5,
      18
    ]
  ],
  "problem": 32,
  "time": "20210710_124540",
  "solver": "nakayama-sa"
}