{
  "vertices": [
    [
      48,
      4
    ],
    [
      17,
      48
    ],
    [
      3,
      52
    ],
    [
      7,
      55
    ],
    [
      92,
      16
    ],
    [
      72,
      26
    ],
    [
      86,
      33
    ],
    [
      25,
      66
    ],
    [
      87,
      43
    ],
    [
      44,
      40
    ],
    [
      59,
      41
    ],
    [
      102,
      39
    ],
    [
      24,
      87
    ],
    [
      58,
      34
    ],
    [
      73,
      35
    ],
    [
      94,
      26
    ],
    [
      51,
      81
    ],
    [
      39,
      90
    ],
    [
      92,
      42
    ],
    [
      85,
      72
    ],
    [
      102,
      43
    ],
    [
      124,
      71
    ],
    [
      114,
      60
    ],
    [
      115,
      34
    ],
    [
      55,
      101
    ],
    [
      61,
      115
    ],
    [
      137,
      78
    ],
    [
      127,
      67
    ],
    [
      100,
      37
    ],
    [
      64,
      130
    ],
    [
      93,
      23
    ],
    [
      84,
      19
    ],
    [
      80,
      116
    ],
    [
      120,
      105
    ],
    [
      81,
      1
    ],
    [
      100,
      124
    ],
    [
      154,
      108
    ],
    [
      100,
      114
    ],
    [
      99,
      129
    ]
  ],
  "problem": 63,
  "time": "20210710_131025",
  "solver": "nakayama-sa"
}