{
  "vertices": [
    [
      35,
      29
    ],
    [
      37,
      26
    ],
    [
      39,
      29
    ],
    [
      57,
      11
    ],
    [
      50,
      18
    ],
    [
      72,
      33
    ],
    [
      73,
      29
    ],
    [
      50,
      54
    ],
    [
      69,
      36
    ],
    [
      46,
      11
    ],
    [
      16,
      69
    ],
    [
      45,
      54
    ],
    [
      50,
      41
    ],
    [
      25,
      50
    ],
    [
      7,
      68
    ],
    [
      18,
      60
    ],
    [
      57,
      43
    ],
    [
      61,
      42
    ],
    [
      30,
      59
    ],
    [
      11,
      60
    ],
    [
      60,
      45
    ],
    [
      65,
      44
    ],
    [
      36,
      68
    ],
    [
      42,
      74
    ],
    [
      41,
      82
    ],
    [
      67,
      57
    ],
    [
      72,
      61
    ],
    [
      68,
      60
    ],
    [
      68,
      57
    ],
    [
      21,
      77
    ],
    [
      62,
      81
    ],
    [
      31,
      78
    ],
    [
      65,
      69
    ],
    [
      74,
      54
    ],
    [
      77,
      50
    ],
    [
      66,
      76
    ],
    [
      20,
      68
    ],
    [
      71,
      79
    ],
    [
      28,
      70
    ],
    [
      96,
      69
    ],
    [
      79,
      75
    ],
    [
      84,
      75
    ],
    [
      81,
      72
    ],
    [
      91,
      66
    ],
    [
      94,
      60
    ]
  ],
  "problem": 5,
  "time": "20210710_204321",
  "solver": "nakayama-sa"
}