{
  "vertices": [
    [
      33,
      52
    ],
    [
      51,
      36
    ],
    [
      11,
      46
    ],
    [
      40,
      15
    ],
    [
      18,
      23
    ],
    [
      13,
      5
    ],
    [
      35,
      5
    ]
  ],
  "problem": 42,
  "time": "20210710_081555",
  "solver": "nakayama-sa"
}