{
  "vertices": [
    [
      139,
      9
    ],
    [
      151,
      23
    ],
    [
      153,
      110
    ],
    [
      156,
      23
    ],
    [
      166,
      101
    ],
    [
      174,
      107
    ],
    [
      154,
      44
    ],
    [
      36,
      16
    ],
    [
      174,
      35
    ],
    [
      200,
      38
    ],
    [
      180,
      123
    ],
    [
      152,
      66
    ],
    [
      235,
      221
    ],
    [
      142,
      123
    ],
    [
      163,
      120
    ],
    [
      146,
      108
    ],
    [
      145,
      105
    ],
    [
      61,
      19
    ],
    [
      212,
      199
    ],
    [
      18,
      28
    ],
    [
      156,
      122
    ],
    [
      154,
      190
    ],
    [
      209,
      165
    ],
    [
      135,
      178
    ],
    [
      196,
      123
    ],
    [
      149,
      83
    ],
    [
      183,
      53
    ],
    [
      149,
      124
    ],
    [
      222,
      37
    ],
    [
      201,
      212
    ],
    [
      176,
      113
    ],
    [
      172,
      69
    ],
    [
      131,
      121
    ],
    [
      204,
      44
    ],
    [
      31,
      45
    ],
    [
      55,
      42
    ],
    [
      130,
      148
    ],
    [
      196,
      107
    ],
    [
      134,
      98
    ],
    [
      134,
      135
    ],
    [
      149,
      159
    ],
    [
      133,
      97
    ],
    [
      207,
      241
    ],
    [
      142,
      101
    ],
    [
      143,
      118
    ],
    [
      170,
      71
    ],
    [
      128,
      115
    ],
    [
      180,
      185
    ],
    [
      159,
      86
    ],
    [
      146,
      128
    ],
    [
      42,
      65
    ],
    [
      55,
      63
    ],
    [
      114,
      161
    ],
    [
      155,
      180
    ],
    [
      151,
      107
    ],
    [
      131,
      126
    ],
    [
      131,
      149
    ],
    [
      127,
      91
    ],
    [
      191,
      216
    ],
    [
      138,
      122
    ],
    [
      133,
      173
    ],
    [
      117,
      154
    ],
    [
      204,
      273
    ],
    [
      115,
      133
    ],
    [
      112,
      99
    ],
    [
      59,
      87
    ],
    [
      132,
      119
    ],
    [
      161,
      206
    ],
    [
      67,
      137
    ],
    [
      63,
      91
    ],
    [
      79,
      126
    ],
    [
      131,
      171
    ],
    [
      81,
      190
    ],
    [
      109,
      169
    ],
    [
      94,
      146
    ],
    [
      200,
      245
    ],
    [
      81,
      147
    ],
    [
      69,
      116
    ],
    [
      179,
      184
    ],
    [
      67,
      116
    ],
    [
      60,
      182
    ],
    [
      85,
      169
    ],
    [
      75,
      133
    ],
    [
      150,
      183
    ],
    [
      156,
      195
    ],
    [
      134,
      175
    ],
    [
      69,
      92
    ],
    [
      156,
      196
    ],
    [
      141,
      261
    ],
    [
      51,
      102
    ],
    [
      138,
      219
    ],
    [
      136,
      198
    ],
    [
      53,
      199
    ],
    [
      67,
      158
    ],
    [
      66,
      181
    ],
    [
      77,
      110
    ],
    [
      51,
      96
    ],
    [
      151,
      218
    ],
    [
      131,
      193
    ],
    [
      147,
      281
    ],
    [
      141,
      239
    ],
    [
      36,
      105
    ],
    [
      121,
      213
    ],
    [
      39,
      219
    ],
    [
      46,
      169
    ],
    [
      46,
      192
    ],
    [
      149,
      196
    ],
    [
      61,
      203
    ],
    [
      62,
      132
    ],
    [
      158,
      197
    ],
    [
      56,
      108
    ],
    [
      136,
      205
    ],
    [
      143,
      262
    ],
    [
      124,
      237
    ],
    [
      121,
      213
    ],
    [
      44,
      214
    ],
    [
      58,
      224
    ],
    [
      126,
      253
    ],
    [
      33,
      238
    ],
    [
      28,
      253
    ],
    [
      28,
      153
    ],
    [
      122,
      213
    ],
    [
      135,
      211
    ],
    [
      25,
      225
    ],
    [
      27,
      203
    ],
    [
      105,
      236
    ],
    [
      135,
      220
    ],
    [
      47,
      244
    ],
    [
      22,
      268
    ],
    [
      134,
      219
    ],
    [
      23,
      181
    ],
    [
      10,
      131
    ],
    [
      122,
      212
    ],
    [
      17,
      221
    ],
    [
      39,
      259
    ],
    [
      6,
      239
    ],
    [
      6,
      162
    ]
  ],
  "problem": 74,
  "time": "20210710_150842",
  "solver": "nakayama-sa"
}