{
  "vertices": [
    [
      0,
      60
    ],
    [
      2,
      89
    ],
    [
      24,
      32
    ],
    [
      27,
      64
    ],
    [
      27,
      88
    ],
    [
      45,
      21
    ],
    [
      53,
      91
    ],
    [
      54,
      64
    ],
    [
      65,
      0
    ],
    [
      63,
      42
    ],
    [
      78,
      61
    ],
    [
      85,
      20
    ]
  ],
  "problem": 46,
  "time": "20210710_124541",
  "solver": "optimized"
}