{
  "vertices": [
    [
      116,
      6
    ],
    [
      120,
      8
    ],
    [
      112,
      27
    ],
    [
      116,
      25
    ],
    [
      119,
      4
    ],
    [
      129,
      4
    ],
    [
      133,
      3
    ],
    [
      41,
      43
    ],
    [
      114,
      7
    ],
    [
      112,
      6
    ],
    [
      120,
      6
    ],
    [
      29,
      44
    ],
    [
      121,
      9
    ],
    [
      99,
      16
    ],
    [
      54,
      38
    ],
    [
      133,
      68
    ],
    [
      100,
      10
    ],
    [
      129,
      68
    ],
    [
      2,
      47
    ],
    [
      125,
      83
    ],
    [
      53,
      48
    ],
    [
      73,
      56
    ],
    [
      123,
      79
    ],
    [
      121,
      64
    ],
    [
      63,
      60
    ],
    [
      70,
      51
    ],
    [
      60,
      46
    ],
    [
      11,
      53
    ],
    [
      12,
      50
    ],
    [
      10,
      52
    ],
    [
      115,
      72
    ],
    [
      128,
      65
    ],
    [
      66,
      43
    ],
    [
      124,
      69
    ],
    [
      110,
      71
    ],
    [
      131,
      65
    ],
    [
      12,
      47
    ],
    [
      20,
      54
    ],
    [
      121,
      67
    ],
    [
      56,
      71
    ],
    [
      75,
      42
    ],
    [
      24,
      53
    ],
    [
      87,
      35
    ],
    [
      72,
      39
    ],
    [
      80,
      50
    ],
    [
      62,
      53
    ],
    [
      45,
      66
    ],
    [
      82,
      32
    ],
    [
      82,
      50
    ],
    [
      97,
      66
    ],
    [
      87,
      62
    ],
    [
      80,
      25
    ],
    [
      82,
      59
    ],
    [
      58,
      70
    ],
    [
      80,
      21
    ],
    [
      98,
      57
    ],
    [
      48,
      59
    ],
    [
      75,
      24
    ],
    [
      65,
      17
    ],
    [
      72,
      27
    ],
    [
      82,
      55
    ],
    [
      74,
      66
    ],
    [
      50,
      73
    ],
    [
      78,
      68
    ],
    [
      53,
      72
    ],
    [
      47,
      45
    ],
    [
      37,
      96
    ],
    [
      65,
      82
    ],
    [
      47,
      54
    ],
    [
      88,
      70
    ],
    [
      36,
      102
    ],
    [
      73,
      74
    ],
    [
      78,
      65
    ],
    [
      54,
      82
    ],
    [
      102,
      71
    ],
    [
      1,
      104
    ],
    [
      18,
      103
    ],
    [
      107,
      75
    ],
    [
      61,
      52
    ],
    [
      21,
      104
    ],
    [
      63,
      59
    ],
    [
      60,
      90
    ],
    [
      100,
      19
    ],
    [
      64,
      44
    ],
    [
      96,
      29
    ],
    [
      108,
      86
    ],
    [
      77,
      42
    ],
    [
      96,
      25
    ],
    [
      96,
      17
    ],
    [
      102,
      87
    ],
    [
      69,
      47
    ],
    [
      80,
      39
    ],
    [
      79,
      46
    ],
    [
      76,
      46
    ],
    [
      73,
      52
    ],
    [
      102,
      22
    ],
    [
      97,
      16
    ],
    [
      105,
      23
    ],
    [
      83,
      14
    ],
    [
      83,
      19
    ],
    [
      87,
      46
    ],
    [
      89,
      48
    ],
    [
      97,
      100
    ],
    [
      95,
      104
    ],
    [
      76,
      43
    ],
    [
      79,
      22
    ],
    [
      77,
      4
    ],
    [
      72,
      39
    ],
    [
      86,
      25
    ],
    [
      71,
      6
    ],
    [
      87,
      110
    ],
    [
      88,
      113
    ],
    [
      76,
      114
    ]
  ],
  "problem": 85,
  "time": "20210710_224759",
  "solver": "nakayama-sa"
}