{
  "vertices": [
    [
      64,
      59
    ],
    [
      73,
      88
    ],
    [
      111,
      41
    ],
    [
      51,
      34
    ],
    [
      91,
      82
    ],
    [
      105,
      50
    ],
    [
      27,
      116
    ],
    [
      47,
      47
    ],
    [
      43,
      109
    ],
    [
      101,
      98
    ],
    [
      21,
      116
    ],
    [
      21,
      124
    ],
    [
      11,
      102
    ],
    [
      14,
      118
    ],
    [
      127,
      16
    ],
    [
      8,
      95
    ],
    [
      36,
      4
    ],
    [
      11,
      73
    ],
    [
      9,
      88
    ],
    [
      31,
      89
    ],
    [
      91,
      81
    ],
    [
      13,
      65
    ],
    [
      18,
      69
    ],
    [
      25,
      25
    ],
    [
      21,
      64
    ],
    [
      79,
      65
    ],
    [
      89,
      55
    ],
    [
      58,
      61
    ],
    [
      35,
      66
    ],
    [
      95,
      8
    ],
    [
      64,
      61
    ],
    [
      62,
      9
    ],
    [
      98,
      43
    ],
    [
      53,
      30
    ]
  ],
  "problem": 69,
  "time": "20210710_093639",
  "solver": "nakayama-sa"
}