{
  "vertices": [
    [
      14,
      56
    ],
    [
      44,
      41
    ],
    [
      25,
      26
    ],
    [
      25,
      13
    ],
    [
      59,
      11
    ],
    [
      44,
      42
    ],
    [
      78,
      44
    ]
  ],
  "problem": 26,
  "time": "20210710_093639",
  "solver": "nakayama-sa"
}