{
  "vertices": [
    [
      0,
      7
    ],
    [
      0,
      31
    ],
    [
      22,
      0
    ],
    [
      22,
      38
    ],
    [
      36,
      19
    ]
  ],
  "problem": 16,
  "time": "20210709_235543",
  "solver": "optimized"
}