{
  "vertices": [
    [
      0,
      16
    ],
    [
      1,
      1
    ],
    [
      25,
      15
    ],
    [
      12,
      26
    ],
    [
      36,
      21
    ],
    [
      22,
      21
    ],
    [
      3,
      14
    ],
    [
      49,
      9
    ],
    [
      38,
      25
    ],
    [
      47,
      64
    ],
    [
      67,
      52
    ]
  ],
  "problem": 38,
  "time": "20210710_201738",
  "solver": "nakayama-sa"
}