{
  "vertices": [
    [
      10,
      42
    ],
    [
      14,
      14
    ],
    [
      14,
      14
    ],
    [
      34,
      34
    ],
    [
      38,
      5
    ]
  ],
  "problem": 30,
  "time": "20210710_085902",
  "solver": "nakayama-sa"
}