{
  "hole": [
    [
      15,
      0
    ],
    [
      35,
      20
    ],
    [
      20,
      44
    ],
    [
      0,
      24
    ]
  ],
  "epsilon": 1250,
  "figure": {
    "edges": [
      [
        0,
        1
      ],
      [
        0,
        2
      ],
      [
        1,
        3
      ],
      [
        2,
        3
      ],
      [
        2,
        4
      ],
      [
        3,
        4
      ]
    ],
    "vertices": [
      [
        0,
        20
      ],
      [
        20,
        0
      ],
      [
        20,
        40
      ],
      [
        40,
        20
      ],
      [
        49,
        45
      ]
    ]
  }
}
