{
  "hole": [
    [
      0,
      7
    ],
    [
      22,
      0
    ],
    [
      36,
      19
    ],
    [
      22,
      38
    ],
    [
      0,
      31
    ]
  ],
  "epsilon": 8897,
  "figure": {
    "edges": [
      [
        0,
        1
      ],
      [
        0,
        2
      ],
      [
        1,
        3
      ],
      [
        2,
        4
      ],
      [
        3,
        4
      ]
    ],
    "vertices": [
      [
        8,
        6
      ],
      [
        26,
        22
      ],
      [
        21,
        25
      ],
      [
        19,
        0
      ],
      [
        0,
        14
      ]
    ]
  }
}
