{
  "hole": [
    [
      0,
      31
    ],
    [
      18,
      0
    ],
    [
      48,
      18
    ],
    [
      30,
      48
    ],
    [
      0,
      65
    ]
  ],
  "epsilon": 11966,
  "figure": {
    "edges": [
      [
        0,
        1
      ],
      [
        0,
        2
      ],
      [
        0,
        3
      ],
      [
        1,
        3
      ],
      [
        2,
        4
      ],
      [
        3,
        4
      ]
    ],
    "vertices": [
      [
        27,
        36
      ],
      [
        0,
        57
      ],
      [
        28,
        0
      ],
      [
        32,
        70
      ],
      [
        29,
        35
      ]
    ]
  }
}
