{
  "hole": [
    [
      0,
      0
    ],
    [
      30,
      17
    ],
    [
      60,
      41
    ],
    [
      41,
      72
    ],
    [
      10,
      69
    ],
    [
      0,
      34
    ]
  ],
  "epsilon": 8317,
  "figure": {
    "edges": [
      [
        0,
        1
      ],
      [
        0,
        3
      ],
      [
        1,
        2
      ],
      [
        1,
        3
      ],
      [
        2,
        4
      ],
      [
        3,
        5
      ],
      [
        4,
        5
      ]
    ],
    "vertices": [
      [
        0,
        0
      ],
      [
        0,
        34
      ],
      [
        10,
        69
      ],
      [
        30,
        17
      ],
      [
        39,
        80
      ],
      [
        54,
        47
      ]
    ]
  }
}
