{
  "hole": [
    [
      22,
      0
    ],
    [
      21,
      13
    ],
    [
      43,
      8
    ],
    [
      18,
      45
    ],
    [
      57,
      13
    ],
    [
      57,
      31
    ],
    [
      48,
      41
    ],
    [
      61,
      45
    ],
    [
      74,
      42
    ],
    [
      75,
      89
    ],
    [
      63,
      79
    ],
    [
      48,
      89
    ],
    [
      49,
      72
    ],
    [
      61,
      59
    ],
    [
      43,
      53
    ],
    [
      36,
      70
    ],
    [
      25,
      84
    ],
    [
      15,
      76
    ],
    [
      4,
      89
    ],
    [
      1,
      72
    ],
    [
      0,
      51
    ],
    [
      6,
      40
    ],
    [
      13,
      30
    ],
    [
      0,
      25
    ],
    [
      4,
      13
    ],
    [
      5,
      1
    ]
  ],
  "epsilon": 41631,
  "figure": {
    "edges": [
      [
        0,
        1
      ],
      [
        0,
        3
      ],
      [
        1,
        2
      ],
      [
        1,
        3
      ],
      [
        2,
        4
      ],
      [
        3,
        5
      ],
      [
        4,
        5
      ]
    ],
    "vertices": [
      [
        10,
        10
      ],
      [
        10,
        44
      ],
      [
        18,
        77
      ],
      [
        40,
        27
      ],
      [
        51,
        79
      ],
      [
        65,
        50
      ]
    ]
  }
}
