{
  "hole": [
    [
      2,
      24
    ],
    [
      12,
      0
    ],
    [
      22,
      0
    ],
    [
      31,
      50
    ],
    [
      30,
      61
    ],
    [
      18,
      58
    ],
    [
      7,
      44
    ],
    [
      0,
      29
    ]
  ],
  "epsilon": 164384,
  "figure": {
    "edges": [
      [
        7,
        6
      ],
      [
        6,
        3
      ],
      [
        3,
        7
      ],
      [
        3,
        4
      ],
      [
        4,
        7
      ],
      [
        7,
        8
      ],
      [
        8,
        5
      ],
      [
        5,
        4
      ],
      [
        8,
        9
      ],
      [
        9,
        10
      ],
      [
        10,
        7
      ],
      [
        7,
        11
      ],
      [
        11,
        10
      ],
      [
        11,
        6
      ],
      [
        9,
        12
      ],
      [
        12,
        8
      ],
      [
        5,
        1
      ],
      [
        1,
        2
      ],
      [
        2,
        8
      ],
      [
        2,
        0
      ],
      [
        0,
        1
      ]
    ],
    "vertices": [
      [
        0,
        48
      ],
      [
        9,
        34
      ],
      [
        14,
        34
      ],
      [
        27,
        41
      ],
      [
        30,
        53
      ],
      [
        33,
        68
      ],
      [
        44,
        0
      ],
      [
        44,
        58
      ],
      [
        44,
        63
      ],
      [
        56,
        68
      ],
      [
        59,
        53
      ],
      [
        61,
        41
      ],
      [
        89,
        21
      ]
    ]
  }
}
