{
  "hole": [
    [
      0,
      34
    ],
    [
      1,
      14
    ],
    [
      15,
      13
    ],
    [
      7,
      0
    ],
    [
      35,
      0
    ],
    [
      53,
      2
    ],
    [
      67,
      12
    ],
    [
      56,
      26
    ],
    [
      40,
      34
    ],
    [
      40,
      60
    ],
    [
      65,
      54
    ],
    [
      63,
      78
    ],
    [
      50,
      83
    ],
    [
      30,
      99
    ],
    [
      24,
      77
    ],
    [
      1,
      95
    ],
    [
      8,
      72
    ],
    [
      14,
      54
    ],
    [
      0,
      56
    ]
  ],
  "epsilon": 18542,
  "figure": {
    "edges": [
      [
        0,
        1
      ],
      [
        0,
        2
      ],
      [
        1,
        5
      ],
      [
        2,
        4
      ],
      [
        2,
        5
      ],
      [
        3,
        5
      ],
      [
        3,
        8
      ],
      [
        4,
        6
      ],
      [
        4,
        7
      ],
      [
        5,
        8
      ],
      [
        5,
        9
      ],
      [
        6,
        10
      ],
      [
        7,
        9
      ],
      [
        7,
        10
      ],
      [
        8,
        9
      ]
    ],
    "vertices": [
      [
        0,
        32
      ],
      [
        20,
        12
      ],
      [
        20,
        52
      ],
      [
        34,
        0
      ],
      [
        35,
        74
      ],
      [
        40,
        32
      ],
      [
        40,
        102
      ],
      [
        63,
        69
      ],
      [
        65,
        12
      ],
      [
        67,
        46
      ],
      [
        69,
        95
      ]
    ]
  }
}
