{
  "vertices": [
    [
      8,
      96
    ],
    [
      19,
      113
    ],
    [
      43,
      140
    ],
    [
      24,
      106
    ],
    [
      43,
      113
    ],
    [
      69,
      139
    ],
    [
      73,
      118
    ],
    [
      37,
      87
    ],
    [
      71,
      78
    ],
    [
      58,
      96
    ],
    [
      64,
      118
    ],
    [
      92,
      108
    ],
    [
      76,
      93
    ],
    [
      131,
      129
    ],
    [
      86,
      55
    ],
    [
      70,
      72
    ],
    [
      65,
      94
    ],
    [
      125,
      133
    ],
    [
      108,
      93
    ],
    [
      101,
      35
    ],
    [
      125,
      126
    ],
    [
      63,
      48
    ],
    [
      117,
      131
    ],
    [
      112,
      112
    ],
    [
      118,
      32
    ],
    [
      99,
      95
    ],
    [
      118,
      14
    ],
    [
      100,
      72
    ],
    [
      84,
      52
    ],
    [
      46,
      34
    ],
    [
      111,
      114
    ],
    [
      112,
      96
    ],
    [
      109,
      51
    ],
    [
      32,
      14
    ],
    [
      121,
      74
    ],
    [
      124,
      35
    ],
    [
      69,
      34
    ],
    [
      133,
      105
    ],
    [
      129,
      53
    ],
    [
      59,
      13
    ],
    [
      136,
      26
    ],
    [
      136,
      53
    ],
    [
      140,
      84
    ],
    [
      151,
      67
    ],
    [
      182,
      13
    ],
    [
      157,
      45
    ],
    [
      176,
      58
    ],
    [
      172,
      28
    ],
    [
      176,
      59
    ],
    [
      192,
      31
    ],
    [
      186,
      40
    ],
    [
      196,
      77
    ],
    [
      207,
      105
    ],
    [
      206,
      21
    ],
    [
      202,
      61
    ],
    [
      188,
      19
    ],
    [
      197,
      5
    ],
    [
      224,
      80
    ],
    [
      220,
      128
    ],
    [
      209,
      100
    ]
  ],
  "problem": 62,
  "time": "20210710_093639",
  "solver": "nakayama-sa"
}