{
  "hole": [
    [
      5,
      86
    ],
    [
      17,
      27
    ],
    [
      10,
      9
    ],
    [
      55,
      5
    ],
    [
      58,
      31
    ],
    [
      79,
      45
    ],
    [
      83,
      76
    ],
    [
      64,
      71
    ],
    [
      57,
      87
    ]
  ],
  "epsilon": 200000,
  "figure": {
    "edges": [
      [
        0,
        3
      ],
      [
        3,
        4
      ],
      [
        4,
        1
      ],
      [
        1,
        0
      ],
      [
        1,
        2
      ],
      [
        2,
        4
      ],
      [
        2,
        5
      ],
      [
        5,
        8
      ],
      [
        8,
        6
      ],
      [
        6,
        5
      ],
      [
        6,
        12
      ],
      [
        12,
        14
      ],
      [
        14,
        8
      ],
      [
        12,
        37
      ],
      [
        37,
        38
      ],
      [
        38,
        8
      ],
      [
        8,
        11
      ],
      [
        11,
        33
      ],
      [
        33,
        38
      ],
      [
        11,
        10
      ],
      [
        10,
        17
      ],
      [
        17,
        11
      ],
      [
        33,
        30
      ],
      [
        30,
        36
      ],
      [
        36,
        33
      ],
      [
        17,
        15
      ],
      [
        15,
        10
      ],
      [
        30,
        31
      ],
      [
        31,
        36
      ],
      [
        15,
        19
      ],
      [
        31,
        28
      ],
      [
        19,
        21
      ],
      [
        21,
        26
      ],
      [
        26,
        28
      ],
      [
        28,
        27
      ],
      [
        27,
        22
      ],
      [
        22,
        19
      ],
      [
        38,
        41
      ],
      [
        41,
        39
      ],
      [
        39,
        40
      ],
      [
        40,
        37
      ],
      [
        40,
        46
      ],
      [
        46,
        50
      ],
      [
        50,
        51
      ],
      [
        51,
        46
      ],
      [
        51,
        54
      ],
      [
        54,
        53
      ],
      [
        53,
        50
      ],
      [
        47,
        48
      ],
      [
        48,
        57
      ],
      [
        57,
        56
      ],
      [
        56,
        47
      ],
      [
        48,
        50
      ],
      [
        41,
        42
      ],
      [
        42,
        45
      ],
      [
        45,
        43
      ],
      [
        43,
        42
      ],
      [
        43,
        44
      ],
      [
        44,
        49
      ],
      [
        49,
        45
      ],
      [
        45,
        52
      ],
      [
        52,
        55
      ],
      [
        55,
        49
      ],
      [
        12,
        24
      ],
      [
        24,
        37
      ],
      [
        24,
        32
      ],
      [
        32,
        23
      ],
      [
        23,
        20
      ],
      [
        20,
        16
      ],
      [
        16,
        24
      ],
      [
        20,
        18
      ],
      [
        18,
        9
      ],
      [
        9,
        16
      ],
      [
        18,
        13
      ],
      [
        13,
        7
      ],
      [
        7,
        9
      ],
      [
        23,
        25
      ],
      [
        25,
        35
      ],
      [
        35,
        32
      ],
      [
        35,
        34
      ],
      [
        34,
        29
      ],
      [
        29,
        25
      ]
    ],
    "vertices": [
      [
        10,
        76
      ],
      [
        12,
        66
      ],
      [
        18,
        56
      ],
      [
        21,
        78
      ],
      [
        23,
        67
      ],
      [
        24,
        42
      ],
      [
        26,
        34
      ],
      [
        30,
        22
      ],
      [
        30,
        48
      ],
      [
        31,
        26
      ],
      [
        32,
        71
      ],
      [
        33,
        62
      ],
      [
        35,
        33
      ],
      [
        37,
        18
      ],
      [
        37,
        41
      ],
      [
        37,
        73
      ],
      [
        38,
        31
      ],
      [
        39,
        67
      ],
      [
        40,
        21
      ],
      [
        41,
        74
      ],
      [
        42,
        24
      ],
      [
        42,
        69
      ],
      [
        42,
        80
      ],
      [
        45,
        24
      ],
      [
        45,
        32
      ],
      [
        46,
        19
      ],
      [
        47,
        69
      ],
      [
        47,
        80
      ],
      [
        48,
        74
      ],
      [
        49,
        15
      ],
      [
        50,
        68
      ],
      [
        51,
        73
      ],
      [
        52,
        30
      ],
      [
        55,
        62
      ],
      [
        56,
        17
      ],
      [
        56,
        21
      ],
      [
        56,
        70
      ],
      [
        58,
        34
      ],
      [
        58,
        48
      ],
      [
        60,
        42
      ],
      [
        63,
        39
      ],
      [
        63,
        45
      ],
      [
        71,
        53
      ],
      [
        72,
        60
      ],
      [
        75,
        63
      ],
      [
        78,
        56
      ],
      [
        79,
        31
      ],
      [
        80,
        13
      ],
      [
        80,
        16
      ],
      [
        83,
        59
      ],
      [
        84,
        22
      ],
      [
        84,
        31
      ],
      [
        84,
        47
      ],
      [
        89,
        22
      ],
      [
        89,
        31
      ],
      [
        91,
        55
      ],
      [
        94,
        13
      ],
      [
        94,
        16
      ]
    ]
  }
}
