{
  "hole": [
    [
      10,
      0
    ],
    [
      10,
      10
    ],
    [
      0,
      10
    ]
  ],
  "epsilon": 0,
  "figure": {
    "edges": [
      [
        0,
        1
      ],
      [
        1,
        2
      ],
      [
        2,
        0
      ]
    ],
    "vertices": [
      [
        0,
        0
      ],
      [
        10,
        0
      ],
      [
        10,
        10
      ]
    ]
  }
}
