{
  "hole": [
    [
      28,
      0
    ],
    [
      56,
      4
    ],
    [
      0,
      4
    ]
  ],
  "epsilon": 0,
  "figure": {
    "edges": [
      [
        0,
        1
      ],
      [
        0,
        2
      ],
      [
        1,
        3
      ],
      [
        2,
        3
      ]
    ],
    "vertices": [
      [
        0,
        20
      ],
      [
        20,
        0
      ],
      [
        20,
        40
      ],
      [
        40,
        20
      ]
    ]
  }
}
