{
  "hole": [
    [
      20,
      0
    ],
    [
      40,
      20
    ],
    [
      20,
      40
    ],
    [
      0,
      20
    ]
  ],
  "epsilon": 2494,
  "figure": {
    "edges": [
      [
        0,
        1
      ],
      [
        0,
        2
      ],
      [
        1,
        3
      ],
      [
        2,
        3
      ]
    ],
    "vertices": [
      [
        15,
        21
      ],
      [
        34,
        0
      ],
      [
        0,
        45
      ],
      [
        19,
        24
      ]
    ]
  }
}
