{
  "hole": [
    [
      34,
      0
    ],
    [
      17,
      30
    ],
    [
      10,
      62
    ],
    [
      13,
      30
    ],
    [
      0,
      0
    ]
  ],
  "epsilon": 6731,
  "figure": {
    "edges": [
      [
        0,
        1
      ],
      [
        0,
        3
      ],
      [
        1,
        2
      ],
      [
        1,
        3
      ],
      [
        2,
        4
      ],
      [
        3,
        4
      ]
    ],
    "vertices": [
      [
        0,
        0
      ],
      [
        0,
        34
      ],
      [
        17,
        62
      ],
      [
        30,
        17
      ],
      [
        45,
        46
      ]
    ]
  }
}
