{
  "hole": [
    [
      20,
      0
    ],
    [
      62,
      39
    ],
    [
      41,
      56
    ],
    [
      20,
      40
    ],
    [
      0,
      20
    ]
  ],
  "epsilon": 4757,
  "figure": {
    "edges": [
      [
        0,
        1
      ],
      [
        0,
        2
      ],
      [
        1,
        3
      ],
      [
        2,
        3
      ],
      [
        2,
        4
      ],
      [
        3,
        5
      ],
      [
        4,
        5
      ]
    ],
    "vertices": [
      [
        20,
        12
      ],
      [
        0,
        32
      ],
      [
        46,
        1
      ],
      [
        26,
        21
      ],
      [
        67,
        17
      ],
      [
        46,
        0
      ]
    ]
  }
}
