{
  "hole": [
    [
      0,
      20
    ],
    [
      28,
      0
    ],
    [
      55,
      61
    ],
    [
      40,
      96
    ],
    [
      7,
      91
    ],
    [
      0,
      54
    ]
  ],
  "epsilon": 16310,
  "figure": {
    "edges": [
      [
        0,
        1
      ],
      [
        0,
        3
      ],
      [
        0,
        4
      ],
      [
        1,
        2
      ],
      [
        1,
        4
      ],
      [
        2,
        5
      ],
      [
        3,
        4
      ],
      [
        4,
        6
      ],
      [
        5,
        6
      ]
    ],
    "vertices": [
      [
        18,
        2
      ],
      [
        52,
        0
      ],
      [
        16,
        11
      ],
      [
        0,
        31
      ],
      [
        37,
        31
      ],
      [
        47,
        24
      ],
      [
        14,
        5
      ]
    ]
  }
}
