{
  "hole": [
    [
      28,
      0
    ],
    [
      31,
      5
    ],
    [
      40,
      6
    ],
    [
      40,
      16
    ],
    [
      35,
      19
    ],
    [
      24,
      14
    ],
    [
      25,
      21
    ],
    [
      25,
      27
    ],
    [
      26,
      34
    ],
    [
      28,
      40
    ],
    [
      17,
      39
    ],
    [
      0,
      40
    ],
    [
      10,
      33
    ],
    [
      18,
      28
    ],
    [
      10,
      24
    ],
    [
      2,
      24
    ],
    [
      7,
      15
    ],
    [
      0,
      13
    ],
    [
      0,
      0
    ],
    [
      10,
      0
    ],
    [
      17,
      1
    ]
  ],
  "epsilon": 2500,
  "figure": {
    "edges": [
      [
        0,
        1
      ],
      [
        0,
        2
      ],
      [
        1,
        3
      ],
      [
        2,
        3
      ]
    ],
    "vertices": [
      [
        0,
        20
      ],
      [
        20,
        0
      ],
      [
        20,
        40
      ],
      [
        40,
        20
      ]
    ]
  }
}
