{
  "hole": [
    [
      3,
      0
    ],
    [
      9,
      0
    ],
    [
      9,
      8
    ],
    [
      12,
      16
    ],
    [
      18,
      4
    ],
    [
      19,
      18
    ],
    [
      28,
      6
    ],
    [
      32,
      0
    ],
    [
      40,
      0
    ],
    [
      36,
      7
    ],
    [
      37,
      14
    ],
    [
      35,
      22
    ],
    [
      25,
      21
    ],
    [
      27,
      27
    ],
    [
      30,
      34
    ],
    [
      26,
      41
    ],
    [
      18,
      32
    ],
    [
      17,
      40
    ],
    [
      8,
      41
    ],
    [
      0,
      41
    ],
    [
      3,
      33
    ],
    [
      0,
      27
    ],
    [
      6,
      26
    ],
    [
      6,
      20
    ],
    [
      0,
      11
    ],
    [
      0,
      5
    ]
  ],
  "epsilon": 2500,
  "figure": {
    "edges": [
      [
        0,
        1
      ],
      [
        0,
        2
      ],
      [
        1,
        3
      ],
      [
        2,
        3
      ]
    ],
    "vertices": [
      [
        0,
        20
      ],
      [
        20,
        0
      ],
      [
        20,
        40
      ],
      [
        40,
        20
      ]
    ]
  }
}
