{
  "hole": [
    [
      32,
      0
    ],
    [
      57,
      20
    ],
    [
      51,
      27
    ],
    [
      46,
      37
    ],
    [
      57,
      39
    ],
    [
      56,
      50
    ],
    [
      57,
      66
    ],
    [
      44,
      69
    ],
    [
      26,
      69
    ],
    [
      35,
      58
    ],
    [
      28,
      46
    ],
    [
      17,
      54
    ],
    [
      0,
      57
    ],
    [
      2,
      47
    ],
    [
      2,
      37
    ],
    [
      8,
      28
    ],
    [
      0,
      18
    ],
    [
      0,
      6
    ],
    [
      9,
      6
    ],
    [
      20,
      4
    ]
  ],
  "epsilon": 13457,
  "figure": {
    "edges": [
      [
        0,
        1
      ],
      [
        0,
        4
      ],
      [
        1,
        2
      ],
      [
        1,
        3
      ],
      [
        1,
        4
      ],
      [
        2,
        3
      ],
      [
        3,
        4
      ]
    ],
    "vertices": [
      [
        0,
        0
      ],
      [
        0,
        34
      ],
      [
        0,
        69
      ],
      [
        27,
        51
      ],
      [
        30,
        17
      ]
    ]
  }
}
