{
  "hole": [
    [
      0,
      19
    ],
    [
      1,
      8
    ],
    [
      0,
      0
    ],
    [
      24,
      0
    ],
    [
      26,
      12
    ],
    [
      36,
      4
    ],
    [
      33,
      17
    ],
    [
      36,
      25
    ],
    [
      36,
      43
    ],
    [
      34,
      51
    ],
    [
      36,
      60
    ],
    [
      34,
      71
    ],
    [
      27,
      61
    ],
    [
      20,
      64
    ],
    [
      12,
      71
    ],
    [
      0,
      71
    ],
    [
      0,
      63
    ],
    [
      1,
      47
    ],
    [
      0,
      37
    ],
    [
      2,
      28
    ]
  ],
  "epsilon": 15533,
  "figure": {
    "edges": [
      [
        0,
        2
      ],
      [
        0,
        4
      ],
      [
        1,
        2
      ],
      [
        1,
        3
      ],
      [
        2,
        3
      ],
      [
        2,
        4
      ],
      [
        3,
        4
      ]
    ],
    "vertices": [
      [
        14,
        34
      ],
      [
        34,
        2
      ],
      [
        0,
        0
      ],
      [
        15,
        31
      ],
      [
        36,
        3
      ]
    ]
  }
}
