{
  "hole": [
    [
      23,
      0
    ],
    [
      32,
      2
    ],
    [
      24,
      6
    ],
    [
      31,
      9
    ],
    [
      36,
      12
    ],
    [
      36,
      26
    ],
    [
      29,
      18
    ],
    [
      24,
      22
    ],
    [
      21,
      27
    ],
    [
      30,
      32
    ],
    [
      18,
      34
    ],
    [
      10,
      38
    ],
    [
      12,
      30
    ],
    [
      6,
      28
    ],
    [
      0,
      32
    ],
    [
      0,
      20
    ],
    [
      8,
      22
    ],
    [
      5,
      14
    ],
    [
      1,
      6
    ],
    [
      0,
      0
    ],
    [
      6,
      0
    ],
    [
      12,
      3
    ],
    [
      17,
      0
    ]
  ],
  "epsilon": 15010,
  "figure": {
    "edges": [
      [
        0,
        1
      ],
      [
        0,
        2
      ],
      [
        1,
        3
      ],
      [
        2,
        4
      ],
      [
        3,
        4
      ]
    ],
    "vertices": [
      [
        0,
        7
      ],
      [
        0,
        31
      ],
      [
        22,
        0
      ],
      [
        22,
        38
      ],
      [
        36,
        19
      ]
    ]
  }
}
