{
  "hole": [
    [
      54,
      0
    ],
    [
      54,
      9
    ],
    [
      52,
      18
    ],
    [
      49,
      26
    ],
    [
      54,
      34
    ],
    [
      54,
      43
    ],
    [
      45,
      47
    ],
    [
      40,
      36
    ],
    [
      28,
      47
    ],
    [
      14,
      47
    ],
    [
      15,
      39
    ],
    [
      7,
      32
    ],
    [
      0,
      24
    ],
    [
      4,
      17
    ],
    [
      0,
      8
    ],
    [
      0,
      0
    ]
  ],
  "epsilon": 16994,
  "figure": {
    "edges": [
      [
        0,
        1
      ],
      [
        0,
        2
      ],
      [
        0,
        5
      ],
      [
        1,
        2
      ],
      [
        1,
        3
      ],
      [
        2,
        4
      ],
      [
        2,
        5
      ],
      [
        3,
        4
      ],
      [
        4,
        5
      ]
    ],
    "vertices": [
      [
        48,
        2
      ],
      [
        54,
        29
      ],
      [
        27,
        20
      ],
      [
        27,
        20
      ],
      [
        7,
        0
      ],
      [
        0,
        27
      ]
    ]
  }
}
