{
  "hole": [
    [
      12,
      63
    ],
    [
      48,
      20
    ],
    [
      68,
      0
    ],
    [
      88,
      20
    ],
    [
      88,
      124
    ],
    [
      81,
      141
    ],
    [
      55,
      130
    ],
    [
      0,
      81
    ]
  ],
  "epsilon": 39400,
  "figure": {
    "edges": [
      [
        0,
        1
      ],
      [
        0,
        2
      ],
      [
        1,
        3
      ],
      [
        1,
        4
      ],
      [
        2,
        4
      ],
      [
        2,
        5
      ],
      [
        3,
        6
      ],
      [
        3,
        7
      ],
      [
        4,
        5
      ],
      [
        4,
        6
      ],
      [
        4,
        8
      ],
      [
        5,
        10
      ],
      [
        5,
        11
      ],
      [
        6,
        13
      ],
      [
        7,
        12
      ],
      [
        7,
        13
      ],
      [
        8,
        11
      ],
      [
        9,
        10
      ],
      [
        9,
        15
      ],
      [
        10,
        14
      ],
      [
        11,
        14
      ],
      [
        12,
        16
      ],
      [
        13,
        16
      ],
      [
        14,
        17
      ],
      [
        15,
        17
      ]
    ],
    "vertices": [
      [
        12,
        56
      ],
      [
        28,
        41
      ],
      [
        29,
        40
      ],
      [
        52,
        35
      ],
      [
        5,
        41
      ],
      [
        15,
        20
      ],
      [
        28,
        43
      ],
      [
        23,
        47
      ],
      [
        25,
        30
      ],
      [
        11,
        14
      ],
      [
        2,
        0
      ],
      [
        14,
        45
      ],
      [
        0,
        63
      ],
      [
        39,
        70
      ],
      [
        10,
        17
      ],
      [
        14,
        42
      ],
      [
        16,
        86
      ],
      [
        26,
        28
      ]
    ]
  }
}
