{
  "hole": [
    [
      2,
      0
    ],
    [
      47,
      21
    ],
    [
      40,
      1
    ],
    [
      59,
      0
    ],
    [
      80,
      27
    ],
    [
      90,
      38
    ],
    [
      72,
      43
    ],
    [
      66,
      66
    ],
    [
      86,
      55
    ],
    [
      90,
      74
    ],
    [
      78,
      95
    ],
    [
      58,
      82
    ],
    [
      34,
      77
    ],
    [
      39,
      58
    ],
    [
      21,
      64
    ],
    [
      0,
      73
    ],
    [
      0,
      45
    ],
    [
      5,
      31
    ],
    [
      0,
      9
    ]
  ],
  "epsilon": 90000,
  "figure": {
    "edges": [
      [
        9,
        17
      ],
      [
        17,
        22
      ],
      [
        22,
        27
      ],
      [
        27,
        19
      ],
      [
        19,
        14
      ],
      [
        14,
        8
      ],
      [
        8,
        9
      ],
      [
        22,
        28
      ],
      [
        28,
        30
      ],
      [
        9,
        6
      ],
      [
        6,
        4
      ],
      [
        19,
        23
      ],
      [
        23,
        24
      ],
      [
        24,
        20
      ],
      [
        20,
        21
      ],
      [
        14,
        10
      ],
      [
        10,
        11
      ],
      [
        11,
        15
      ],
      [
        15,
        16
      ],
      [
        23,
        29
      ],
      [
        29,
        32
      ],
      [
        10,
        7
      ],
      [
        7,
        2
      ],
      [
        24,
        33
      ],
      [
        33,
        35
      ],
      [
        11,
        3
      ],
      [
        3,
        0
      ],
      [
        21,
        25
      ],
      [
        25,
        26
      ],
      [
        26,
        18
      ],
      [
        18,
        13
      ],
      [
        13,
        12
      ],
      [
        12,
        16
      ],
      [
        15,
        5
      ],
      [
        5,
        1
      ],
      [
        20,
        31
      ],
      [
        31,
        34
      ],
      [
        16,
        21
      ]
    ],
    "vertices": [
      [
        0,
        60
      ],
      [
        10,
        90
      ],
      [
        15,
        25
      ],
      [
        15,
        45
      ],
      [
        20,
        0
      ],
      [
        20,
        65
      ],
      [
        25,
        15
      ],
      [
        25,
        30
      ],
      [
        30,
        25
      ],
      [
        35,
        15
      ],
      [
        35,
        40
      ],
      [
        35,
        50
      ],
      [
        35,
        65
      ],
      [
        35,
        85
      ],
      [
        40,
        35
      ],
      [
        40,
        55
      ],
      [
        40,
        60
      ],
      [
        45,
        10
      ],
      [
        45,
        95
      ],
      [
        50,
        35
      ],
      [
        50,
        55
      ],
      [
        50,
        60
      ],
      [
        55,
        15
      ],
      [
        55,
        40
      ],
      [
        55,
        50
      ],
      [
        55,
        65
      ],
      [
        55,
        85
      ],
      [
        60,
        25
      ],
      [
        65,
        15
      ],
      [
        65,
        30
      ],
      [
        70,
        0
      ],
      [
        70,
        65
      ],
      [
        75,
        25
      ],
      [
        75,
        45
      ],
      [
        80,
        90
      ],
      [
        90,
        60
      ]
    ]
  }
}
