{
  "hole": [
    [
      15,
      47
    ],
    [
      48,
      3
    ],
    [
      81,
      0
    ],
    [
      116,
      34
    ],
    [
      138,
      78
    ],
    [
      154,
      108
    ],
    [
      100,
      117
    ],
    [
      101,
      132
    ],
    [
      97,
      129
    ],
    [
      80,
      116
    ],
    [
      64,
      130
    ],
    [
      60,
      116
    ],
    [
      54,
      102
    ],
    [
      38,
      90
    ],
    [
      23,
      87
    ],
    [
      18,
      67
    ],
    [
      3,
      52
    ],
    [
      0,
      48
    ]
  ],
  "epsilon": 57778,
  "figure": {
    "edges": [
      [
        1,
        2
      ],
      [
        2,
        3
      ],
      [
        3,
        7
      ],
      [
        7,
        1
      ],
      [
        1,
        0
      ],
      [
        0,
        5
      ],
      [
        5,
        19
      ],
      [
        19,
        33
      ],
      [
        33,
        36
      ],
      [
        36,
        37
      ],
      [
        37,
        32
      ],
      [
        32,
        35
      ],
      [
        35,
        38
      ],
      [
        38,
        37
      ],
      [
        32,
        29
      ],
      [
        29,
        25
      ],
      [
        25,
        24
      ],
      [
        24,
        32
      ],
      [
        7,
        16
      ],
      [
        16,
        17
      ],
      [
        17,
        12
      ],
      [
        12,
        7
      ],
      [
        16,
        24
      ],
      [
        9,
        10
      ],
      [
        10,
        14
      ],
      [
        14,
        13
      ],
      [
        13,
        9
      ],
      [
        21,
        22
      ],
      [
        22,
        27
      ],
      [
        27,
        26
      ],
      [
        26,
        21
      ],
      [
        5,
        9
      ],
      [
        9,
        0
      ],
      [
        33,
        26
      ],
      [
        26,
        36
      ],
      [
        4,
        6
      ],
      [
        6,
        8
      ],
      [
        8,
        11
      ],
      [
        11,
        15
      ],
      [
        15,
        18
      ],
      [
        18,
        20
      ],
      [
        20,
        23
      ],
      [
        23,
        28
      ],
      [
        28,
        30
      ],
      [
        30,
        31
      ],
      [
        31,
        34
      ],
      [
        14,
        18
      ],
      [
        22,
        20
      ]
    ],
    "vertices": [
      [
        0,
        50
      ],
      [
        0,
        105
      ],
      [
        0,
        120
      ],
      [
        5,
        120
      ],
      [
        10,
        95
      ],
      [
        15,
        20
      ],
      [
        20,
        80
      ],
      [
        20,
        105
      ],
      [
        30,
        80
      ],
      [
        35,
        45
      ],
      [
        35,
        60
      ],
      [
        35,
        95
      ],
      [
        35,
        120
      ],
      [
        50,
        45
      ],
      [
        50,
        60
      ],
      [
        50,
        95
      ],
      [
        50,
        105
      ],
      [
        50,
        120
      ],
      [
        55,
        80
      ],
      [
        60,
        0
      ],
      [
        65,
        80
      ],
      [
        70,
        45
      ],
      [
        70,
        60
      ],
      [
        70,
        95
      ],
      [
        70,
        105
      ],
      [
        70,
        120
      ],
      [
        85,
        45
      ],
      [
        85,
        60
      ],
      [
        85,
        95
      ],
      [
        85,
        120
      ],
      [
        90,
        80
      ],
      [
        100,
        80
      ],
      [
        100,
        105
      ],
      [
        105,
        20
      ],
      [
        110,
        95
      ],
      [
        115,
        120
      ],
      [
        120,
        50
      ],
      [
        120,
        105
      ],
      [
        120,
        120
      ]
    ]
  }
}
