{
  "hole": [
    [
      6,
      253
    ],
    [
      37,
      248
    ],
    [
      70,
      239
    ],
    [
      50,
      243
    ],
    [
      19,
      230
    ],
    [
      19,
      209
    ],
    [
      23,
      201
    ],
    [
      17,
      169
    ],
    [
      46,
      153
    ],
    [
      71,
      177
    ],
    [
      82,
      181
    ],
    [
      69,
      152
    ],
    [
      93,
      123
    ],
    [
      74,
      87
    ],
    [
      73,
      82
    ],
    [
      86,
      39
    ],
    [
      125,
      50
    ],
    [
      121,
      3
    ],
    [
      172,
      0
    ],
    [
      174,
      49
    ],
    [
      184,
      91
    ],
    [
      148,
      115
    ],
    [
      127,
      145
    ],
    [
      117,
      179
    ],
    [
      137,
      200
    ],
    [
      156,
      206
    ],
    [
      190,
      186
    ],
    [
      222,
      178
    ],
    [
      209,
      210
    ],
    [
      192,
      232
    ],
    [
      223,
      234
    ],
    [
      206,
      260
    ],
    [
      183,
      273
    ],
    [
      165,
      297
    ],
    [
      162,
      326
    ],
    [
      131,
      334
    ],
    [
      163,
      338
    ],
    [
      186,
      357
    ],
    [
      168,
      380
    ],
    [
      143,
      364
    ],
    [
      108,
      379
    ],
    [
      76,
      399
    ],
    [
      66,
      401
    ],
    [
      36,
      392
    ],
    [
      38,
      357
    ],
    [
      25,
      327
    ],
    [
      47,
      305
    ],
    [
      48,
      275
    ],
    [
      22,
      295
    ],
    [
      0,
      277
    ]
  ],
  "epsilon": 44037,
  "figure": {
    "edges": [
      [
        0,
        1
      ],
      [
        0,
        6
      ],
      [
        1,
        10
      ],
      [
        2,
        7
      ],
      [
        2,
        14
      ],
      [
        3,
        5
      ],
      [
        3,
        12
      ],
      [
        4,
        7
      ],
      [
        4,
        18
      ],
      [
        5,
        13
      ],
      [
        6,
        16
      ],
      [
        7,
        19
      ],
      [
        8,
        11
      ],
      [
        8,
        15
      ],
      [
        9,
        11
      ],
      [
        9,
        21
      ],
      [
        10,
        16
      ],
      [
        10,
        23
      ],
      [
        11,
        25
      ],
      [
        12,
        13
      ],
      [
        12,
        29
      ],
      [
        13,
        27
      ],
      [
        14,
        24
      ],
      [
        15,
        16
      ],
      [
        15,
        30
      ],
      [
        16,
        32
      ],
      [
        17,
        20
      ],
      [
        17,
        31
      ],
      [
        18,
        19
      ],
      [
        19,
        23
      ],
      [
        19,
        24
      ],
      [
        19,
        36
      ],
      [
        20,
        44
      ],
      [
        21,
        35
      ],
      [
        22,
        33
      ],
      [
        22,
        39
      ],
      [
        23,
        32
      ],
      [
        23,
        41
      ],
      [
        24,
        36
      ],
      [
        25,
        30
      ],
      [
        25,
        35
      ],
      [
        26,
        34
      ],
      [
        26,
        50
      ],
      [
        27,
        29
      ],
      [
        27,
        41
      ],
      [
        28,
        38
      ],
      [
        28,
        39
      ],
      [
        28,
        50
      ],
      [
        29,
        33
      ],
      [
        29,
        41
      ],
      [
        30,
        40
      ],
      [
        31,
        46
      ],
      [
        32,
        40
      ],
      [
        32,
        42
      ],
      [
        32,
        47
      ],
      [
        33,
        51
      ],
      [
        34,
        55
      ],
      [
        36,
        41
      ],
      [
        37,
        44
      ],
      [
        37,
        52
      ],
      [
        38,
        50
      ],
      [
        39,
        50
      ],
      [
        39,
        57
      ],
      [
        40,
        43
      ],
      [
        40,
        58
      ],
      [
        41,
        47
      ],
      [
        41,
        56
      ],
      [
        42,
        45
      ],
      [
        42,
        59
      ],
      [
        43,
        54
      ],
      [
        44,
        46
      ],
      [
        44,
        60
      ],
      [
        45,
        61
      ],
      [
        46,
        64
      ],
      [
        47,
        62
      ],
      [
        48,
        49
      ],
      [
        48,
        63
      ],
      [
        49,
        62
      ],
      [
        50,
        55
      ],
      [
        50,
        68
      ],
      [
        51,
        56
      ],
      [
        51,
        57
      ],
      [
        52,
        60
      ],
      [
        52,
        63
      ],
      [
        53,
        55
      ],
      [
        53,
        79
      ],
      [
        54,
        66
      ],
      [
        55,
        80
      ],
      [
        56,
        67
      ],
      [
        57,
        68
      ],
      [
        58,
        59
      ],
      [
        58,
        66
      ],
      [
        58,
        71
      ],
      [
        59,
        69
      ],
      [
        59,
        72
      ],
      [
        60,
        64
      ],
      [
        60,
        73
      ],
      [
        60,
        74
      ],
      [
        61,
        69
      ],
      [
        62,
        63
      ],
      [
        62,
        67
      ],
      [
        62,
        77
      ],
      [
        63,
        75
      ],
      [
        64,
        74
      ],
      [
        64,
        78
      ],
      [
        65,
        70
      ],
      [
        65,
        77
      ],
      [
        67,
        76
      ],
      [
        67,
        77
      ],
      [
        68,
        82
      ],
      [
        70,
        83
      ],
      [
        71,
        72
      ],
      [
        73,
        75
      ],
      [
        74,
        84
      ],
      [
        75,
        81
      ],
      [
        76,
        85
      ],
      [
        76,
        86
      ],
      [
        77,
        81
      ],
      [
        77,
        85
      ],
      [
        77,
        87
      ],
      [
        78,
        84
      ],
      [
        79,
        80
      ],
      [
        80,
        82
      ],
      [
        81,
        88
      ],
      [
        83,
        87
      ],
      [
        85,
        89
      ],
      [
        86,
        89
      ],
      [
        86,
        90
      ],
      [
        87,
        88
      ],
      [
        87,
        91
      ],
      [
        88,
        91
      ],
      [
        89,
        90
      ]
    ],
    "vertices": [
      [
        39,
        58
      ],
      [
        26,
        37
      ],
      [
        59,
        49
      ],
      [
        49,
        60
      ],
      [
        24,
        33
      ],
      [
        66,
        69
      ],
      [
        30,
        85
      ],
      [
        49,
        18
      ],
      [
        74,
        62
      ],
      [
        65,
        116
      ],
      [
        57,
        41
      ],
      [
        50,
        84
      ],
      [
        42,
        83
      ],
      [
        64,
        94
      ],
      [
        90,
        59
      ],
      [
        78,
        93
      ],
      [
        59,
        70
      ],
      [
        13,
        72
      ],
      [
        36,
        65
      ],
      [
        68,
        46
      ],
      [
        49,
        53
      ],
      [
        44,
        92
      ],
      [
        29,
        81
      ],
      [
        46,
        74
      ],
      [
        61,
        79
      ],
      [
        23,
        64
      ],
      [
        3,
        60
      ],
      [
        48,
        70
      ],
      [
        0,
        78
      ],
      [
        74,
        84
      ],
      [
        52,
        76
      ],
      [
        40,
        95
      ],
      [
        39,
        45
      ],
      [
        56,
        64
      ],
      [
        46,
        72
      ],
      [
        58,
        65
      ],
      [
        91,
        71
      ],
      [
        44,
        60
      ],
      [
        18,
        39
      ],
      [
        22,
        44
      ],
      [
        72,
        49
      ],
      [
        69,
        53
      ],
      [
        43,
        81
      ],
      [
        46,
        64
      ],
      [
        51,
        87
      ],
      [
        47,
        50
      ],
      [
        70,
        117
      ],
      [
        47,
        77
      ],
      [
        59,
        51
      ],
      [
        71,
        26
      ],
      [
        41,
        79
      ],
      [
        25,
        48
      ],
      [
        70,
        51
      ],
      [
        64,
        50
      ],
      [
        53,
        92
      ],
      [
        79,
        94
      ],
      [
        44,
        74
      ],
      [
        47,
        76
      ],
      [
        45,
        68
      ],
      [
        76,
        74
      ],
      [
        39,
        57
      ],
      [
        73,
        74
      ],
      [
        60,
        51
      ],
      [
        64,
        80
      ],
      [
        60,
        81
      ],
      [
        80,
        82
      ],
      [
        18,
        75
      ],
      [
        72,
        78
      ],
      [
        71,
        49
      ],
      [
        91,
        44
      ],
      [
        91,
        59
      ],
      [
        67,
        90
      ],
      [
        45,
        65
      ],
      [
        39,
        89
      ],
      [
        70,
        50
      ],
      [
        61,
        108
      ],
      [
        100,
        73
      ],
      [
        89,
        56
      ],
      [
        70,
        53
      ],
      [
        74,
        0
      ],
      [
        64,
        48
      ],
      [
        74,
        81
      ],
      [
        60,
        91
      ],
      [
        108,
        81
      ],
      [
        98,
        60
      ],
      [
        72,
        79
      ],
      [
        105,
        42
      ],
      [
        79,
        84
      ],
      [
        48,
        87
      ],
      [
        100,
        72
      ],
      [
        132,
        60
      ],
      [
        67,
        112
      ]
    ]
  }
}
