{
  "hole": [
    [
      22,
      36
    ],
    [
      24,
      36
    ],
    [
      18,
      35
    ],
    [
      8,
      35
    ],
    [
      21,
      25
    ],
    [
      15,
      17
    ],
    [
      26,
      9
    ],
    [
      33,
      0
    ],
    [
      41,
      29
    ],
    [
      32,
      36
    ],
    [
      37,
      46
    ],
    [
      27,
      46
    ],
    [
      8,
      55
    ],
    [
      0,
      49
    ]
  ],
  "epsilon": 40000,
  "figure": {
    "edges": [
      [
        2,
        5
      ],
      [
        5,
        4
      ],
      [
        4,
        1
      ],
      [
        1,
        0
      ],
      [
        0,
        8
      ],
      [
        8,
        3
      ],
      [
        3,
        7
      ],
      [
        7,
        11
      ],
      [
        11,
        13
      ],
      [
        13,
        12
      ],
      [
        12,
        18
      ],
      [
        18,
        19
      ],
      [
        19,
        14
      ],
      [
        14,
        15
      ],
      [
        15,
        17
      ],
      [
        17,
        16
      ],
      [
        16,
        10
      ],
      [
        10,
        6
      ],
      [
        6,
        2
      ],
      [
        8,
        12
      ],
      [
        7,
        9
      ],
      [
        9,
        3
      ],
      [
        8,
        9
      ],
      [
        9,
        12
      ],
      [
        13,
        9
      ],
      [
        9,
        11
      ],
      [
        4,
        8
      ],
      [
        12,
        14
      ],
      [
        5,
        10
      ],
      [
        10,
        15
      ]
    ],
    "vertices": [
      [
        0,
        25
      ],
      [
        0,
        35
      ],
      [
        10,
        90
      ],
      [
        20,
        10
      ],
      [
        20,
        30
      ],
      [
        20,
        60
      ],
      [
        20,
        90
      ],
      [
        25,
        0
      ],
      [
        25,
        20
      ],
      [
        30,
        10
      ],
      [
        30,
        65
      ],
      [
        35,
        0
      ],
      [
        35,
        20
      ],
      [
        40,
        10
      ],
      [
        40,
        30
      ],
      [
        40,
        60
      ],
      [
        40,
        90
      ],
      [
        50,
        90
      ],
      [
        60,
        25
      ],
      [
        60,
        35
      ]
    ]
  }
}
