{
  "hole": [
    [
      6,
      42
    ],
    [
      12,
      40
    ],
    [
      14,
      33
    ],
    [
      8,
      30
    ],
    [
      12,
      24
    ],
    [
      18,
      21
    ],
    [
      22,
      15
    ],
    [
      27,
      10
    ],
    [
      26,
      3
    ],
    [
      32,
      0
    ],
    [
      37,
      4
    ],
    [
      44,
      1
    ],
    [
      48,
      7
    ],
    [
      55,
      7
    ],
    [
      61,
      8
    ],
    [
      61,
      15
    ],
    [
      65,
      21
    ],
    [
      68,
      27
    ],
    [
      74,
      28
    ],
    [
      73,
      35
    ],
    [
      67,
      39
    ],
    [
      66,
      46
    ],
    [
      79,
      47
    ],
    [
      65,
      51
    ],
    [
      59,
      47
    ],
    [
      52,
      45
    ],
    [
      46,
      46
    ],
    [
      41,
      50
    ],
    [
      37,
      56
    ],
    [
      32,
      50
    ],
    [
      32,
      43
    ],
    [
      26,
      41
    ],
    [
      19,
      42
    ],
    [
      13,
      46
    ],
    [
      6,
      48
    ],
    [
      0,
      45
    ]
  ],
  "epsilon": 177778,
  "figure": {
    "edges": [
      [
        21,
        16
      ],
      [
        16,
        10
      ],
      [
        10,
        9
      ],
      [
        9,
        15
      ],
      [
        15,
        20
      ],
      [
        20,
        21
      ],
      [
        33,
        27
      ],
      [
        27,
        21
      ],
      [
        21,
        20
      ],
      [
        20,
        26
      ],
      [
        26,
        32
      ],
      [
        32,
        33
      ],
      [
        44,
        39
      ],
      [
        39,
        33
      ],
      [
        33,
        32
      ],
      [
        32,
        38
      ],
      [
        38,
        43
      ],
      [
        43,
        44
      ],
      [
        40,
        34
      ],
      [
        34,
        28
      ],
      [
        28,
        27
      ],
      [
        27,
        33
      ],
      [
        33,
        39
      ],
      [
        39,
        40
      ],
      [
        28,
        22
      ],
      [
        22,
        17
      ],
      [
        17,
        16
      ],
      [
        16,
        21
      ],
      [
        21,
        27
      ],
      [
        27,
        28
      ],
      [
        17,
        11
      ],
      [
        11,
        5
      ],
      [
        5,
        4
      ],
      [
        4,
        10
      ],
      [
        10,
        16
      ],
      [
        16,
        17
      ],
      [
        50,
        45
      ],
      [
        45,
        40
      ],
      [
        40,
        39
      ],
      [
        39,
        44
      ],
      [
        44,
        49
      ],
      [
        49,
        50
      ],
      [
        46,
        41
      ],
      [
        41,
        35
      ],
      [
        35,
        34
      ],
      [
        34,
        40
      ],
      [
        40,
        45
      ],
      [
        45,
        46
      ],
      [
        35,
        29
      ],
      [
        29,
        23
      ],
      [
        23,
        22
      ],
      [
        22,
        28
      ],
      [
        28,
        34
      ],
      [
        34,
        35
      ],
      [
        23,
        18
      ],
      [
        18,
        12
      ],
      [
        12,
        11
      ],
      [
        11,
        17
      ],
      [
        17,
        22
      ],
      [
        22,
        23
      ],
      [
        12,
        6
      ],
      [
        6,
        1
      ],
      [
        1,
        0
      ],
      [
        0,
        5
      ],
      [
        5,
        11
      ],
      [
        11,
        12
      ],
      [
        55,
        51
      ],
      [
        51,
        46
      ],
      [
        46,
        45
      ],
      [
        45,
        50
      ],
      [
        50,
        54
      ],
      [
        54,
        55
      ],
      [
        52,
        47
      ],
      [
        47,
        42
      ],
      [
        42,
        41
      ],
      [
        41,
        46
      ],
      [
        46,
        51
      ],
      [
        51,
        52
      ],
      [
        42,
        36
      ],
      [
        36,
        30
      ],
      [
        30,
        29
      ],
      [
        29,
        35
      ],
      [
        35,
        41
      ],
      [
        41,
        42
      ],
      [
        30,
        24
      ],
      [
        24,
        19
      ],
      [
        19,
        18
      ],
      [
        18,
        23
      ],
      [
        23,
        29
      ],
      [
        29,
        30
      ],
      [
        19,
        13
      ],
      [
        13,
        7
      ],
      [
        7,
        6
      ],
      [
        6,
        12
      ],
      [
        12,
        18
      ],
      [
        18,
        19
      ],
      [
        14,
        8
      ],
      [
        8,
        3
      ],
      [
        3,
        2
      ],
      [
        2,
        7
      ],
      [
        7,
        13
      ],
      [
        13,
        14
      ],
      [
        37,
        31
      ],
      [
        31,
        25
      ],
      [
        25,
        24
      ],
      [
        24,
        30
      ],
      [
        30,
        36
      ],
      [
        36,
        37
      ],
      [
        57,
        53
      ],
      [
        53,
        48
      ],
      [
        48,
        47
      ],
      [
        47,
        52
      ],
      [
        52,
        56
      ],
      [
        56,
        57
      ]
    ],
    "vertices": [
      [
        0,
        24
      ],
      [
        0,
        31
      ],
      [
        0,
        45
      ],
      [
        0,
        52
      ],
      [
        6,
        14
      ],
      [
        6,
        21
      ],
      [
        6,
        35
      ],
      [
        6,
        42
      ],
      [
        6,
        56
      ],
      [
        12,
        3
      ],
      [
        12,
        10
      ],
      [
        12,
        24
      ],
      [
        12,
        31
      ],
      [
        12,
        45
      ],
      [
        12,
        52
      ],
      [
        18,
        0
      ],
      [
        18,
        14
      ],
      [
        18,
        21
      ],
      [
        18,
        35
      ],
      [
        18,
        42
      ],
      [
        24,
        3
      ],
      [
        24,
        10
      ],
      [
        24,
        24
      ],
      [
        24,
        31
      ],
      [
        24,
        45
      ],
      [
        24,
        52
      ],
      [
        31,
        0
      ],
      [
        31,
        14
      ],
      [
        31,
        21
      ],
      [
        31,
        35
      ],
      [
        31,
        42
      ],
      [
        31,
        56
      ],
      [
        37,
        3
      ],
      [
        37,
        10
      ],
      [
        37,
        24
      ],
      [
        37,
        31
      ],
      [
        37,
        45
      ],
      [
        37,
        52
      ],
      [
        43,
        0
      ],
      [
        43,
        14
      ],
      [
        43,
        21
      ],
      [
        43,
        35
      ],
      [
        43,
        42
      ],
      [
        49,
        3
      ],
      [
        49,
        10
      ],
      [
        49,
        24
      ],
      [
        49,
        31
      ],
      [
        49,
        45
      ],
      [
        49,
        52
      ],
      [
        55,
        14
      ],
      [
        55,
        21
      ],
      [
        55,
        35
      ],
      [
        55,
        42
      ],
      [
        55,
        56
      ],
      [
        61,
        24
      ],
      [
        61,
        31
      ],
      [
        61,
        45
      ],
      [
        61,
        52
      ]
    ]
  }
}
