{
  "hole": [
    [
      74,
      15
    ],
    [
      127,
      91
    ],
    [
      130,
      0
    ],
    [
      170,
      32
    ],
    [
      242,
      37
    ],
    [
      201,
      124
    ],
    [
      156,
      122
    ],
    [
      179,
      184
    ],
    [
      218,
      159
    ],
    [
      242,
      218
    ],
    [
      204,
      285
    ],
    [
      189,
      221
    ],
    [
      147,
      285
    ],
    [
      105,
      236
    ],
    [
      134,
      175
    ],
    [
      84,
      186
    ],
    [
      43,
      265
    ],
    [
      7,
      285
    ],
    [
      0,
      245
    ],
    [
      26,
      204
    ],
    [
      6,
      162
    ],
    [
      0,
      121
    ],
    [
      36,
      105
    ],
    [
      41,
      66
    ],
    [
      3,
      30
    ],
    [
      34,
      5
    ]
  ],
  "epsilon": 120690,
  "figure": {
    "edges": [
      [
        0,
        1
      ],
      [
        0,
        3
      ],
      [
        1,
        6
      ],
      [
        2,
        4
      ],
      [
        2,
        5
      ],
      [
        3,
        8
      ],
      [
        4,
        15
      ],
      [
        5,
        10
      ],
      [
        5,
        14
      ],
      [
        6,
        8
      ],
      [
        6,
        11
      ],
      [
        7,
        17
      ],
      [
        7,
        19
      ],
      [
        8,
        9
      ],
      [
        8,
        26
      ],
      [
        9,
        28
      ],
      [
        10,
        14
      ],
      [
        10,
        24
      ],
      [
        11,
        31
      ],
      [
        12,
        18
      ],
      [
        12,
        29
      ],
      [
        12,
        42
      ],
      [
        13,
        15
      ],
      [
        13,
        38
      ],
      [
        14,
        15
      ],
      [
        14,
        27
      ],
      [
        14,
        30
      ],
      [
        15,
        32
      ],
      [
        16,
        20
      ],
      [
        16,
        27
      ],
      [
        17,
        35
      ],
      [
        18,
        22
      ],
      [
        18,
        47
      ],
      [
        19,
        34
      ],
      [
        20,
        43
      ],
      [
        21,
        23
      ],
      [
        21,
        47
      ],
      [
        22,
        47
      ],
      [
        23,
        40
      ],
      [
        24,
        37
      ],
      [
        25,
        31
      ],
      [
        25,
        41
      ],
      [
        26,
        31
      ],
      [
        26,
        33
      ],
      [
        26,
        45
      ],
      [
        27,
        39
      ],
      [
        27,
        46
      ],
      [
        28,
        33
      ],
      [
        29,
        42
      ],
      [
        30,
        37
      ],
      [
        31,
        48
      ],
      [
        32,
        38
      ],
      [
        32,
        39
      ],
      [
        32,
        44
      ],
      [
        32,
        56
      ],
      [
        34,
        35
      ],
      [
        34,
        50
      ],
      [
        35,
        51
      ],
      [
        36,
        40
      ],
      [
        36,
        52
      ],
      [
        38,
        59
      ],
      [
        39,
        46
      ],
      [
        39,
        49
      ],
      [
        39,
        61
      ],
      [
        40,
        53
      ],
      [
        40,
        60
      ],
      [
        41,
        46
      ],
      [
        41,
        54
      ],
      [
        42,
        58
      ],
      [
        42,
        62
      ],
      [
        43,
        46
      ],
      [
        43,
        57
      ],
      [
        44,
        55
      ],
      [
        45,
        48
      ],
      [
        46,
        63
      ],
      [
        46,
        64
      ],
      [
        47,
        53
      ],
      [
        47,
        58
      ],
      [
        47,
        67
      ],
      [
        48,
        54
      ],
      [
        49,
        55
      ],
      [
        50,
        65
      ],
      [
        51,
        65
      ],
      [
        51,
        69
      ],
      [
        52,
        60
      ],
      [
        53,
        60
      ],
      [
        53,
        67
      ],
      [
        53,
        71
      ],
      [
        54,
        66
      ],
      [
        56,
        59
      ],
      [
        57,
        64
      ],
      [
        58,
        67
      ],
      [
        58,
        75
      ],
      [
        60,
        61
      ],
      [
        60,
        73
      ],
      [
        61,
        63
      ],
      [
        61,
        74
      ],
      [
        62,
        75
      ],
      [
        63,
        66
      ],
      [
        63,
        74
      ],
      [
        65,
        77
      ],
      [
        68,
        70
      ],
      [
        68,
        76
      ],
      [
        69,
        77
      ],
      [
        69,
        79
      ],
      [
        70,
        77
      ],
      [
        71,
        73
      ],
      [
        71,
        83
      ],
      [
        72,
        80
      ],
      [
        72,
        81
      ],
      [
        73,
        81
      ],
      [
        73,
        85
      ],
      [
        74,
        81
      ],
      [
        74,
        82
      ],
      [
        76,
        82
      ],
      [
        77,
        82
      ],
      [
        77,
        86
      ],
      [
        78,
        84
      ],
      [
        78,
        87
      ],
      [
        79,
        86
      ],
      [
        79,
        89
      ],
      [
        80,
        92
      ],
      [
        81,
        93
      ],
      [
        81,
        94
      ],
      [
        82,
        93
      ],
      [
        82,
        95
      ],
      [
        83,
        91
      ],
      [
        84,
        97
      ],
      [
        84,
        98
      ],
      [
        85,
        91
      ],
      [
        85,
        98
      ],
      [
        86,
        89
      ],
      [
        86,
        95
      ],
      [
        86,
        96
      ],
      [
        87,
        98
      ],
      [
        88,
        99
      ],
      [
        88,
        100
      ],
      [
        90,
        91
      ],
      [
        90,
        100
      ],
      [
        91,
        102
      ],
      [
        92,
        94
      ],
      [
        92,
        103
      ],
      [
        93,
        94
      ],
      [
        93,
        104
      ],
      [
        93,
        108
      ],
      [
        94,
        104
      ],
      [
        94,
        105
      ],
      [
        94,
        107
      ],
      [
        95,
        108
      ],
      [
        95,
        110
      ],
      [
        96,
        101
      ],
      [
        97,
        109
      ],
      [
        97,
        111
      ],
      [
        98,
        102
      ],
      [
        98,
        114
      ],
      [
        99,
        112
      ],
      [
        100,
        112
      ],
      [
        100,
        113
      ],
      [
        100,
        117
      ],
      [
        101,
        110
      ],
      [
        102,
        113
      ],
      [
        102,
        125
      ],
      [
        103,
        116
      ],
      [
        103,
        118
      ],
      [
        104,
        105
      ],
      [
        104,
        120
      ],
      [
        105,
        115
      ],
      [
        105,
        124
      ],
      [
        106,
        111
      ],
      [
        106,
        122
      ],
      [
        107,
        116
      ],
      [
        109,
        111
      ],
      [
        111,
        114
      ],
      [
        111,
        121
      ],
      [
        112,
        117
      ],
      [
        113,
        117
      ],
      [
        114,
        125
      ],
      [
        114,
        126
      ],
      [
        115,
        123
      ],
      [
        115,
        124
      ],
      [
        116,
        127
      ],
      [
        118,
        119
      ],
      [
        118,
        127
      ],
      [
        119,
        128
      ],
      [
        120,
        130
      ],
      [
        120,
        131
      ],
      [
        121,
        122
      ],
      [
        121,
        126
      ],
      [
        121,
        129
      ],
      [
        123,
        135
      ],
      [
        124,
        130
      ],
      [
        124,
        133
      ],
      [
        126,
        132
      ],
      [
        127,
        134
      ],
      [
        128,
        134
      ],
      [
        129,
        132
      ],
      [
        130,
        136
      ],
      [
        131,
        136
      ],
      [
        133,
        135
      ]
    ],
    "vertices": [
      [
        10,
        245
      ],
      [
        14,
        227
      ],
      [
        24,
        143
      ],
      [
        26,
        259
      ],
      [
        32,
        130
      ],
      [
        35,
        160
      ],
      [
        35,
        226
      ],
      [
        42,
        164
      ],
      [
        42,
        246
      ],
      [
        43,
        271
      ],
      [
        47,
        171
      ],
      [
        49,
        210
      ],
      [
        50,
        41
      ],
      [
        52,
        119
      ],
      [
        52,
        155
      ],
      [
        53,
        135
      ],
      [
        53,
        178
      ],
      [
        53,
        186
      ],
      [
        54,
        71
      ],
      [
        55,
        148
      ],
      [
        59,
        197
      ],
      [
        60,
        88
      ],
      [
        60,
        103
      ],
      [
        60,
        110
      ],
      [
        60,
        180
      ],
      [
        61,
        196
      ],
      [
        62,
        240
      ],
      [
        64,
        162
      ],
      [
        64,
        275
      ],
      [
        65,
        10
      ],
      [
        66,
        152
      ],
      [
        66,
        221
      ],
      [
        73,
        137
      ],
      [
        73,
        259
      ],
      [
        74,
        155
      ],
      [
        74,
        178
      ],
      [
        75,
        141
      ],
      [
        75,
        172
      ],
      [
        78,
        114
      ],
      [
        78,
        151
      ],
      [
        80,
        120
      ],
      [
        80,
        189
      ],
      [
        82,
        35
      ],
      [
        82,
        190
      ],
      [
        83,
        129
      ],
      [
        83,
        242
      ],
      [
        84,
        171
      ],
      [
        86,
        82
      ],
      [
        87,
        224
      ],
      [
        92,
        150
      ],
      [
        93,
        144
      ],
      [
        93,
        184
      ],
      [
        94,
        147
      ],
      [
        96,
        104
      ],
      [
        96,
        204
      ],
      [
        97,
        135
      ],
      [
        99,
        146
      ],
      [
        100,
        191
      ],
      [
        102,
        55
      ],
      [
        102,
        119
      ],
      [
        102,
        125
      ],
      [
        102,
        149
      ],
      [
        104,
        14
      ],
      [
        105,
        170
      ],
      [
        106,
        174
      ],
      [
        108,
        166
      ],
      [
        112,
        190
      ],
      [
        113,
        84
      ],
      [
        113,
        165
      ],
      [
        113,
        203
      ],
      [
        117,
        180
      ],
      [
        121,
        95
      ],
      [
        122,
        121
      ],
      [
        124,
        118
      ],
      [
        124,
        156
      ],
      [
        125,
        34
      ],
      [
        130,
        159
      ],
      [
        130,
        185
      ],
      [
        131,
        126
      ],
      [
        133,
        218
      ],
      [
        136,
        104
      ],
      [
        138,
        137
      ],
      [
        140,
        171
      ],
      [
        142,
        86
      ],
      [
        146,
        145
      ],
      [
        148,
        123
      ],
      [
        148,
        200
      ],
      [
        150,
        108
      ],
      [
        153,
        62
      ],
      [
        154,
        220
      ],
      [
        155,
        82
      ],
      [
        155,
        102
      ],
      [
        155,
        108
      ],
      [
        155,
        151
      ],
      [
        158,
        129
      ],
      [
        158,
        184
      ],
      [
        160,
        214
      ],
      [
        163,
        162
      ],
      [
        165,
        128
      ],
      [
        166,
        47
      ],
      [
        172,
        73
      ],
      [
        174,
        205
      ],
      [
        175,
        107
      ],
      [
        176,
        98
      ],
      [
        176,
        142
      ],
      [
        178,
        120
      ],
      [
        178,
        171
      ],
      [
        179,
        133
      ],
      [
        179,
        165
      ],
      [
        179,
        177
      ],
      [
        179,
        186
      ],
      [
        182,
        155
      ],
      [
        183,
        54
      ],
      [
        184,
        85
      ],
      [
        185,
        138
      ],
      [
        187,
        101
      ],
      [
        188,
        115
      ],
      [
        192,
        71
      ],
      [
        192,
        88
      ],
      [
        196,
        73
      ],
      [
        196,
        153
      ],
      [
        198,
        159
      ],
      [
        198,
        173
      ],
      [
        199,
        84
      ],
      [
        199,
        118
      ],
      [
        200,
        116
      ],
      [
        200,
        145
      ],
      [
        203,
        99
      ],
      [
        211,
        76
      ],
      [
        212,
        159
      ],
      [
        214,
        133
      ],
      [
        214,
        173
      ],
      [
        216,
        146
      ],
      [
        217,
        109
      ],
      [
        218,
        93
      ],
      [
        221,
        89
      ],
      [
        232,
        149
      ]
    ]
  }
}
