{
  "vertices": [
    [
      92,
      18
    ],
    [
      45,
      70
    ],
    [
      104,
      16
    ],
    [
      40,
      68
    ],
    [
      95,
      5
    ],
    [
      14,
      58
    ],
    [
      93,
      11
    ],
    [
      9,
      61
    ],
    [
      30,
      64
    ],
    [
      91,
      21
    ],
    [
      27,
      63
    ],
    [
      33,
      58
    ],
    [
      29,
      57
    ],
    [
      85,
      35
    ],
    [
      58,
      51
    ],
    [
      53,
      47
    ],
    [
      23,
      21
    ],
    [
      22,
      13
    ],
    [
      149,
      13
    ],
    [
      18,
      29
    ],
    [
      79,
      60
    ],
    [
      43,
      60
    ],
    [
      121,
      49
    ],
    [
      155,
      5
    ],
    [
      145,
      23
    ],
    [
      137,
      37
    ],
    [
      6,
      6
    ],
    [
      115,
      59
    ],
    [
      12,
      15
    ],
    [
      151,
      15
    ],
    [
      91,
      83
    ],
    [
      85,
      77
    ],
    [
      111,
      68
    ],
    [
      115,
      68
    ],
    [
      152,
      61
    ],
    [
      155,
      60
    ],
    [
      95,
      86
    ],
    [
      87,
      82
    ],
    [
      107,
      75
    ],
    [
      148,
      59
    ],
    [
      139,
      56
    ],
    [
      98,
      90
    ],
    [
      94,
      82
    ],
    [
      144,
      58
    ],
    [
      136,
      59
    ],
    [
      108,
      80
    ],
    [
      145,
      55
    ],
    [
      110,
      84
    ],
    [
      105,
      83
    ],
    [
      103,
      86
    ],
    [
      97,
      88
    ],
    [
      108,
      80
    ],
    [
      23,
      147
    ],
    [
      19,
      150
    ],
    [
      100,
      92
    ],
    [
      93,
      92
    ],
    [
      109,
      75
    ],
    [
      21,
      141
    ],
    [
      148,
      81
    ],
    [
      114,
      76
    ],
    [
      103,
      81
    ],
    [
      98,
      97
    ],
    [
      93,
      99
    ],
    [
      120,
      75
    ],
    [
      54,
      110
    ],
    [
      139,
      86
    ],
    [
      109,
      81
    ],
    [
      5,
      154
    ],
    [
      93,
      101
    ],
    [
      89,
      102
    ],
    [
      11,
      147
    ],
    [
      155,
      80
    ],
    [
      104,
      90
    ],
    [
      148,
      84
    ],
    [
      87,
      112
    ],
    [
      155,
      155
    ],
    [
      107,
      117
    ],
    [
      90,
      121
    ],
    [
      79,
      122
    ],
    [
      138,
      142
    ],
    [
      147,
      151
    ],
    [
      90,
      132
    ],
    [
      80,
      125
    ],
    [
      129,
      138
    ],
    [
      92,
      139
    ],
    [
      97,
      141
    ],
    [
      134,
      138
    ],
    [
      86,
      140
    ],
    [
      92,
      138
    ],
    [
      91,
      146
    ],
    [
      118,
      137
    ],
    [
      88,
      149
    ],
    [
      91,
      151
    ],
    [
      90,
      155
    ],
    [
      121,
      125
    ],
    [
      119,
      119
    ]
  ],
  "problem": 9,
  "time": "20210710_124540",
  "solver": "nakayama-sa"
}