{
  "vertices": [
    [
      45,
      92
    ],
    [
      53,
      76
    ],
    [
      58,
      75
    ],
    [
      36,
      64
    ],
    [
      32,
      52
    ],
    [
      18,
      47
    ],
    [
      84,
      61
    ],
    [
      34,
      38
    ],
    [
      29,
      40
    ],
    [
      41,
      36
    ],
    [
      40,
      22
    ],
    [
      53,
      24
    ],
    [
      90,
      19
    ]
  ],
  "problem": 8,
  "time": "20210710_085902",
  "solver": "nakayama-sa"
}