{
  "bonuses": [
    {
      "bonus": "SUPERFLEX",
      "problem": 98,
      "position": [
        58,
        160
      ]
    },
    {
      "bonus": "BREAK_A_LEG",
      "problem": 84,
      "position": [
        97,
        160
      ]
    },
    {
      "bonus": "WALLHACK",
      "problem": 40,
      "position": [
        76,
        118
      ]
    }
  ],
  "hole": [
    [
      30,
      140
    ],
    [
      60,
      135
    ],
    [
      61,
      100
    ],
    [
      58,
      78
    ],
    [
      50,
      119
    ],
    [
      35,
      103
    ],
    [
      35,
      82
    ],
    [
      15,
      99
    ],
    [
      10,
      77
    ],
    [
      22,
      55
    ],
    [
      46,
      49
    ],
    [
      -2,
      49
    ],
    [
      14,
      28
    ],
    [
      45,
      24
    ],
    [
      62,
      42
    ],
    [
      61,
      22
    ],
    [
      81,
      4
    ],
    [
      117,
      4
    ],
    [
      90,
      24
    ],
    [
      74,
      40
    ],
    [
      87,
      36
    ],
    [
      112,
      45
    ],
    [
      125,
      71
    ],
    [
      100,
      61
    ],
    [
      77,
      55
    ],
    [
      87,
      74
    ],
    [
      94,
      105
    ],
    [
      93,
      137
    ],
    [
      119,
      143
    ],
    [
      143,
      159
    ],
    [
      118,
      173
    ],
    [
      80,
      176
    ],
    [
      37,
      174
    ],
    [
      6,
      164
    ]
  ],
  "epsilon": 247059,
  "figure": {
    "edges": [
      [
        30,
        36
      ],
      [
        36,
        33
      ],
      [
        33,
        30
      ],
      [
        33,
        31
      ],
      [
        31,
        26
      ],
      [
        26,
        23
      ],
      [
        31,
        37
      ],
      [
        37,
        42
      ],
      [
        31,
        32
      ],
      [
        32,
        21
      ],
      [
        21,
        14
      ],
      [
        14,
        20
      ],
      [
        20,
        34
      ],
      [
        34,
        47
      ],
      [
        47,
        46
      ],
      [
        46,
        40
      ],
      [
        32,
        40
      ],
      [
        14,
        16
      ],
      [
        16,
        10
      ],
      [
        10,
        3
      ],
      [
        3,
        0
      ],
      [
        0,
        1
      ],
      [
        1,
        2
      ],
      [
        2,
        9
      ],
      [
        9,
        20
      ],
      [
        20,
        4
      ],
      [
        3,
        4
      ],
      [
        1,
        4
      ],
      [
        47,
        57
      ],
      [
        57,
        63
      ],
      [
        63,
        64
      ],
      [
        64,
        56
      ],
      [
        56,
        48
      ],
      [
        48,
        46
      ],
      [
        47,
        58
      ],
      [
        58,
        56
      ],
      [
        58,
        63
      ],
      [
        21,
        16
      ],
      [
        40,
        45
      ],
      [
        45,
        50
      ],
      [
        50,
        53
      ],
      [
        53,
        61
      ],
      [
        61,
        62
      ],
      [
        62,
        52
      ],
      [
        52,
        44
      ],
      [
        44,
        40
      ],
      [
        44,
        46
      ],
      [
        52,
        45
      ],
      [
        50,
        62
      ],
      [
        21,
        18
      ],
      [
        18,
        19
      ],
      [
        19,
        24
      ],
      [
        24,
        15
      ],
      [
        15,
        7
      ],
      [
        7,
        8
      ],
      [
        8,
        16
      ],
      [
        8,
        18
      ],
      [
        19,
        7
      ],
      [
        21,
        12
      ],
      [
        12,
        13
      ],
      [
        13,
        25
      ],
      [
        25,
        28
      ],
      [
        28,
        17
      ],
      [
        17,
        6
      ],
      [
        6,
        5
      ],
      [
        13,
        5
      ],
      [
        28,
        39
      ],
      [
        39,
        51
      ],
      [
        51,
        60
      ],
      [
        60,
        59
      ],
      [
        59,
        55
      ],
      [
        55,
        49
      ],
      [
        49,
        39
      ],
      [
        55,
        54
      ],
      [
        54,
        60
      ],
      [
        6,
        11
      ],
      [
        11,
        13
      ],
      [
        45,
        49
      ],
      [
        25,
        35
      ],
      [
        35,
        49
      ],
      [
        35,
        32
      ],
      [
        22,
        27
      ],
      [
        27,
        29
      ],
      [
        29,
        22
      ],
      [
        29,
        30
      ],
      [
        38,
        41
      ],
      [
        41,
        43
      ],
      [
        43,
        38
      ],
      [
        38,
        36
      ],
      [
        41,
        47
      ],
      [
        27,
        20
      ]
    ],
    "vertices": [
      [
        19,
        126
      ],
      [
        20,
        105
      ],
      [
        34,
        83
      ],
      [
        35,
        121
      ],
      [
        39,
        95
      ],
      [
        39,
        134
      ],
      [
        41,
        146
      ],
      [
        44,
        133
      ],
      [
        46,
        107
      ],
      [
        48,
        71
      ],
      [
        51,
        108
      ],
      [
        52,
        147
      ],
      [
        55,
        116
      ],
      [
        55,
        133
      ],
      [
        56,
        82
      ],
      [
        56,
        142
      ],
      [
        57,
        93
      ],
      [
        58,
        158
      ],
      [
        61,
        112
      ],
      [
        61,
        122
      ],
      [
        62,
        66
      ],
      [
        64,
        96
      ],
      [
        65,
        79
      ],
      [
        65,
        87
      ],
      [
        65,
        131
      ],
      [
        65,
        141
      ],
      [
        67,
        93
      ],
      [
        70,
        75
      ],
      [
        70,
        153
      ],
      [
        72,
        80
      ],
      [
        72,
        84
      ],
      [
        75,
        96
      ],
      [
        75,
        100
      ],
      [
        77,
        91
      ],
      [
        79,
        62
      ],
      [
        79,
        134
      ],
      [
        81,
        86
      ],
      [
        82,
        96
      ],
      [
        83,
        81
      ],
      [
        84,
        152
      ],
      [
        85,
        99
      ],
      [
        88,
        77
      ],
      [
        88,
        91
      ],
      [
        90,
        84
      ],
      [
        91,
        98
      ],
      [
        91,
        115
      ],
      [
        93,
        90
      ],
      [
        94,
        73
      ],
      [
        94,
        105
      ],
      [
        95,
        132
      ],
      [
        97,
        121
      ],
      [
        99,
        154
      ],
      [
        101,
        104
      ],
      [
        101,
        133
      ],
      [
        101,
        142
      ],
      [
        102,
        126
      ],
      [
        108,
        123
      ],
      [
        112,
        86
      ],
      [
        112,
        108
      ],
      [
        112,
        130
      ],
      [
        113,
        145
      ],
      [
        115,
        133
      ],
      [
        118,
        121
      ],
      [
        126,
        110
      ],
      [
        129,
        129
      ]
    ]
  },
  "problem": 101,
  "can_use_bonuses": [
    {
      "bonus": "SUPERFLEX",
      "problem": 38
    },
    {
      "bonus": "SUPERFLEX",
      "problem": 83
    },
    {
      "bonus": "BREAK_A_LEG",
      "problem": 95
    }
  ]
}