{
  "bonuses": [
    {
      "bonus": "SUPERFLEX",
      "problem": 105,
      "position": [
        102,
        69
      ]
    },
    {
      "bonus": "SUPERFLEX",
      "problem": 7,
      "position": [
        15,
        36
      ]
    },
    {
      "bonus": "BREAK_A_LEG",
      "problem": 58,
      "position": [
        111,
        105
      ]
    }
  ],
  "hole": [
    [
      0,
      34
    ],
    [
      29,
      28
    ],
    [
      22,
      11
    ],
    [
      38,
      18
    ],
    [
      43,
      3
    ],
    [
      57,
      0
    ],
    [
      60,
      8
    ],
    [
      57,
      16
    ],
    [
      48,
      37
    ],
    [
      67,
      28
    ],
    [
      85,
      22
    ],
    [
      68,
      0
    ],
    [
      88,
      7
    ],
    [
      101,
      1
    ],
    [
      101,
      24
    ],
    [
      117,
      0
    ],
    [
      119,
      21
    ],
    [
      118,
      30
    ],
    [
      118,
      40
    ],
    [
      125,
      49
    ],
    [
      120,
      59
    ],
    [
      91,
      34
    ],
    [
      77,
      47
    ],
    [
      52,
      50
    ],
    [
      68,
      58
    ],
    [
      85,
      67
    ],
    [
      125,
      71
    ],
    [
      125,
      82
    ],
    [
      114,
      82
    ],
    [
      103,
      92
    ],
    [
      125,
      107
    ],
    [
      83,
      105
    ],
    [
      100,
      117
    ],
    [
      108,
      119
    ],
    [
      125,
      130
    ],
    [
      93,
      129
    ],
    [
      83,
      121
    ],
    [
      72,
      130
    ],
    [
      61,
      129
    ],
    [
      72,
      103
    ],
    [
      56,
      117
    ],
    [
      49,
      128
    ],
    [
      31,
      130
    ],
    [
      39,
      113
    ],
    [
      50,
      101
    ],
    [
      40,
      99
    ],
    [
      45,
      85
    ],
    [
      62,
      94
    ],
    [
      48,
      60
    ],
    [
      30,
      68
    ],
    [
      22,
      86
    ],
    [
      23,
      100
    ],
    [
      22,
      125
    ],
    [
      14,
      105
    ],
    [
      2,
      116
    ],
    [
      3,
      97
    ],
    [
      0,
      83
    ],
    [
      0,
      73
    ],
    [
      14,
      78
    ],
    [
      12,
      63
    ],
    [
      13,
      52
    ],
    [
      0,
      51
    ]
  ],
  "epsilon": 200000,
  "figure": {
    "edges": [
      [
        9,
        17
      ],
      [
        17,
        22
      ],
      [
        22,
        27
      ],
      [
        27,
        19
      ],
      [
        19,
        14
      ],
      [
        14,
        8
      ],
      [
        8,
        9
      ],
      [
        22,
        28
      ],
      [
        28,
        30
      ],
      [
        9,
        6
      ],
      [
        6,
        4
      ],
      [
        19,
        23
      ],
      [
        23,
        24
      ],
      [
        24,
        20
      ],
      [
        20,
        21
      ],
      [
        14,
        10
      ],
      [
        10,
        11
      ],
      [
        11,
        15
      ],
      [
        15,
        16
      ],
      [
        23,
        29
      ],
      [
        29,
        32
      ],
      [
        10,
        7
      ],
      [
        7,
        2
      ],
      [
        24,
        33
      ],
      [
        33,
        35
      ],
      [
        11,
        3
      ],
      [
        3,
        0
      ],
      [
        21,
        25
      ],
      [
        25,
        26
      ],
      [
        26,
        18
      ],
      [
        18,
        13
      ],
      [
        13,
        12
      ],
      [
        12,
        16
      ],
      [
        15,
        5
      ],
      [
        5,
        1
      ],
      [
        20,
        31
      ],
      [
        31,
        34
      ],
      [
        16,
        21
      ]
    ],
    "vertices": [
      [
        25,
        80
      ],
      [
        35,
        110
      ],
      [
        40,
        45
      ],
      [
        40,
        65
      ],
      [
        45,
        20
      ],
      [
        45,
        85
      ],
      [
        50,
        35
      ],
      [
        50,
        50
      ],
      [
        55,
        45
      ],
      [
        60,
        35
      ],
      [
        60,
        60
      ],
      [
        60,
        70
      ],
      [
        60,
        85
      ],
      [
        60,
        105
      ],
      [
        65,
        55
      ],
      [
        65,
        75
      ],
      [
        65,
        80
      ],
      [
        70,
        30
      ],
      [
        70,
        115
      ],
      [
        75,
        55
      ],
      [
        75,
        75
      ],
      [
        75,
        80
      ],
      [
        80,
        35
      ],
      [
        80,
        60
      ],
      [
        80,
        70
      ],
      [
        80,
        85
      ],
      [
        80,
        105
      ],
      [
        85,
        45
      ],
      [
        90,
        35
      ],
      [
        90,
        50
      ],
      [
        95,
        20
      ],
      [
        95,
        85
      ],
      [
        100,
        45
      ],
      [
        100,
        65
      ],
      [
        105,
        110
      ],
      [
        115,
        80
      ]
    ]
  },
  "problem": 104,
  "can_use_bonuses": [
    {
      "bonus": "BREAK_A_LEG",
      "problem": 49
    },
    {
      "bonus": "GLOBALIST",
      "problem": 103
    },
    {
      "bonus": "BREAK_A_LEG",
      "problem": 106
    }
  ]
}