{
  "bonuses": [
    {
      "bonus": "SUPERFLEX",
      "problem": 125,
      "position": [
        135,
        42
      ]
    },
    {
      "bonus": "BREAK_A_LEG",
      "problem": 130,
      "position": [
        90,
        165
      ]
    },
    {
      "bonus": "WALLHACK",
      "problem": 10,
      "position": [
        117,
        165
      ]
    }
  ],
  "hole": [
    [
      12,
      17
    ],
    [
      39,
      9
    ],
    [
      48,
      42
    ],
    [
      90,
      0
    ],
    [
      112,
      20
    ],
    [
      140,
      0
    ],
    [
      172,
      10
    ],
    [
      165,
      35
    ],
    [
      95,
      53
    ],
    [
      136,
      87
    ],
    [
      159,
      75
    ],
    [
      188,
      78
    ],
    [
      180,
      103
    ],
    [
      142,
      120
    ],
    [
      168,
      141
    ],
    [
      187,
      185
    ],
    [
      149,
      194
    ],
    [
      143,
      154
    ],
    [
      111,
      194
    ],
    [
      97,
      128
    ],
    [
      85,
      194
    ],
    [
      45,
      180
    ],
    [
      19,
      194
    ],
    [
      0,
      159
    ],
    [
      43,
      137
    ],
    [
      45,
      108
    ],
    [
      0,
      73
    ],
    [
      34,
      67
    ],
    [
      7,
      42
    ]
  ],
  "epsilon": 150000,
  "figure": {
    "edges": [
      [
        4,
        9
      ],
      [
        9,
        12
      ],
      [
        12,
        6
      ],
      [
        6,
        0
      ],
      [
        0,
        2
      ],
      [
        2,
        16
      ],
      [
        16,
        44
      ],
      [
        44,
        32
      ],
      [
        32,
        13
      ],
      [
        13,
        3
      ],
      [
        3,
        1
      ],
      [
        1,
        5
      ],
      [
        5,
        10
      ],
      [
        10,
        8
      ],
      [
        8,
        4
      ],
      [
        8,
        9
      ],
      [
        12,
        10
      ],
      [
        5,
        6
      ],
      [
        1,
        0
      ],
      [
        13,
        16
      ],
      [
        2,
        3
      ],
      [
        7,
        36
      ],
      [
        36,
        41
      ],
      [
        41,
        28
      ],
      [
        28,
        18
      ],
      [
        18,
        27
      ],
      [
        27,
        37
      ],
      [
        37,
        29
      ],
      [
        29,
        11
      ],
      [
        11,
        7
      ],
      [
        7,
        24
      ],
      [
        24,
        26
      ],
      [
        29,
        36
      ],
      [
        37,
        41
      ],
      [
        27,
        28
      ],
      [
        32,
        26
      ],
      [
        48,
        49
      ],
      [
        49,
        50
      ],
      [
        50,
        30
      ],
      [
        30,
        17
      ],
      [
        17,
        22
      ],
      [
        22,
        33
      ],
      [
        33,
        31
      ],
      [
        31,
        23
      ],
      [
        23,
        35
      ],
      [
        35,
        38
      ],
      [
        38,
        19
      ],
      [
        19,
        15
      ],
      [
        15,
        34
      ],
      [
        34,
        60
      ],
      [
        60,
        55
      ],
      [
        55,
        52
      ],
      [
        31,
        35
      ],
      [
        33,
        38
      ],
      [
        22,
        19
      ],
      [
        15,
        17
      ],
      [
        30,
        34
      ],
      [
        50,
        60
      ],
      [
        49,
        55
      ],
      [
        48,
        44
      ],
      [
        52,
        65
      ],
      [
        65,
        80
      ],
      [
        80,
        90
      ],
      [
        90,
        92
      ],
      [
        92,
        100
      ],
      [
        100,
        104
      ],
      [
        104,
        94
      ],
      [
        94,
        107
      ],
      [
        107,
        101
      ],
      [
        101,
        86
      ],
      [
        86,
        83
      ],
      [
        83,
        78
      ],
      [
        78,
        68
      ],
      [
        68,
        61
      ],
      [
        65,
        68
      ],
      [
        78,
        80
      ],
      [
        83,
        90
      ],
      [
        92,
        86
      ],
      [
        100,
        101
      ],
      [
        104,
        107
      ],
      [
        61,
        63
      ],
      [
        63,
        74
      ],
      [
        74,
        89
      ],
      [
        89,
        103
      ],
      [
        103,
        110
      ],
      [
        110,
        112
      ],
      [
        112,
        111
      ],
      [
        111,
        102
      ],
      [
        102,
        85
      ],
      [
        85,
        77
      ],
      [
        77,
        69
      ],
      [
        63,
        69
      ],
      [
        77,
        74
      ],
      [
        85,
        89
      ],
      [
        103,
        102
      ],
      [
        110,
        111
      ],
      [
        72,
        91
      ],
      [
        91,
        105
      ],
      [
        105,
        106
      ],
      [
        106,
        98
      ],
      [
        98,
        88
      ],
      [
        88,
        87
      ],
      [
        87,
        95
      ],
      [
        95,
        96
      ],
      [
        96,
        97
      ],
      [
        97,
        84
      ],
      [
        84,
        82
      ],
      [
        82,
        99
      ],
      [
        99,
        109
      ],
      [
        109,
        108
      ],
      [
        108,
        93
      ],
      [
        93,
        69
      ],
      [
        69,
        72
      ],
      [
        91,
        93
      ],
      [
        105,
        108
      ],
      [
        109,
        106
      ],
      [
        98,
        99
      ],
      [
        82,
        88
      ],
      [
        87,
        84
      ],
      [
        95,
        97
      ],
      [
        72,
        71
      ],
      [
        71,
        81
      ],
      [
        81,
        70
      ],
      [
        70,
        79
      ],
      [
        79,
        75
      ],
      [
        75,
        76
      ],
      [
        76,
        66
      ],
      [
        66,
        73
      ],
      [
        73,
        67
      ],
      [
        71,
        67
      ],
      [
        81,
        73
      ],
      [
        70,
        66
      ],
      [
        79,
        76
      ],
      [
        67,
        62
      ],
      [
        62,
        53
      ],
      [
        53,
        46
      ],
      [
        46,
        39
      ],
      [
        39,
        24
      ],
      [
        11,
        26
      ],
      [
        39,
        20
      ],
      [
        20,
        25
      ],
      [
        25,
        40
      ],
      [
        40,
        42
      ],
      [
        42,
        54
      ],
      [
        54,
        59
      ],
      [
        59,
        58
      ],
      [
        58,
        57
      ],
      [
        57,
        51
      ],
      [
        51,
        47
      ],
      [
        47,
        43
      ],
      [
        43,
        21
      ],
      [
        21,
        14
      ],
      [
        14,
        24
      ],
      [
        57,
        59
      ],
      [
        51,
        54
      ],
      [
        47,
        42
      ],
      [
        40,
        43
      ],
      [
        21,
        25
      ],
      [
        20,
        14
      ],
      [
        39,
        45
      ],
      [
        45,
        48
      ],
      [
        45,
        56
      ],
      [
        56,
        64
      ],
      [
        64,
        61
      ],
      [
        48,
        52
      ],
      [
        52,
        61
      ],
      [
        64,
        67
      ]
    ],
    "vertices": [
      [
        29,
        64
      ],
      [
        34,
        63
      ],
      [
        37,
        44
      ],
      [
        39,
        48
      ],
      [
        43,
        56
      ],
      [
        43,
        68
      ],
      [
        43,
        72
      ],
      [
        48,
        83
      ],
      [
        49,
        58
      ],
      [
        50,
        56
      ],
      [
        51,
        64
      ],
      [
        51,
        71
      ],
      [
        54,
        64
      ],
      [
        57,
        48
      ],
      [
        58,
        129
      ],
      [
        59,
        26
      ],
      [
        60,
        43
      ],
      [
        63,
        27
      ],
      [
        63,
        52
      ],
      [
        65,
        43
      ],
      [
        66,
        134
      ],
      [
        67,
        155
      ],
      [
        68,
        40
      ],
      [
        69,
        33
      ],
      [
        70,
        105
      ],
      [
        70,
        150
      ],
      [
        72,
        92
      ],
      [
        73,
        51
      ],
      [
        74,
        48
      ],
      [
        74,
        67
      ],
      [
        76,
        20
      ],
      [
        76,
        33
      ],
      [
        76,
        87
      ],
      [
        77,
        38
      ],
      [
        78,
        15
      ],
      [
        78,
        31
      ],
      [
        78,
        70
      ],
      [
        79,
        58
      ],
      [
        80,
        40
      ],
      [
        81,
        113
      ],
      [
        81,
        150
      ],
      [
        83,
        58
      ],
      [
        83,
        136
      ],
      [
        84,
        153
      ],
      [
        86,
        74
      ],
      [
        86,
        93
      ],
      [
        86,
        124
      ],
      [
        87,
        140
      ],
      [
        88,
        73
      ],
      [
        90,
        50
      ],
      [
        95,
        39
      ],
      [
        95,
        138
      ],
      [
        96,
        68
      ],
      [
        97,
        130
      ],
      [
        97,
        134
      ],
      [
        98,
        53
      ],
      [
        98,
        86
      ],
      [
        98,
        142
      ],
      [
        99,
        154
      ],
      [
        102,
        142
      ],
      [
        104,
        39
      ],
      [
        105,
        73
      ],
      [
        105,
        125
      ],
      [
        109,
        74
      ],
      [
        109,
        95
      ],
      [
        111,
        37
      ],
      [
        112,
        139
      ],
      [
        114,
        112
      ],
      [
        117,
        43
      ],
      [
        117,
        81
      ],
      [
        118,
        139
      ],
      [
        119,
        103
      ],
      [
        120,
        93
      ],
      [
        122,
        118
      ],
      [
        123,
        57
      ],
      [
        125,
        170
      ],
      [
        126,
        154
      ],
      [
        127,
        63
      ],
      [
        129,
        36
      ],
      [
        129,
        152
      ],
      [
        131,
        29
      ],
      [
        132,
        117
      ],
      [
        136,
        115
      ],
      [
        137,
        40
      ],
      [
        138,
        103
      ],
      [
        139,
        61
      ],
      [
        140,
        52
      ],
      [
        140,
        106
      ],
      [
        140,
        114
      ],
      [
        141,
        55
      ],
      [
        143,
        38
      ],
      [
        143,
        85
      ],
      [
        144,
        49
      ],
      [
        146,
        77
      ],
      [
        147,
        44
      ],
      [
        147,
        105
      ],
      [
        149,
        113
      ],
      [
        150,
        103
      ],
      [
        151,
        119
      ],
      [
        151,
        124
      ],
      [
        152,
        52
      ],
      [
        153,
        55
      ],
      [
        153,
        72
      ],
      [
        155,
        68
      ],
      [
        156,
        41
      ],
      [
        156,
        94
      ],
      [
        158,
        111
      ],
      [
        160,
        37
      ],
      [
        163,
        91
      ],
      [
        164,
        114
      ],
      [
        165,
        66
      ],
      [
        167,
        69
      ],
      [
        169,
        56
      ]
    ]
  },
  "problem": 107,
  "can_use_bonuses": [
    {
      "bonus": "WALLHACK",
      "problem": 27
    },
    {
      "bonus": "SUPERFLEX",
      "problem": 112
    },
    {
      "bonus": "GLOBALIST",
      "problem": 124
    }
  ]
}