{
  "bonuses": [
    {
      "bonus": "BREAK_A_LEG",
      "problem": 108,
      "position": [
        72,
        54
      ]
    },
    {
      "bonus": "GLOBALIST",
      "problem": 115,
      "position": [
        33,
        57
      ]
    },
    {
      "bonus": "SUPERFLEX",
      "problem": 43,
      "position": [
        18,
        75
      ]
    }
  ],
  "hole": [
    [
      19,
      4
    ],
    [
      36,
      0
    ],
    [
      44,
      0
    ],
    [
      52,
      1
    ],
    [
      72,
      24
    ],
    [
      70,
      38
    ],
    [
      79,
      70
    ],
    [
      54,
      37
    ],
    [
      46,
      50
    ],
    [
      48,
      66
    ],
    [
      54,
      77
    ],
    [
      41,
      83
    ],
    [
      31,
      71
    ],
    [
      6,
      84
    ],
    [
      14,
      63
    ],
    [
      20,
      46
    ],
    [
      2,
      56
    ],
    [
      0,
      39
    ],
    [
      0,
      24
    ],
    [
      10,
      16
    ]
  ],
  "epsilon": 146789,
  "figure": {
    "edges": [
      [
        0,
        4
      ],
      [
        0,
        7
      ],
      [
        0,
        14
      ],
      [
        1,
        2
      ],
      [
        1,
        3
      ],
      [
        2,
        3
      ],
      [
        2,
        7
      ],
      [
        3,
        6
      ],
      [
        3,
        8
      ],
      [
        3,
        9
      ],
      [
        3,
        14
      ],
      [
        4,
        7
      ],
      [
        5,
        11
      ],
      [
        5,
        15
      ],
      [
        5,
        16
      ],
      [
        6,
        14
      ],
      [
        7,
        10
      ],
      [
        8,
        9
      ],
      [
        9,
        12
      ],
      [
        9,
        14
      ],
      [
        11,
        15
      ],
      [
        11,
        18
      ],
      [
        12,
        16
      ],
      [
        12,
        22
      ],
      [
        13,
        14
      ],
      [
        13,
        22
      ],
      [
        14,
        17
      ],
      [
        14,
        20
      ],
      [
        15,
        18
      ],
      [
        16,
        18
      ],
      [
        16,
        21
      ],
      [
        16,
        22
      ],
      [
        17,
        19
      ],
      [
        17,
        22
      ],
      [
        17,
        25
      ],
      [
        17,
        32
      ],
      [
        17,
        35
      ],
      [
        18,
        21
      ],
      [
        18,
        28
      ],
      [
        18,
        29
      ],
      [
        19,
        32
      ],
      [
        20,
        22
      ],
      [
        20,
        25
      ],
      [
        21,
        29
      ],
      [
        22,
        25
      ],
      [
        23,
        24
      ],
      [
        23,
        30
      ],
      [
        23,
        32
      ],
      [
        24,
        26
      ],
      [
        24,
        33
      ],
      [
        25,
        35
      ],
      [
        26,
        27
      ],
      [
        26,
        30
      ],
      [
        26,
        32
      ],
      [
        27,
        30
      ],
      [
        27,
        33
      ],
      [
        27,
        35
      ],
      [
        27,
        38
      ],
      [
        27,
        42
      ],
      [
        28,
        29
      ],
      [
        28,
        31
      ],
      [
        29,
        31
      ],
      [
        29,
        34
      ],
      [
        29,
        39
      ],
      [
        31,
        34
      ],
      [
        33,
        37
      ],
      [
        33,
        42
      ],
      [
        34,
        39
      ],
      [
        34,
        41
      ],
      [
        35,
        36
      ],
      [
        35,
        38
      ],
      [
        39,
        40
      ],
      [
        40,
        41
      ]
    ],
    "vertices": [
      [
        0,
        85
      ],
      [
        1,
        57
      ],
      [
        1,
        59
      ],
      [
        5,
        54
      ],
      [
        6,
        74
      ],
      [
        8,
        6
      ],
      [
        8,
        67
      ],
      [
        8,
        74
      ],
      [
        9,
        33
      ],
      [
        10,
        45
      ],
      [
        10,
        69
      ],
      [
        15,
        3
      ],
      [
        18,
        30
      ],
      [
        19,
        45
      ],
      [
        23,
        65
      ],
      [
        25,
        10
      ],
      [
        27,
        11
      ],
      [
        29,
        44
      ],
      [
        31,
        10
      ],
      [
        31,
        57
      ],
      [
        32,
        21
      ],
      [
        34,
        24
      ],
      [
        37,
        37
      ],
      [
        37,
        76
      ],
      [
        39,
        76
      ],
      [
        41,
        46
      ],
      [
        48,
        65
      ],
      [
        50,
        62
      ],
      [
        51,
        0
      ],
      [
        51,
        12
      ],
      [
        52,
        69
      ],
      [
        54,
        8
      ],
      [
        54,
        54
      ],
      [
        56,
        71
      ],
      [
        61,
        9
      ],
      [
        62,
        51
      ],
      [
        63,
        57
      ],
      [
        63,
        84
      ],
      [
        64,
        57
      ],
      [
        68,
        21
      ],
      [
        70,
        14
      ],
      [
        78,
        12
      ],
      [
        79,
        80
      ]
    ]
  },
  "problem": 109,
  "can_use_bonuses": [
    {
      "bonus": "WALLHACK",
      "problem": 40
    },
    {
      "bonus": "GLOBALIST",
      "problem": 121
    },
    {
      "bonus": "SUPERFLEX",
      "problem": 131
    }
  ]
}