{
  "bonuses": [
    {
      "bonus": "GLOBALIST",
      "problem": 131,
      "position": [
        78,
        45
      ]
    },
    {
      "bonus": "WALLHACK",
      "problem": 128,
      "position": [
        81,
        66
      ]
    },
    {
      "bonus": "SUPERFLEX",
      "problem": 102,
      "position": [
        69,
        102
      ]
    }
  ],
  "hole": [
    [
      10,
      1
    ],
    [
      23,
      0
    ],
    [
      23,
      26
    ],
    [
      33,
      32
    ],
    [
      42,
      41
    ],
    [
      55,
      12
    ],
    [
      37,
      0
    ],
    [
      57,
      0
    ],
    [
      69,
      1
    ],
    [
      78,
      21
    ],
    [
      100,
      0
    ],
    [
      106,
      13
    ],
    [
      119,
      0
    ],
    [
      119,
      18
    ],
    [
      112,
      28
    ],
    [
      94,
      25
    ],
    [
      97,
      37
    ],
    [
      97,
      52
    ],
    [
      101,
      65
    ],
    [
      119,
      71
    ],
    [
      113,
      81
    ],
    [
      111,
      106
    ],
    [
      95,
      80
    ],
    [
      59,
      53
    ],
    [
      75,
      87
    ],
    [
      53,
      88
    ],
    [
      83,
      110
    ],
    [
      58,
      114
    ],
    [
      48,
      103
    ],
    [
      41,
      93
    ],
    [
      24,
      114
    ],
    [
      11,
      111
    ],
    [
      0,
      96
    ],
    [
      17,
      84
    ],
    [
      16,
      71
    ],
    [
      28,
      60
    ],
    [
      13,
      57
    ],
    [
      0,
      53
    ],
    [
      15,
      38
    ],
    [
      4,
      22
    ],
    [
      0,
      8
    ]
  ],
  "epsilon": 150000,
  "figure": {
    "edges": [
      [
        6,
        21
      ],
      [
        21,
        20
      ],
      [
        20,
        16
      ],
      [
        16,
        17
      ],
      [
        17,
        8
      ],
      [
        8,
        5
      ],
      [
        5,
        6
      ],
      [
        17,
        21
      ],
      [
        25,
        27
      ],
      [
        27,
        28
      ],
      [
        28,
        33
      ],
      [
        33,
        34
      ],
      [
        34,
        26
      ],
      [
        26,
        25
      ],
      [
        28,
        26
      ],
      [
        20,
        25
      ],
      [
        27,
        32
      ],
      [
        32,
        30
      ],
      [
        30,
        11
      ],
      [
        11,
        12
      ],
      [
        12,
        16
      ],
      [
        11,
        7
      ],
      [
        7,
        12
      ],
      [
        30,
        35
      ],
      [
        35,
        37
      ],
      [
        37,
        32
      ],
      [
        37,
        40
      ],
      [
        40,
        41
      ],
      [
        41,
        42
      ],
      [
        42,
        40
      ],
      [
        42,
        43
      ],
      [
        43,
        44
      ],
      [
        44,
        39
      ],
      [
        39,
        43
      ],
      [
        12,
        2
      ],
      [
        2,
        1
      ],
      [
        1,
        0
      ],
      [
        0,
        2
      ],
      [
        1,
        4
      ],
      [
        4,
        3
      ],
      [
        3,
        9
      ],
      [
        9,
        4
      ],
      [
        11,
        18
      ],
      [
        18,
        22
      ],
      [
        22,
        23
      ],
      [
        23,
        30
      ],
      [
        23,
        24
      ],
      [
        24,
        31
      ],
      [
        31,
        29
      ],
      [
        29,
        38
      ],
      [
        38,
        36
      ],
      [
        36,
        29
      ],
      [
        31,
        38
      ],
      [
        18,
        13
      ],
      [
        13,
        15
      ],
      [
        15,
        19
      ],
      [
        19,
        10
      ],
      [
        10,
        15
      ],
      [
        19,
        14
      ],
      [
        14,
        10
      ]
    ],
    "vertices": [
      [
        28,
        82
      ],
      [
        30,
        79
      ],
      [
        32,
        82
      ],
      [
        33,
        55
      ],
      [
        35,
        64
      ],
      [
        37,
        100
      ],
      [
        38,
        104
      ],
      [
        40,
        80
      ],
      [
        41,
        98
      ],
      [
        42,
        60
      ],
      [
        43,
        38
      ],
      [
        45,
        78
      ],
      [
        45,
        91
      ],
      [
        47,
        57
      ],
      [
        49,
        32
      ],
      [
        49,
        44
      ],
      [
        51,
        96
      ],
      [
        51,
        100
      ],
      [
        52,
        65
      ],
      [
        54,
        39
      ],
      [
        54,
        98
      ],
      [
        55,
        103
      ],
      [
        60,
        59
      ],
      [
        65,
        65
      ],
      [
        67,
        57
      ],
      [
        67,
        98
      ],
      [
        67,
        104
      ],
      [
        70,
        97
      ],
      [
        71,
        100
      ],
      [
        74,
        44
      ],
      [
        75,
        82
      ],
      [
        76,
        53
      ],
      [
        78,
        93
      ],
      [
        78,
        99
      ],
      [
        79,
        104
      ],
      [
        80,
        78
      ],
      [
        82,
        40
      ],
      [
        82,
        83
      ],
      [
        84,
        48
      ],
      [
        90,
        94
      ],
      [
        91,
        81
      ],
      [
        94,
        77
      ],
      [
        95,
        81
      ],
      [
        95,
        92
      ],
      [
        99,
        97
      ]
    ]
  },
  "problem": 110,
  "can_use_bonuses": [
    {
      "bonus": "BREAK_A_LEG",
      "problem": 5
    },
    {
      "bonus": "BREAK_A_LEG",
      "problem": 108
    },
    {
      "bonus": "SUPERFLEX",
      "problem": 129
    }
  ]
}