{
  "bonuses": [
    {
      "bonus": "SUPERFLEX",
      "problem": 107,
      "position": [
        87,
        165
      ]
    },
    {
      "bonus": "SUPERFLEX",
      "problem": 108,
      "position": [
        207,
        51
      ]
    },
    {
      "bonus": "GLOBALIST",
      "problem": 77,
      "position": [
        108,
        156
      ]
    }
  ],
  "hole": [
    [
      0,
      0
    ],
    [
      35,
      0
    ],
    [
      63,
      17
    ],
    [
      77,
      59
    ],
    [
      100,
      38
    ],
    [
      93,
      0
    ],
    [
      133,
      4
    ],
    [
      122,
      36
    ],
    [
      153,
      19
    ],
    [
      177,
      36
    ],
    [
      209,
      25
    ],
    [
      209,
      82
    ],
    [
      189,
      99
    ],
    [
      189,
      120
    ],
    [
      217,
      114
    ],
    [
      197,
      147
    ],
    [
      213,
      163
    ],
    [
      204,
      198
    ],
    [
      178,
      182
    ],
    [
      173,
      159
    ],
    [
      155,
      172
    ],
    [
      141,
      187
    ],
    [
      127,
      172
    ],
    [
      107,
      194
    ],
    [
      67,
      198
    ],
    [
      52,
      180
    ],
    [
      5,
      186
    ],
    [
      0,
      158
    ],
    [
      22,
      160
    ],
    [
      12,
      126
    ],
    [
      52,
      149
    ],
    [
      39,
      96
    ],
    [
      0,
      94
    ],
    [
      0,
      58
    ],
    [
      25,
      64
    ],
    [
      58,
      66
    ],
    [
      43,
      40
    ],
    [
      15,
      25
    ]
  ],
  "epsilon": 70022,
  "figure": {
    "edges": [
      [
        0,
        2
      ],
      [
        0,
        6
      ],
      [
        0,
        17
      ],
      [
        1,
        3
      ],
      [
        1,
        5
      ],
      [
        2,
        9
      ],
      [
        3,
        4
      ],
      [
        3,
        6
      ],
      [
        3,
        10
      ],
      [
        4,
        7
      ],
      [
        4,
        11
      ],
      [
        5,
        8
      ],
      [
        6,
        9
      ],
      [
        6,
        11
      ],
      [
        7,
        11
      ],
      [
        8,
        10
      ],
      [
        9,
        14
      ],
      [
        10,
        12
      ],
      [
        11,
        12
      ],
      [
        11,
        17
      ],
      [
        12,
        18
      ],
      [
        12,
        20
      ],
      [
        12,
        29
      ],
      [
        12,
        31
      ],
      [
        13,
        15
      ],
      [
        13,
        21
      ],
      [
        14,
        17
      ],
      [
        15,
        25
      ],
      [
        16,
        18
      ],
      [
        16,
        23
      ],
      [
        16,
        24
      ],
      [
        17,
        20
      ],
      [
        18,
        23
      ],
      [
        18,
        25
      ],
      [
        19,
        22
      ],
      [
        19,
        26
      ],
      [
        20,
        25
      ],
      [
        20,
        27
      ],
      [
        21,
        28
      ],
      [
        22,
        25
      ],
      [
        22,
        29
      ],
      [
        23,
        24
      ],
      [
        23,
        25
      ],
      [
        23,
        30
      ],
      [
        23,
        33
      ],
      [
        23,
        35
      ],
      [
        24,
        33
      ],
      [
        25,
        28
      ],
      [
        25,
        30
      ],
      [
        25,
        32
      ],
      [
        25,
        34
      ],
      [
        26,
        29
      ],
      [
        27,
        34
      ],
      [
        28,
        37
      ],
      [
        29,
        32
      ],
      [
        30,
        32
      ],
      [
        30,
        38
      ],
      [
        31,
        32
      ],
      [
        31,
        36
      ],
      [
        32,
        39
      ],
      [
        33,
        35
      ],
      [
        34,
        37
      ],
      [
        36,
        40
      ],
      [
        38,
        39
      ],
      [
        38,
        41
      ],
      [
        39,
        40
      ],
      [
        39,
        42
      ],
      [
        41,
        42
      ]
    ],
    "vertices": [
      [
        10,
        38
      ],
      [
        21,
        139
      ],
      [
        29,
        10
      ],
      [
        34,
        118
      ],
      [
        35,
        87
      ],
      [
        36,
        164
      ],
      [
        41,
        56
      ],
      [
        45,
        55
      ],
      [
        55,
        153
      ],
      [
        59,
        26
      ],
      [
        60,
        128
      ],
      [
        66,
        80
      ],
      [
        82,
        107
      ],
      [
        85,
        157
      ],
      [
        93,
        32
      ],
      [
        94,
        127
      ],
      [
        96,
        170
      ],
      [
        97,
        64
      ],
      [
        97,
        136
      ],
      [
        104,
        67
      ],
      [
        111,
        92
      ],
      [
        114,
        178
      ],
      [
        116,
        97
      ],
      [
        125,
        154
      ],
      [
        125,
        188
      ],
      [
        126,
        121
      ],
      [
        133,
        56
      ],
      [
        140,
        77
      ],
      [
        141,
        152
      ],
      [
        145,
        82
      ],
      [
        150,
        137
      ],
      [
        151,
        90
      ],
      [
        155,
        111
      ],
      [
        155,
        171
      ],
      [
        157,
        105
      ],
      [
        159,
        139
      ],
      [
        169,
        77
      ],
      [
        170,
        135
      ],
      [
        175,
        142
      ],
      [
        180,
        114
      ],
      [
        191,
        90
      ],
      [
        205,
        145
      ],
      [
        207,
        117
      ]
    ]
  },
  "problem": 112,
  "can_use_bonuses": [
    {
      "bonus": "SUPERFLEX",
      "problem": 80
    },
    {
      "bonus": "GLOBALIST",
      "problem": 113
    },
    {
      "bonus": "BREAK_A_LEG",
      "problem": 127
    }
  ]
}