{
  "bonuses": [
    {
      "bonus": "BREAK_A_LEG",
      "problem": 122,
      "position": [
        48,
        30
      ]
    },
    {
      "bonus": "SUPERFLEX",
      "problem": 131,
      "position": [
        18,
        177
      ]
    },
    {
      "bonus": "GLOBALIST",
      "problem": 19,
      "position": [
        84,
        156
      ]
    }
  ],
  "hole": [
    [
      0,
      12
    ],
    [
      16,
      0
    ],
    [
      28,
      14
    ],
    [
      37,
      0
    ],
    [
      70,
      11
    ],
    [
      53,
      55
    ],
    [
      83,
      26
    ],
    [
      97,
      34
    ],
    [
      116,
      91
    ],
    [
      111,
      9
    ],
    [
      123,
      0
    ],
    [
      149,
      0
    ],
    [
      150,
      19
    ],
    [
      127,
      21
    ],
    [
      138,
      50
    ],
    [
      163,
      61
    ],
    [
      151,
      80
    ],
    [
      131,
      92
    ],
    [
      163,
      100
    ],
    [
      146,
      118
    ],
    [
      163,
      122
    ],
    [
      163,
      163
    ],
    [
      159,
      179
    ],
    [
      158,
      196
    ],
    [
      118,
      188
    ],
    [
      143,
      174
    ],
    [
      132,
      148
    ],
    [
      116,
      153
    ],
    [
      86,
      132
    ],
    [
      104,
      167
    ],
    [
      100,
      191
    ],
    [
      74,
      193
    ],
    [
      67,
      172
    ],
    [
      52,
      180
    ],
    [
      37,
      196
    ],
    [
      1,
      196
    ],
    [
      32,
      157
    ],
    [
      60,
      138
    ],
    [
      54,
      122
    ],
    [
      25,
      136
    ],
    [
      8,
      144
    ],
    [
      9,
      119
    ],
    [
      42,
      110
    ],
    [
      11,
      102
    ],
    [
      15,
      75
    ],
    [
      5,
      59
    ],
    [
      18,
      46
    ],
    [
      16,
      23
    ]
  ],
  "epsilon": 110000,
  "figure": {
    "edges": [
      [
        30,
        36
      ],
      [
        36,
        33
      ],
      [
        33,
        30
      ],
      [
        33,
        31
      ],
      [
        31,
        26
      ],
      [
        26,
        23
      ],
      [
        31,
        37
      ],
      [
        37,
        42
      ],
      [
        31,
        32
      ],
      [
        32,
        21
      ],
      [
        21,
        14
      ],
      [
        14,
        20
      ],
      [
        20,
        34
      ],
      [
        34,
        47
      ],
      [
        47,
        46
      ],
      [
        46,
        40
      ],
      [
        32,
        40
      ],
      [
        14,
        16
      ],
      [
        16,
        10
      ],
      [
        10,
        3
      ],
      [
        3,
        0
      ],
      [
        0,
        1
      ],
      [
        1,
        2
      ],
      [
        2,
        9
      ],
      [
        9,
        20
      ],
      [
        20,
        4
      ],
      [
        3,
        4
      ],
      [
        1,
        4
      ],
      [
        47,
        57
      ],
      [
        57,
        63
      ],
      [
        63,
        64
      ],
      [
        64,
        56
      ],
      [
        56,
        48
      ],
      [
        48,
        46
      ],
      [
        47,
        58
      ],
      [
        58,
        56
      ],
      [
        58,
        63
      ],
      [
        21,
        16
      ],
      [
        40,
        45
      ],
      [
        45,
        50
      ],
      [
        50,
        53
      ],
      [
        53,
        61
      ],
      [
        61,
        62
      ],
      [
        62,
        52
      ],
      [
        52,
        44
      ],
      [
        44,
        40
      ],
      [
        44,
        46
      ],
      [
        52,
        45
      ],
      [
        50,
        62
      ],
      [
        21,
        18
      ],
      [
        18,
        19
      ],
      [
        19,
        24
      ],
      [
        24,
        15
      ],
      [
        15,
        7
      ],
      [
        7,
        8
      ],
      [
        8,
        16
      ],
      [
        8,
        18
      ],
      [
        19,
        7
      ],
      [
        21,
        12
      ],
      [
        12,
        13
      ],
      [
        13,
        25
      ],
      [
        25,
        28
      ],
      [
        28,
        17
      ],
      [
        17,
        6
      ],
      [
        6,
        5
      ],
      [
        13,
        5
      ],
      [
        28,
        39
      ],
      [
        39,
        51
      ],
      [
        51,
        60
      ],
      [
        60,
        59
      ],
      [
        59,
        55
      ],
      [
        55,
        49
      ],
      [
        49,
        39
      ],
      [
        55,
        54
      ],
      [
        54,
        60
      ],
      [
        6,
        11
      ],
      [
        11,
        13
      ],
      [
        45,
        49
      ],
      [
        25,
        35
      ],
      [
        35,
        49
      ],
      [
        35,
        32
      ],
      [
        22,
        27
      ],
      [
        27,
        29
      ],
      [
        29,
        22
      ],
      [
        29,
        30
      ],
      [
        38,
        41
      ],
      [
        41,
        43
      ],
      [
        43,
        38
      ],
      [
        38,
        36
      ],
      [
        41,
        47
      ],
      [
        27,
        20
      ]
    ],
    "vertices": [
      [
        29,
        136
      ],
      [
        30,
        115
      ],
      [
        44,
        93
      ],
      [
        45,
        131
      ],
      [
        49,
        105
      ],
      [
        49,
        144
      ],
      [
        51,
        156
      ],
      [
        54,
        143
      ],
      [
        56,
        117
      ],
      [
        58,
        81
      ],
      [
        61,
        118
      ],
      [
        62,
        157
      ],
      [
        65,
        126
      ],
      [
        65,
        143
      ],
      [
        66,
        92
      ],
      [
        66,
        152
      ],
      [
        67,
        103
      ],
      [
        68,
        168
      ],
      [
        71,
        122
      ],
      [
        71,
        132
      ],
      [
        72,
        76
      ],
      [
        74,
        106
      ],
      [
        75,
        89
      ],
      [
        75,
        97
      ],
      [
        75,
        141
      ],
      [
        75,
        151
      ],
      [
        77,
        103
      ],
      [
        80,
        85
      ],
      [
        80,
        163
      ],
      [
        82,
        90
      ],
      [
        82,
        94
      ],
      [
        85,
        106
      ],
      [
        85,
        110
      ],
      [
        87,
        101
      ],
      [
        89,
        72
      ],
      [
        89,
        144
      ],
      [
        91,
        96
      ],
      [
        92,
        106
      ],
      [
        93,
        91
      ],
      [
        94,
        162
      ],
      [
        95,
        109
      ],
      [
        98,
        87
      ],
      [
        98,
        101
      ],
      [
        100,
        94
      ],
      [
        101,
        108
      ],
      [
        101,
        125
      ],
      [
        103,
        100
      ],
      [
        104,
        83
      ],
      [
        104,
        115
      ],
      [
        105,
        142
      ],
      [
        107,
        131
      ],
      [
        109,
        164
      ],
      [
        111,
        114
      ],
      [
        111,
        143
      ],
      [
        111,
        152
      ],
      [
        112,
        136
      ],
      [
        118,
        133
      ],
      [
        122,
        96
      ],
      [
        122,
        118
      ],
      [
        122,
        140
      ],
      [
        123,
        155
      ],
      [
        125,
        143
      ],
      [
        128,
        131
      ],
      [
        136,
        120
      ],
      [
        139,
        139
      ]
    ]
  },
  "problem": 115,
  "can_use_bonuses": [
    {
      "bonus": "WALLHACK",
      "problem": 7
    },
    {
      "bonus": "GLOBALIST",
      "problem": 109
    },
    {
      "bonus": "GLOBALIST",
      "problem": 122
    }
  ]
}