{
  "bonuses": [
    {
      "bonus": "WALLHACK",
      "problem": 118,
      "position": [
        102,
        30
      ]
    },
    {
      "bonus": "WALLHACK",
      "problem": 111,
      "position": [
        138,
        147
      ]
    },
    {
      "bonus": "GLOBALIST",
      "problem": 57,
      "position": [
        144,
        57
      ]
    }
  ],
  "hole": [
    [
      8,
      0
    ],
    [
      47,
      0
    ],
    [
      67,
      6
    ],
    [
      88,
      53
    ],
    [
      107,
      3
    ],
    [
      111,
      56
    ],
    [
      131,
      38
    ],
    [
      144,
      23
    ],
    [
      125,
      0
    ],
    [
      163,
      0
    ],
    [
      162,
      32
    ],
    [
      172,
      47
    ],
    [
      166,
      65
    ],
    [
      123,
      93
    ],
    [
      141,
      106
    ],
    [
      173,
      92
    ],
    [
      173,
      120
    ],
    [
      161,
      140
    ],
    [
      175,
      163
    ],
    [
      153,
      172
    ],
    [
      123,
      122
    ],
    [
      117,
      172
    ],
    [
      100,
      157
    ],
    [
      80,
      153
    ],
    [
      71,
      125
    ],
    [
      60,
      155
    ],
    [
      51,
      172
    ],
    [
      28,
      172
    ],
    [
      14,
      150
    ],
    [
      0,
      131
    ],
    [
      14,
      119
    ],
    [
      43,
      134
    ],
    [
      52,
      117
    ],
    [
      61,
      101
    ],
    [
      28,
      90
    ],
    [
      0,
      85
    ],
    [
      28,
      64
    ],
    [
      55,
      44
    ],
    [
      40,
      32
    ],
    [
      20,
      26
    ],
    [
      1,
      20
    ]
  ],
  "epsilon": 234568,
  "figure": {
    "edges": [
      [
        41,
        47
      ],
      [
        47,
        49
      ],
      [
        49,
        52
      ],
      [
        52,
        51
      ],
      [
        51,
        43
      ],
      [
        43,
        44
      ],
      [
        44,
        41
      ],
      [
        34,
        38
      ],
      [
        38,
        36
      ],
      [
        36,
        21
      ],
      [
        21,
        28
      ],
      [
        28,
        16
      ],
      [
        16,
        25
      ],
      [
        25,
        34
      ],
      [
        2,
        10
      ],
      [
        10,
        13
      ],
      [
        13,
        1
      ],
      [
        1,
        2
      ],
      [
        18,
        24
      ],
      [
        24,
        29
      ],
      [
        29,
        33
      ],
      [
        33,
        30
      ],
      [
        30,
        19
      ],
      [
        19,
        20
      ],
      [
        20,
        18
      ],
      [
        25,
        24
      ],
      [
        24,
        23
      ],
      [
        23,
        32
      ],
      [
        32,
        31
      ],
      [
        31,
        22
      ],
      [
        22,
        23
      ],
      [
        25,
        26
      ],
      [
        47,
        48
      ],
      [
        47,
        46
      ],
      [
        24,
        46
      ],
      [
        46,
        53
      ],
      [
        11,
        10
      ],
      [
        10,
        9
      ],
      [
        9,
        24
      ],
      [
        9,
        7
      ],
      [
        36,
        35
      ],
      [
        43,
        42
      ],
      [
        13,
        17
      ],
      [
        1,
        0
      ],
      [
        0,
        4
      ],
      [
        4,
        3
      ],
      [
        3,
        11
      ],
      [
        11,
        12
      ],
      [
        12,
        14
      ],
      [
        14,
        17
      ],
      [
        17,
        21
      ],
      [
        21,
        26
      ],
      [
        26,
        35
      ],
      [
        35,
        37
      ],
      [
        37,
        39
      ],
      [
        39,
        42
      ],
      [
        42,
        48
      ],
      [
        48,
        51
      ],
      [
        51,
        53
      ],
      [
        53,
        54
      ],
      [
        54,
        50
      ],
      [
        50,
        45
      ],
      [
        45,
        40
      ],
      [
        40,
        27
      ],
      [
        27,
        15
      ],
      [
        15,
        8
      ],
      [
        8,
        5
      ],
      [
        5,
        4
      ],
      [
        5,
        6
      ],
      [
        6,
        15
      ],
      [
        15,
        14
      ],
      [
        40,
        37
      ],
      [
        45,
        42
      ],
      [
        51,
        45
      ],
      [
        5,
        15
      ],
      [
        4,
        14
      ],
      [
        26,
        27
      ],
      [
        27,
        35
      ],
      [
        35,
        40
      ]
    ],
    "vertices": [
      [
        18,
        113
      ],
      [
        27,
        101
      ],
      [
        29,
        76
      ],
      [
        30,
        110
      ],
      [
        32,
        117
      ],
      [
        37,
        122
      ],
      [
        37,
        145
      ],
      [
        39,
        67
      ],
      [
        39,
        136
      ],
      [
        40,
        76
      ],
      [
        40,
        85
      ],
      [
        42,
        112
      ],
      [
        54,
        114
      ],
      [
        55,
        97
      ],
      [
        58,
        120
      ],
      [
        60,
        145
      ],
      [
        65,
        77
      ],
      [
        67,
        120
      ],
      [
        70,
        55
      ],
      [
        73,
        69
      ],
      [
        74,
        60
      ],
      [
        74,
        120
      ],
      [
        77,
        35
      ],
      [
        77,
        46
      ],
      [
        78,
        52
      ],
      [
        78,
        75
      ],
      [
        78,
        125
      ],
      [
        81,
        146
      ],
      [
        82,
        100
      ],
      [
        86,
        51
      ],
      [
        90,
        64
      ],
      [
        92,
        34
      ],
      [
        92,
        44
      ],
      [
        92,
        57
      ],
      [
        93,
        73
      ],
      [
        93,
        126
      ],
      [
        100,
        120
      ],
      [
        105,
        125
      ],
      [
        107,
        96
      ],
      [
        107,
        119
      ],
      [
        113,
        146
      ],
      [
        114,
        83
      ],
      [
        116,
        118
      ],
      [
        121,
        113
      ],
      [
        122,
        98
      ],
      [
        122,
        135
      ],
      [
        124,
        73
      ],
      [
        124,
        82
      ],
      [
        125,
        116
      ],
      [
        135,
        81
      ],
      [
        136,
        125
      ],
      [
        140,
        114
      ],
      [
        143,
        97
      ],
      [
        155,
        107
      ],
      [
        163,
        103
      ]
    ]
  },
  "problem": 117,
  "can_use_bonuses": [
    {
      "bonus": "SUPERFLEX",
      "problem": 72
    },
    {
      "bonus": "BREAK_A_LEG",
      "problem": 111
    },
    {
      "bonus": "SUPERFLEX",
      "problem": 116
    }
  ]
}