{
  "bonuses": [
    {
      "bonus": "BREAK_A_LEG",
      "problem": 111,
      "position": [
        60,
        21
      ]
    },
    {
      "bonus": "WALLHACK",
      "problem": 118,
      "position": [
        24,
        78
      ]
    },
    {
      "bonus": "GLOBALIST",
      "problem": 42,
      "position": [
        81,
        69
      ]
    }
  ],
  "hole": [
    [
      0,
      1
    ],
    [
      13,
      0
    ],
    [
      24,
      7
    ],
    [
      20,
      25
    ],
    [
      17,
      44
    ],
    [
      31,
      59
    ],
    [
      41,
      24
    ],
    [
      65,
      0
    ],
    [
      58,
      46
    ],
    [
      79,
      16
    ],
    [
      81,
      0
    ],
    [
      98,
      0
    ],
    [
      102,
      20
    ],
    [
      108,
      35
    ],
    [
      84,
      31
    ],
    [
      87,
      54
    ],
    [
      76,
      88
    ],
    [
      108,
      89
    ],
    [
      108,
      102
    ],
    [
      94,
      101
    ],
    [
      100,
      118
    ],
    [
      104,
      131
    ],
    [
      108,
      145
    ],
    [
      90,
      140
    ],
    [
      83,
      110
    ],
    [
      66,
      126
    ],
    [
      73,
      145
    ],
    [
      59,
      149
    ],
    [
      46,
      154
    ],
    [
      36,
      138
    ],
    [
      4,
      148
    ],
    [
      13,
      129
    ],
    [
      34,
      119
    ],
    [
      52,
      117
    ],
    [
      40,
      104
    ],
    [
      28,
      96
    ],
    [
      16,
      101
    ],
    [
      5,
      107
    ],
    [
      0,
      95
    ],
    [
      6,
      83
    ],
    [
      6,
      68
    ],
    [
      2,
      52
    ],
    [
      0,
      38
    ],
    [
      4,
      19
    ]
  ],
  "epsilon": 90000,
  "figure": {
    "edges": [
      [
        6,
        41
      ],
      [
        41,
        39
      ],
      [
        39,
        24
      ],
      [
        24,
        2
      ],
      [
        2,
        6
      ],
      [
        24,
        16
      ],
      [
        16,
        33
      ],
      [
        33,
        32
      ],
      [
        32,
        13
      ],
      [
        13,
        16
      ],
      [
        33,
        39
      ],
      [
        13,
        20
      ],
      [
        20,
        45
      ],
      [
        45,
        32
      ],
      [
        20,
        29
      ],
      [
        29,
        42
      ],
      [
        42,
        45
      ],
      [
        29,
        30
      ],
      [
        30,
        43
      ],
      [
        43,
        42
      ],
      [
        30,
        34
      ],
      [
        34,
        44
      ],
      [
        44,
        43
      ],
      [
        34,
        17
      ],
      [
        17,
        21
      ],
      [
        21,
        46
      ],
      [
        46,
        44
      ],
      [
        20,
        3
      ],
      [
        3,
        14
      ],
      [
        14,
        31
      ],
      [
        3,
        9
      ],
      [
        9,
        22
      ],
      [
        22,
        14
      ],
      [
        22,
        23
      ],
      [
        23,
        10
      ],
      [
        10,
        9
      ],
      [
        10,
        8
      ],
      [
        8,
        15
      ],
      [
        15,
        23
      ],
      [
        8,
        4
      ],
      [
        4,
        11
      ],
      [
        11,
        15
      ],
      [
        31,
        40
      ],
      [
        40,
        35
      ],
      [
        35,
        26
      ],
      [
        26,
        31
      ],
      [
        26,
        27
      ],
      [
        27,
        36
      ],
      [
        36,
        35
      ],
      [
        27,
        28
      ],
      [
        28,
        37
      ],
      [
        37,
        36
      ],
      [
        28,
        25
      ],
      [
        25,
        38
      ],
      [
        38,
        37
      ],
      [
        45,
        47
      ],
      [
        47,
        40
      ],
      [
        3,
        5
      ],
      [
        5,
        18
      ],
      [
        18,
        14
      ],
      [
        31,
        18
      ],
      [
        18,
        19
      ],
      [
        19,
        12
      ],
      [
        12,
        1
      ],
      [
        1,
        0
      ],
      [
        0,
        5
      ],
      [
        0,
        7
      ],
      [
        7,
        5
      ],
      [
        18,
        7
      ],
      [
        7,
        19
      ],
      [
        12,
        7
      ],
      [
        7,
        1
      ]
    ],
    "vertices": [
      [
        48,
        44
      ],
      [
        50,
        37
      ],
      [
        51,
        133
      ],
      [
        52,
        55
      ],
      [
        52,
        86
      ],
      [
        53,
        49
      ],
      [
        53,
        136
      ],
      [
        55,
        42
      ],
      [
        55,
        82
      ],
      [
        56,
        64
      ],
      [
        56,
        73
      ],
      [
        56,
        88
      ],
      [
        57,
        36
      ],
      [
        57,
        103
      ],
      [
        58,
        50
      ],
      [
        59,
        84
      ],
      [
        59,
        114
      ],
      [
        59,
        133
      ],
      [
        60,
        46
      ],
      [
        61,
        41
      ],
      [
        61,
        85
      ],
      [
        61,
        136
      ],
      [
        62,
        63
      ],
      [
        62,
        74
      ],
      [
        62,
        130
      ],
      [
        63,
        87
      ],
      [
        64,
        64
      ],
      [
        64,
        73
      ],
      [
        64,
        83
      ],
      [
        64,
        107
      ],
      [
        64,
        112
      ],
      [
        66,
        52
      ],
      [
        66,
        106
      ],
      [
        67,
        113
      ],
      [
        67,
        128
      ],
      [
        69,
        66
      ],
      [
        69,
        74
      ],
      [
        69,
        83
      ],
      [
        69,
        86
      ],
      [
        69,
        130
      ],
      [
        70,
        59
      ],
      [
        71,
        137
      ],
      [
        72,
        106
      ],
      [
        73,
        112
      ],
      [
        75,
        127
      ],
      [
        76,
        91
      ],
      [
        76,
        134
      ],
      [
        79,
        83
      ]
    ]
  },
  "problem": 119,
  "can_use_bonuses": [
    {
      "bonus": "BREAK_A_LEG",
      "problem": 37
    },
    {
      "bonus": "GLOBALIST",
      "problem": 128
    },
    {
      "bonus": "BREAK_A_LEG",
      "problem": 130
    }
  ]
}