{
  "bonuses": [
    {
      "bonus": "SUPERFLEX",
      "problem": 132,
      "position": [
        72,
        66
      ]
    },
    {
      "bonus": "SUPERFLEX",
      "problem": 121,
      "position": [
        27,
        90
      ]
    },
    {
      "bonus": "WALLHACK",
      "problem": 63,
      "position": [
        69,
        81
      ]
    }
  ],
  "hole": [
    [
      0,
      1
    ],
    [
      24,
      3
    ],
    [
      14,
      16
    ],
    [
      22,
      29
    ],
    [
      31,
      42
    ],
    [
      39,
      32
    ],
    [
      51,
      31
    ],
    [
      45,
      17
    ],
    [
      40,
      3
    ],
    [
      51,
      0
    ],
    [
      64,
      0
    ],
    [
      64,
      11
    ],
    [
      73,
      21
    ],
    [
      88,
      10
    ],
    [
      103,
      0
    ],
    [
      114,
      4
    ],
    [
      114,
      20
    ],
    [
      105,
      25
    ],
    [
      90,
      25
    ],
    [
      95,
      36
    ],
    [
      47,
      67
    ],
    [
      96,
      48
    ],
    [
      112,
      53
    ],
    [
      54,
      77
    ],
    [
      89,
      76
    ],
    [
      99,
      78
    ],
    [
      114,
      83
    ],
    [
      114,
      94
    ],
    [
      97,
      95
    ],
    [
      79,
      94
    ],
    [
      87,
      107
    ],
    [
      67,
      102
    ],
    [
      55,
      107
    ],
    [
      46,
      102
    ],
    [
      32,
      71
    ],
    [
      34,
      107
    ],
    [
      14,
      107
    ],
    [
      0,
      91
    ],
    [
      4,
      81
    ],
    [
      0,
      71
    ],
    [
      3,
      61
    ],
    [
      10,
      52
    ],
    [
      18,
      43
    ],
    [
      6,
      36
    ],
    [
      0,
      26
    ],
    [
      1,
      14
    ]
  ],
  "epsilon": 100000,
  "figure": {
    "edges": [
      [
        0,
        3
      ],
      [
        3,
        4
      ],
      [
        4,
        1
      ],
      [
        1,
        0
      ],
      [
        1,
        2
      ],
      [
        2,
        4
      ],
      [
        2,
        5
      ],
      [
        5,
        8
      ],
      [
        8,
        6
      ],
      [
        6,
        5
      ],
      [
        6,
        12
      ],
      [
        12,
        14
      ],
      [
        14,
        8
      ],
      [
        12,
        37
      ],
      [
        37,
        38
      ],
      [
        38,
        8
      ],
      [
        8,
        11
      ],
      [
        11,
        33
      ],
      [
        33,
        38
      ],
      [
        11,
        10
      ],
      [
        10,
        17
      ],
      [
        17,
        11
      ],
      [
        33,
        30
      ],
      [
        30,
        36
      ],
      [
        36,
        33
      ],
      [
        17,
        15
      ],
      [
        15,
        10
      ],
      [
        30,
        31
      ],
      [
        31,
        36
      ],
      [
        15,
        19
      ],
      [
        31,
        28
      ],
      [
        19,
        21
      ],
      [
        21,
        26
      ],
      [
        26,
        28
      ],
      [
        28,
        27
      ],
      [
        27,
        22
      ],
      [
        22,
        19
      ],
      [
        38,
        41
      ],
      [
        41,
        39
      ],
      [
        39,
        40
      ],
      [
        40,
        37
      ],
      [
        40,
        46
      ],
      [
        46,
        50
      ],
      [
        50,
        51
      ],
      [
        51,
        46
      ],
      [
        51,
        54
      ],
      [
        54,
        53
      ],
      [
        53,
        50
      ],
      [
        47,
        48
      ],
      [
        48,
        57
      ],
      [
        57,
        56
      ],
      [
        56,
        47
      ],
      [
        48,
        50
      ],
      [
        41,
        42
      ],
      [
        42,
        45
      ],
      [
        45,
        43
      ],
      [
        43,
        42
      ],
      [
        43,
        44
      ],
      [
        44,
        49
      ],
      [
        49,
        45
      ],
      [
        45,
        52
      ],
      [
        52,
        55
      ],
      [
        55,
        49
      ],
      [
        12,
        24
      ],
      [
        24,
        37
      ],
      [
        24,
        32
      ],
      [
        32,
        23
      ],
      [
        23,
        20
      ],
      [
        20,
        16
      ],
      [
        16,
        24
      ],
      [
        20,
        18
      ],
      [
        18,
        9
      ],
      [
        9,
        16
      ],
      [
        18,
        13
      ],
      [
        13,
        7
      ],
      [
        7,
        9
      ],
      [
        23,
        25
      ],
      [
        25,
        35
      ],
      [
        35,
        32
      ],
      [
        35,
        34
      ],
      [
        34,
        29
      ],
      [
        29,
        25
      ]
    ],
    "vertices": [
      [
        20,
        86
      ],
      [
        22,
        76
      ],
      [
        28,
        66
      ],
      [
        31,
        88
      ],
      [
        33,
        77
      ],
      [
        34,
        52
      ],
      [
        36,
        44
      ],
      [
        40,
        32
      ],
      [
        40,
        58
      ],
      [
        41,
        36
      ],
      [
        42,
        81
      ],
      [
        43,
        72
      ],
      [
        45,
        43
      ],
      [
        47,
        28
      ],
      [
        47,
        51
      ],
      [
        47,
        83
      ],
      [
        48,
        41
      ],
      [
        49,
        77
      ],
      [
        50,
        31
      ],
      [
        51,
        84
      ],
      [
        52,
        34
      ],
      [
        52,
        79
      ],
      [
        52,
        90
      ],
      [
        55,
        34
      ],
      [
        55,
        42
      ],
      [
        56,
        29
      ],
      [
        57,
        79
      ],
      [
        57,
        90
      ],
      [
        58,
        84
      ],
      [
        59,
        25
      ],
      [
        60,
        78
      ],
      [
        61,
        83
      ],
      [
        62,
        40
      ],
      [
        65,
        72
      ],
      [
        66,
        27
      ],
      [
        66,
        31
      ],
      [
        66,
        80
      ],
      [
        68,
        44
      ],
      [
        68,
        58
      ],
      [
        70,
        52
      ],
      [
        73,
        49
      ],
      [
        73,
        55
      ],
      [
        81,
        63
      ],
      [
        82,
        70
      ],
      [
        85,
        73
      ],
      [
        88,
        66
      ],
      [
        89,
        41
      ],
      [
        90,
        23
      ],
      [
        90,
        26
      ],
      [
        93,
        69
      ],
      [
        94,
        32
      ],
      [
        94,
        41
      ],
      [
        94,
        57
      ],
      [
        99,
        32
      ],
      [
        99,
        41
      ],
      [
        101,
        65
      ],
      [
        104,
        23
      ],
      [
        104,
        26
      ]
    ]
  },
  "problem": 120,
  "can_use_bonuses": [
    {
      "bonus": "WALLHACK",
      "problem": 71
    },
    {
      "bonus": "GLOBALIST",
      "problem": 116
    },
    {
      "bonus": "BREAK_A_LEG",
      "problem": 124
    }
  ]
}