{
  "bonuses": [
    {
      "bonus": "SUPERFLEX",
      "problem": 113,
      "position": [
        30,
        72
      ]
    },
    {
      "bonus": "BREAK_A_LEG",
      "problem": 112,
      "position": [
        63,
        12
      ]
    },
    {
      "bonus": "GLOBALIST",
      "problem": 44,
      "position": [
        39,
        60
      ]
    }
  ],
  "hole": [
    [
      0,
      11
    ],
    [
      18,
      9
    ],
    [
      31,
      0
    ],
    [
      50,
      0
    ],
    [
      79,
      8
    ],
    [
      47,
      19
    ],
    [
      32,
      26
    ],
    [
      45,
      37
    ],
    [
      55,
      51
    ],
    [
      74,
      49
    ],
    [
      73,
      32
    ],
    [
      91,
      28
    ],
    [
      99,
      11
    ],
    [
      115,
      0
    ],
    [
      114,
      29
    ],
    [
      95,
      49
    ],
    [
      83,
      73
    ],
    [
      97,
      87
    ],
    [
      115,
      82
    ],
    [
      114,
      100
    ],
    [
      115,
      116
    ],
    [
      98,
      116
    ],
    [
      90,
      101
    ],
    [
      70,
      98
    ],
    [
      66,
      116
    ],
    [
      40,
      114
    ],
    [
      37,
      95
    ],
    [
      23,
      103
    ],
    [
      10,
      116
    ],
    [
      0,
      89
    ],
    [
      0,
      66
    ],
    [
      15,
      59
    ],
    [
      49,
      80
    ],
    [
      28,
      48
    ],
    [
      8,
      26
    ]
  ],
  "epsilon": 164384,
  "figure": {
    "edges": [
      [
        7,
        6
      ],
      [
        6,
        3
      ],
      [
        3,
        7
      ],
      [
        3,
        4
      ],
      [
        4,
        7
      ],
      [
        7,
        8
      ],
      [
        8,
        5
      ],
      [
        5,
        4
      ],
      [
        8,
        9
      ],
      [
        9,
        10
      ],
      [
        10,
        7
      ],
      [
        7,
        11
      ],
      [
        11,
        10
      ],
      [
        11,
        6
      ],
      [
        9,
        12
      ],
      [
        12,
        8
      ],
      [
        5,
        1
      ],
      [
        1,
        2
      ],
      [
        2,
        8
      ],
      [
        2,
        0
      ],
      [
        0,
        1
      ]
    ],
    "vertices": [
      [
        16,
        74
      ],
      [
        25,
        60
      ],
      [
        30,
        60
      ],
      [
        43,
        67
      ],
      [
        46,
        79
      ],
      [
        49,
        94
      ],
      [
        60,
        26
      ],
      [
        60,
        84
      ],
      [
        60,
        89
      ],
      [
        72,
        94
      ],
      [
        75,
        79
      ],
      [
        77,
        67
      ],
      [
        105,
        47
      ]
    ]
  },
  "problem": 127,
  "can_use_bonuses": [
    {
      "bonus": "SUPERFLEX",
      "problem": 42
    },
    {
      "bonus": "SUPERFLEX",
      "problem": 121
    },
    {
      "bonus": "GLOBALIST",
      "problem": 130
    }
  ]
}