{
  "bonuses": [
    {
      "bonus": "SUPERFLEX",
      "problem": 110,
      "position": [
        117,
        24
      ]
    },
    {
      "bonus": "BREAK_A_LEG",
      "problem": 125,
      "position": [
        156,
        171
      ]
    },
    {
      "bonus": "WALLHACK",
      "problem": 98,
      "position": [
        27,
        165
      ]
    }
  ],
  "hole": [
    [
      0,
      16
    ],
    [
      34,
      8
    ],
    [
      49,
      34
    ],
    [
      72,
      22
    ],
    [
      100,
      0
    ],
    [
      141,
      0
    ],
    [
      95,
      47
    ],
    [
      116,
      59
    ],
    [
      153,
      59
    ],
    [
      167,
      0
    ],
    [
      201,
      37
    ],
    [
      178,
      50
    ],
    [
      202,
      62
    ],
    [
      179,
      76
    ],
    [
      210,
      105
    ],
    [
      203,
      147
    ],
    [
      172,
      148
    ],
    [
      203,
      177
    ],
    [
      198,
      200
    ],
    [
      176,
      194
    ],
    [
      152,
      199
    ],
    [
      128,
      205
    ],
    [
      125,
      178
    ],
    [
      123,
      152
    ],
    [
      91,
      145
    ],
    [
      98,
      187
    ],
    [
      69,
      199
    ],
    [
      48,
      183
    ],
    [
      0,
      205
    ],
    [
      0,
      180
    ],
    [
      51,
      151
    ],
    [
      0,
      154
    ],
    [
      0,
      113
    ],
    [
      33,
      108
    ],
    [
      14,
      85
    ],
    [
      30,
      49
    ],
    [
      4,
      41
    ]
  ],
  "epsilon": 140000,
  "figure": {
    "edges": [
      [
        43,
        26
      ],
      [
        26,
        22
      ],
      [
        22,
        21
      ],
      [
        21,
        35
      ],
      [
        35,
        40
      ],
      [
        40,
        34
      ],
      [
        34,
        33
      ],
      [
        33,
        42
      ],
      [
        42,
        36
      ],
      [
        36,
        31
      ],
      [
        31,
        33
      ],
      [
        34,
        35
      ],
      [
        31,
        16
      ],
      [
        16,
        17
      ],
      [
        17,
        23
      ],
      [
        23,
        24
      ],
      [
        24,
        9
      ],
      [
        9,
        13
      ],
      [
        13,
        12
      ],
      [
        12,
        20
      ],
      [
        20,
        7
      ],
      [
        7,
        8
      ],
      [
        8,
        14
      ],
      [
        14,
        27
      ],
      [
        27,
        24
      ],
      [
        27,
        10
      ],
      [
        10,
        6
      ],
      [
        6,
        3
      ],
      [
        3,
        2
      ],
      [
        2,
        0
      ],
      [
        0,
        11
      ],
      [
        11,
        32
      ],
      [
        32,
        15
      ],
      [
        15,
        4
      ],
      [
        4,
        1
      ],
      [
        1,
        5
      ],
      [
        5,
        18
      ],
      [
        18,
        37
      ],
      [
        37,
        25
      ],
      [
        25,
        19
      ],
      [
        19,
        29
      ],
      [
        29,
        39
      ],
      [
        39,
        30
      ],
      [
        30,
        28
      ],
      [
        28,
        38
      ],
      [
        38,
        41
      ],
      [
        41,
        47
      ],
      [
        47,
        53
      ],
      [
        53,
        63
      ],
      [
        63,
        64
      ],
      [
        64,
        56
      ],
      [
        56,
        69
      ],
      [
        69,
        70
      ],
      [
        70,
        68
      ],
      [
        68,
        50
      ],
      [
        50,
        79
      ],
      [
        79,
        91
      ],
      [
        91,
        90
      ],
      [
        90,
        88
      ],
      [
        88,
        73
      ],
      [
        73,
        58
      ],
      [
        58,
        81
      ],
      [
        81,
        89
      ],
      [
        89,
        86
      ],
      [
        86,
        83
      ],
      [
        83,
        85
      ],
      [
        85,
        87
      ],
      [
        87,
        78
      ],
      [
        78,
        62
      ],
      [
        62,
        67
      ],
      [
        67,
        80
      ],
      [
        80,
        84
      ],
      [
        84,
        82
      ],
      [
        82,
        74
      ],
      [
        74,
        60
      ],
      [
        60,
        75
      ],
      [
        75,
        76
      ],
      [
        76,
        77
      ],
      [
        77,
        66
      ],
      [
        66,
        72
      ],
      [
        72,
        71
      ],
      [
        71,
        57
      ],
      [
        57,
        51
      ],
      [
        51,
        45
      ],
      [
        45,
        52
      ],
      [
        52,
        54
      ],
      [
        54,
        48
      ],
      [
        48,
        46
      ],
      [
        46,
        55
      ],
      [
        55,
        61
      ],
      [
        61,
        65
      ],
      [
        65,
        59
      ],
      [
        59,
        49
      ],
      [
        49,
        43
      ],
      [
        55,
        54
      ],
      [
        54,
        57
      ],
      [
        75,
        82
      ],
      [
        85,
        86
      ],
      [
        88,
        91
      ],
      [
        79,
        73
      ],
      [
        78,
        81
      ],
      [
        77,
        80
      ],
      [
        67,
        66
      ],
      [
        66,
        59
      ],
      [
        50,
        47
      ],
      [
        64,
        69
      ],
      [
        63,
        68
      ],
      [
        37,
        41
      ],
      [
        25,
        28
      ],
      [
        30,
        29
      ],
      [
        5,
        4
      ],
      [
        18,
        15
      ],
      [
        8,
        9
      ],
      [
        7,
        12
      ],
      [
        26,
        23
      ],
      [
        21,
        16
      ],
      [
        61,
        71
      ],
      [
        41,
        44
      ],
      [
        44,
        43
      ],
      [
        47,
        44
      ],
      [
        44,
        66
      ],
      [
        24,
        44
      ],
      [
        27,
        32
      ],
      [
        32,
        37
      ],
      [
        50,
        58
      ],
      [
        58,
        62
      ]
    ],
    "vertices": [
      [
        15,
        100
      ],
      [
        15,
        110
      ],
      [
        25,
        80
      ],
      [
        25,
        95
      ],
      [
        25,
        120
      ],
      [
        25,
        125
      ],
      [
        30,
        100
      ],
      [
        35,
        70
      ],
      [
        35,
        105
      ],
      [
        40,
        105
      ],
      [
        40,
        120
      ],
      [
        40,
        125
      ],
      [
        45,
        75
      ],
      [
        45,
        95
      ],
      [
        45,
        115
      ],
      [
        45,
        130
      ],
      [
        50,
        75
      ],
      [
        50,
        90
      ],
      [
        50,
        135
      ],
      [
        55,
        150
      ],
      [
        60,
        60
      ],
      [
        60,
        85
      ],
      [
        60,
        90
      ],
      [
        60,
        100
      ],
      [
        60,
        105
      ],
      [
        60,
        140
      ],
      [
        65,
        90
      ],
      [
        65,
        120
      ],
      [
        65,
        150
      ],
      [
        65,
        165
      ],
      [
        70,
        160
      ],
      [
        75,
        55
      ],
      [
        75,
        130
      ],
      [
        80,
        60
      ],
      [
        80,
        65
      ],
      [
        80,
        70
      ],
      [
        85,
        55
      ],
      [
        85,
        140
      ],
      [
        85,
        150
      ],
      [
        85,
        165
      ],
      [
        95,
        65
      ],
      [
        95,
        145
      ],
      [
        100,
        60
      ],
      [
        105,
        80
      ],
      [
        105,
        110
      ],
      [
        115,
        60
      ],
      [
        115,
        70
      ],
      [
        115,
        145
      ],
      [
        120,
        65
      ],
      [
        120,
        80
      ],
      [
        125,
        140
      ],
      [
        130,
        55
      ],
      [
        130,
        60
      ],
      [
        130,
        150
      ],
      [
        135,
        65
      ],
      [
        135,
        70
      ],
      [
        135,
        165
      ],
      [
        140,
        60
      ],
      [
        140,
        130
      ],
      [
        145,
        90
      ],
      [
        150,
        55
      ],
      [
        150,
        80
      ],
      [
        150,
        120
      ],
      [
        150,
        145
      ],
      [
        150,
        160
      ],
      [
        155,
        90
      ],
      [
        155,
        100
      ],
      [
        155,
        110
      ],
      [
        155,
        140
      ],
      [
        155,
        165
      ],
      [
        160,
        145
      ],
      [
        165,
        80
      ],
      [
        165,
        90
      ],
      [
        165,
        130
      ],
      [
        170,
        55
      ],
      [
        170,
        60
      ],
      [
        170,
        85
      ],
      [
        170,
        95
      ],
      [
        170,
        120
      ],
      [
        170,
        135
      ],
      [
        175,
        100
      ],
      [
        175,
        125
      ],
      [
        180,
        60
      ],
      [
        180,
        80
      ],
      [
        180,
        95
      ],
      [
        185,
        85
      ],
      [
        190,
        85
      ],
      [
        190,
        100
      ],
      [
        190,
        125
      ],
      [
        195,
        105
      ],
      [
        195,
        110
      ],
      [
        195,
        125
      ]
    ]
  },
  "problem": 129,
  "can_use_bonuses": [
    {
      "bonus": "GLOBALIST",
      "problem": 18
    },
    {
      "bonus": "SUPERFLEX",
      "problem": 126
    },
    {
      "bonus": "WALLHACK",
      "problem": 132
    }
  ]
}