{
  "bonuses": [
    {
      "bonus": "BREAK_A_LEG",
      "problem": 73,
      "position": [
        46,
        21
      ]
    },
    {
      "bonus": "WALLHACK",
      "problem": 80,
      "position": [
        21,
        45
      ]
    },
    {
      "bonus": "GLOBALIST",
      "problem": 128,
      "position": [
        54,
        36
      ]
    }
  ],
  "hole": [
    [
      34,
      1
    ],
    [
      60,
      0
    ],
    [
      68,
      28
    ],
    [
      20,
      64
    ],
    [
      0,
      44
    ]
  ],
  "epsilon": 8828,
  "figure": {
    "edges": [
      [
        0,
        1
      ],
      [
        0,
        2
      ],
      [
        1,
        3
      ],
      [
        1,
        4
      ],
      [
        2,
        4
      ],
      [
        3,
        5
      ],
      [
        4,
        6
      ],
      [
        5,
        6
      ]
    ],
    "vertices": [
      [
        33,
        80
      ],
      [
        25,
        53
      ],
      [
        25,
        53
      ],
      [
        24,
        26
      ],
      [
        0,
        40
      ],
      [
        22,
        0
      ],
      [
        30,
        28
      ]
    ]
  },
  "problem": 24,
  "can_use_bonuses": [
    {
      "bonus": "GLOBALIST",
      "problem": 54
    },
    {
      "bonus": "SUPERFLEX",
      "problem": 78
    },
    {
      "bonus": "GLOBALIST",
      "problem": 123
    }
  ]
}