{
  "bonuses": [
    {
      "bonus": "BREAK_A_LEG",
      "problem": 10,
      "position": [
        0,
        5
      ]
    },
    {
      "bonus": "SUPERFLEX",
      "problem": 105,
      "position": [
        18,
        27
      ]
    },
    {
      "bonus": "GLOBALIST",
      "problem": 34,
      "position": [
        30,
        18
      ]
    }
  ],
  "hole": [
    [
      14,
      10
    ],
    [
      21,
      6
    ],
    [
      28,
      1
    ],
    [
      36,
      0
    ],
    [
      44,
      0
    ],
    [
      43,
      8
    ],
    [
      44,
      16
    ],
    [
      44,
      24
    ],
    [
      39,
      35
    ],
    [
      30,
      40
    ],
    [
      39,
      43
    ],
    [
      27,
      49
    ],
    [
      20,
      49
    ],
    [
      10,
      43
    ],
    [
      2,
      39
    ],
    [
      0,
      32
    ],
    [
      0,
      5
    ],
    [
      7,
      12
    ]
  ],
  "epsilon": 1249,
  "figure": {
    "edges": [
      [
        0,
        1
      ],
      [
        0,
        2
      ],
      [
        1,
        3
      ],
      [
        1,
        4
      ],
      [
        2,
        3
      ],
      [
        3,
        4
      ]
    ],
    "vertices": [
      [
        24,
        0
      ],
      [
        0,
        15
      ],
      [
        44,
        20
      ],
      [
        20,
        35
      ],
      [
        24,
        6
      ]
    ]
  },
  "problem": 30,
  "can_use_bonuses": [
    {
      "bonus": "SUPERFLEX",
      "problem": 12
    },
    {
      "bonus": "BREAK_A_LEG",
      "problem": 25
    },
    {
      "bonus": "SUPERFLEX",
      "problem": 92
    }
  ]
}