{
  "bonuses": [
    {
      "bonus": "BREAK_A_LEG",
      "problem": 4,
      "position": [
        20,
        52
      ]
    },
    {
      "bonus": "GLOBALIST",
      "problem": 13,
      "position": [
        69,
        21
      ]
    },
    {
      "bonus": "GLOBALIST",
      "problem": 12,
      "position": [
        54,
        36
      ]
    }
  ],
  "hole": [
    [
      0,
      41
    ],
    [
      21,
      27
    ],
    [
      69,
      0
    ],
    [
      89,
      20
    ],
    [
      69,
      40
    ],
    [
      28,
      73
    ],
    [
      0,
      69
    ]
  ],
  "epsilon": 20152,
  "figure": {
    "edges": [
      [
        0,
        1
      ],
      [
        0,
        2
      ],
      [
        1,
        3
      ],
      [
        2,
        4
      ],
      [
        2,
        5
      ],
      [
        3,
        4
      ],
      [
        4,
        5
      ],
      [
        4,
        7
      ],
      [
        5,
        6
      ],
      [
        5,
        7
      ],
      [
        6,
        8
      ],
      [
        7,
        8
      ]
    ],
    "vertices": [
      [
        10,
        0
      ],
      [
        8,
        28
      ],
      [
        33,
        11
      ],
      [
        0,
        55
      ],
      [
        9,
        27
      ],
      [
        34,
        40
      ],
      [
        57,
        24
      ],
      [
        10,
        55
      ],
      [
        35,
        42
      ]
    ]
  },
  "problem": 34,
  "can_use_bonuses": [
    {
      "bonus": "GLOBALIST",
      "problem": 30
    },
    {
      "bonus": "GLOBALIST",
      "problem": 66
    },
    {
      "bonus": "WALLHACK",
      "problem": 98
    }
  ]
}