{
  "bonuses": [
    {
      "bonus": "BREAK_A_LEG",
      "problem": 82,
      "position": [
        36,
        26
      ]
    },
    {
      "bonus": "BREAK_A_LEG",
      "problem": 96,
      "position": [
        18,
        15
      ]
    },
    {
      "bonus": "GLOBALIST",
      "problem": 75,
      "position": [
        15,
        9
      ]
    }
  ],
  "hole": [
    [
      23,
      0
    ],
    [
      32,
      2
    ],
    [
      24,
      6
    ],
    [
      31,
      9
    ],
    [
      36,
      12
    ],
    [
      36,
      26
    ],
    [
      29,
      18
    ],
    [
      24,
      22
    ],
    [
      21,
      27
    ],
    [
      30,
      32
    ],
    [
      18,
      34
    ],
    [
      10,
      38
    ],
    [
      12,
      30
    ],
    [
      6,
      28
    ],
    [
      0,
      32
    ],
    [
      0,
      20
    ],
    [
      8,
      22
    ],
    [
      5,
      14
    ],
    [
      1,
      6
    ],
    [
      0,
      0
    ],
    [
      6,
      0
    ],
    [
      12,
      3
    ],
    [
      17,
      0
    ]
  ],
  "epsilon": 15010,
  "figure": {
    "edges": [
      [
        0,
        1
      ],
      [
        0,
        2
      ],
      [
        1,
        3
      ],
      [
        2,
        4
      ],
      [
        3,
        4
      ]
    ],
    "vertices": [
      [
        0,
        7
      ],
      [
        0,
        31
      ],
      [
        22,
        0
      ],
      [
        22,
        38
      ],
      [
        36,
        19
      ]
    ]
  },
  "problem": 36,
  "can_use_bonuses": [
    {
      "bonus": "GLOBALIST",
      "problem": 28
    },
    {
      "bonus": "BREAK_A_LEG",
      "problem": 49
    },
    {
      "bonus": "SUPERFLEX",
      "problem": 96
    }
  ]
}