{
  "bonuses": [
    {
      "bonus": "GLOBALIST",
      "problem": 76,
      "position": [
        32,
        48
      ]
    },
    {
      "bonus": "SUPERFLEX",
      "problem": 101,
      "position": [
        51,
        45
      ]
    },
    {
      "bonus": "WALLHACK",
      "problem": 84,
      "position": [
        21,
        36
      ]
    }
  ],
  "hole": [
    [
      0,
      0
    ],
    [
      50,
      9
    ],
    [
      68,
      54
    ],
    [
      47,
      64
    ],
    [
      0,
      16
    ]
  ],
  "epsilon": 57852,
  "figure": {
    "edges": [
      [
        0,
        3
      ],
      [
        3,
        7
      ],
      [
        7,
        4
      ],
      [
        4,
        0
      ],
      [
        7,
        10
      ],
      [
        10,
        9
      ],
      [
        9,
        8
      ],
      [
        8,
        7
      ],
      [
        4,
        5
      ],
      [
        5,
        8
      ],
      [
        8,
        6
      ],
      [
        6,
        1
      ],
      [
        1,
        5
      ],
      [
        5,
        2
      ],
      [
        2,
        4
      ]
    ],
    "vertices": [
      [
        0,
        11
      ],
      [
        1,
        85
      ],
      [
        8,
        56
      ],
      [
        11,
        0
      ],
      [
        14,
        45
      ],
      [
        14,
        59
      ],
      [
        14,
        88
      ],
      [
        30,
        37
      ],
      [
        30,
        56
      ],
      [
        56,
        85
      ],
      [
        67,
        64
      ]
    ]
  },
  "problem": 38,
  "can_use_bonuses": [
    {
      "bonus": "BREAK_A_LEG",
      "problem": 1
    },
    {
      "bonus": "GLOBALIST",
      "problem": 53
    },
    {
      "bonus": "WALLHACK",
      "problem": 63
    }
  ]
}