{
  "bonuses": [
    {
      "bonus": "GLOBALIST",
      "problem": 37,
      "position": [
        27,
        86
      ]
    },
    {
      "bonus": "BREAK_A_LEG",
      "problem": 100,
      "position": [
        27,
        27
      ]
    },
    {
      "bonus": "BREAK_A_LEG",
      "problem": 29,
      "position": [
        54,
        54
      ]
    }
  ],
  "hole": [
    [
      5,
      7
    ],
    [
      39,
      0
    ],
    [
      59,
      33
    ],
    [
      56,
      76
    ],
    [
      45,
      110
    ],
    [
      6,
      111
    ],
    [
      0,
      73
    ],
    [
      0,
      39
    ]
  ],
  "epsilon": 20037,
  "figure": {
    "edges": [
      [
        0,
        1
      ],
      [
        0,
        2
      ],
      [
        0,
        4
      ],
      [
        1,
        3
      ],
      [
        1,
        4
      ],
      [
        2,
        5
      ],
      [
        3,
        6
      ],
      [
        4,
        7
      ],
      [
        4,
        8
      ],
      [
        5,
        8
      ],
      [
        6,
        7
      ],
      [
        7,
        8
      ]
    ],
    "vertices": [
      [
        4,
        8
      ],
      [
        6,
        42
      ],
      [
        23,
        34
      ],
      [
        37,
        19
      ],
      [
        35,
        23
      ],
      [
        16,
        0
      ],
      [
        5,
        42
      ],
      [
        38,
        56
      ],
      [
        0,
        35
      ]
    ]
  },
  "problem": 39,
  "can_use_bonuses": [
    {
      "bonus": "BREAK_A_LEG",
      "problem": 2
    },
    {
      "bonus": "GLOBALIST",
      "problem": 77
    },
    {
      "bonus": "BREAK_A_LEG",
      "problem": 93
    }
  ]
}