{
  "bonuses": [
    {
      "bonus": "GLOBALIST",
      "problem": 45,
      "position": [
        40,
        26
      ]
    },
    {
      "bonus": "SUPERFLEX",
      "problem": 17,
      "position": [
        27,
        48
      ]
    },
    {
      "bonus": "WALLHACK",
      "problem": 109,
      "position": [
        24,
        18
      ]
    }
  ],
  "hole": [
    [
      32,
      0
    ],
    [
      43,
      6
    ],
    [
      52,
      0
    ],
    [
      64,
      3
    ],
    [
      64,
      19
    ],
    [
      60,
      35
    ],
    [
      55,
      43
    ],
    [
      64,
      53
    ],
    [
      53,
      56
    ],
    [
      60,
      66
    ],
    [
      36,
      66
    ],
    [
      23,
      67
    ],
    [
      3,
      67
    ],
    [
      2,
      54
    ],
    [
      1,
      37
    ],
    [
      0,
      21
    ],
    [
      0,
      5
    ],
    [
      11,
      0
    ],
    [
      22,
      1
    ]
  ],
  "epsilon": 13279,
  "figure": {
    "edges": [
      [
        0,
        1
      ],
      [
        0,
        2
      ],
      [
        0,
        3
      ],
      [
        1,
        2
      ],
      [
        1,
        3
      ],
      [
        1,
        4
      ],
      [
        2,
        4
      ],
      [
        3,
        5
      ],
      [
        4,
        5
      ]
    ],
    "vertices": [
      [
        28,
        0
      ],
      [
        23,
        32
      ],
      [
        34,
        64
      ],
      [
        56,
        16
      ],
      [
        0,
        58
      ],
      [
        21,
        29
      ]
    ]
  },
  "problem": 40,
  "can_use_bonuses": [
    {
      "bonus": "WALLHACK",
      "problem": 43
    },
    {
      "bonus": "GLOBALIST",
      "problem": 72
    },
    {
      "bonus": "WALLHACK",
      "problem": 101
    }
  ]
}