{
  "bonuses": [
    {
      "bonus": "BREAK_A_LEG",
      "problem": 43,
      "position": [
        59,
        26
      ]
    },
    {
      "bonus": "SUPERFLEX",
      "problem": 58,
      "position": [
        54,
        9
      ]
    },
    {
      "bonus": "SUPERFLEX",
      "problem": 27,
      "position": [
        21,
        18
      ]
    }
  ],
  "hole": [
    [
      6,
      14
    ],
    [
      36,
      19
    ],
    [
      40,
      17
    ],
    [
      69,
      0
    ],
    [
      79,
      21
    ],
    [
      41,
      36
    ],
    [
      36,
      33
    ],
    [
      16,
      44
    ],
    [
      7,
      34
    ],
    [
      0,
      28
    ]
  ],
  "epsilon": 41323,
  "figure": {
    "edges": [
      [
        0,
        3
      ],
      [
        3,
        7
      ],
      [
        7,
        4
      ],
      [
        4,
        0
      ],
      [
        7,
        10
      ],
      [
        10,
        9
      ],
      [
        9,
        8
      ],
      [
        8,
        7
      ],
      [
        4,
        5
      ],
      [
        5,
        8
      ],
      [
        8,
        6
      ],
      [
        6,
        1
      ],
      [
        1,
        5
      ],
      [
        5,
        2
      ],
      [
        2,
        4
      ]
    ],
    "vertices": [
      [
        0,
        11
      ],
      [
        1,
        85
      ],
      [
        8,
        56
      ],
      [
        11,
        0
      ],
      [
        14,
        45
      ],
      [
        14,
        59
      ],
      [
        14,
        88
      ],
      [
        30,
        37
      ],
      [
        30,
        56
      ],
      [
        56,
        85
      ],
      [
        67,
        64
      ]
    ]
  },
  "problem": 47,
  "can_use_bonuses": [
    {
      "bonus": "SUPERFLEX",
      "problem": 27
    },
    {
      "bonus": "GLOBALIST",
      "problem": 35
    },
    {
      "bonus": "WALLHACK",
      "problem": 55
    }
  ]
}