{
  "bonuses": [
    {
      "bonus": "BREAK_A_LEG",
      "problem": 78,
      "position": [
        99,
        71
      ]
    },
    {
      "bonus": "WALLHACK",
      "problem": 10,
      "position": [
        80,
        65
      ]
    },
    {
      "bonus": "BREAK_A_LEG",
      "problem": 110,
      "position": [
        65,
        20
      ]
    }
  ],
  "hole": [
    [
      25,
      50
    ],
    [
      30,
      29
    ],
    [
      45,
      11
    ],
    [
      58,
      11
    ],
    [
      73,
      29
    ],
    [
      77,
      50
    ],
    [
      94,
      57
    ],
    [
      99,
      71
    ],
    [
      84,
      78
    ],
    [
      62,
      82
    ],
    [
      41,
      82
    ],
    [
      20,
      77
    ],
    [
      5,
      71
    ],
    [
      12,
      57
    ]
  ],
  "epsilon": 200000,
  "figure": {
    "edges": [
      [
        6,
        21
      ],
      [
        21,
        20
      ],
      [
        20,
        16
      ],
      [
        16,
        17
      ],
      [
        17,
        8
      ],
      [
        8,
        5
      ],
      [
        5,
        6
      ],
      [
        17,
        21
      ],
      [
        25,
        27
      ],
      [
        27,
        28
      ],
      [
        28,
        33
      ],
      [
        33,
        34
      ],
      [
        34,
        26
      ],
      [
        26,
        25
      ],
      [
        28,
        26
      ],
      [
        20,
        25
      ],
      [
        27,
        32
      ],
      [
        32,
        30
      ],
      [
        30,
        11
      ],
      [
        11,
        12
      ],
      [
        12,
        16
      ],
      [
        11,
        7
      ],
      [
        7,
        12
      ],
      [
        30,
        35
      ],
      [
        35,
        37
      ],
      [
        37,
        32
      ],
      [
        37,
        40
      ],
      [
        40,
        41
      ],
      [
        41,
        42
      ],
      [
        42,
        40
      ],
      [
        42,
        43
      ],
      [
        43,
        44
      ],
      [
        44,
        39
      ],
      [
        39,
        43
      ],
      [
        12,
        2
      ],
      [
        2,
        1
      ],
      [
        1,
        0
      ],
      [
        0,
        2
      ],
      [
        1,
        4
      ],
      [
        4,
        3
      ],
      [
        3,
        9
      ],
      [
        9,
        4
      ],
      [
        11,
        18
      ],
      [
        18,
        22
      ],
      [
        22,
        23
      ],
      [
        23,
        30
      ],
      [
        23,
        24
      ],
      [
        24,
        31
      ],
      [
        31,
        29
      ],
      [
        29,
        38
      ],
      [
        38,
        36
      ],
      [
        36,
        29
      ],
      [
        31,
        38
      ],
      [
        18,
        13
      ],
      [
        13,
        15
      ],
      [
        15,
        19
      ],
      [
        19,
        10
      ],
      [
        10,
        15
      ],
      [
        19,
        14
      ],
      [
        14,
        10
      ]
    ],
    "vertices": [
      [
        18,
        72
      ],
      [
        20,
        69
      ],
      [
        22,
        72
      ],
      [
        23,
        45
      ],
      [
        25,
        54
      ],
      [
        27,
        90
      ],
      [
        28,
        94
      ],
      [
        30,
        70
      ],
      [
        31,
        88
      ],
      [
        32,
        50
      ],
      [
        33,
        28
      ],
      [
        35,
        68
      ],
      [
        35,
        81
      ],
      [
        37,
        47
      ],
      [
        39,
        22
      ],
      [
        39,
        34
      ],
      [
        41,
        86
      ],
      [
        41,
        90
      ],
      [
        42,
        55
      ],
      [
        44,
        29
      ],
      [
        44,
        88
      ],
      [
        45,
        93
      ],
      [
        50,
        49
      ],
      [
        55,
        55
      ],
      [
        57,
        47
      ],
      [
        57,
        88
      ],
      [
        57,
        94
      ],
      [
        60,
        87
      ],
      [
        61,
        90
      ],
      [
        64,
        34
      ],
      [
        65,
        72
      ],
      [
        66,
        43
      ],
      [
        68,
        83
      ],
      [
        68,
        89
      ],
      [
        69,
        94
      ],
      [
        70,
        68
      ],
      [
        72,
        30
      ],
      [
        72,
        73
      ],
      [
        74,
        38
      ],
      [
        80,
        84
      ],
      [
        81,
        71
      ],
      [
        84,
        67
      ],
      [
        85,
        71
      ],
      [
        85,
        82
      ],
      [
        89,
        87
      ]
    ]
  },
  "problem": 5,
  "can_use_bonuses": [
    {
      "bonus": "BREAK_A_LEG",
      "problem": 32
    },
    {
      "bonus": "WALLHACK",
      "problem": 44
    },
    {
      "bonus": "GLOBALIST",
      "problem": 67
    }
  ]
}