{
  "bonuses": [
    {
      "bonus": "GLOBALIST",
      "problem": 55,
      "position": [
        61,
        21
      ]
    },
    {
      "bonus": "WALLHACK",
      "problem": 29,
      "position": [
        18,
        63
      ]
    },
    {
      "bonus": "SUPERFLEX",
      "problem": 113,
      "position": [
        39,
        36
      ]
    }
  ],
  "hole": [
    [
      13,
      23
    ],
    [
      58,
      0
    ],
    [
      79,
      10
    ],
    [
      76,
      36
    ],
    [
      62,
      62
    ],
    [
      50,
      80
    ],
    [
      25,
      82
    ],
    [
      3,
      75
    ],
    [
      0,
      44
    ]
  ],
  "epsilon": 40173,
  "figure": {
    "edges": [
      [
        0,
        3
      ],
      [
        0,
        4
      ],
      [
        1,
        2
      ],
      [
        1,
        4
      ],
      [
        2,
        5
      ],
      [
        3,
        4
      ],
      [
        3,
        6
      ],
      [
        4,
        6
      ],
      [
        4,
        7
      ],
      [
        4,
        9
      ],
      [
        5,
        7
      ],
      [
        6,
        9
      ],
      [
        6,
        10
      ],
      [
        7,
        8
      ],
      [
        7,
        9
      ],
      [
        7,
        11
      ],
      [
        8,
        11
      ],
      [
        9,
        11
      ],
      [
        9,
        12
      ],
      [
        10,
        13
      ],
      [
        12,
        13
      ]
    ],
    "vertices": [
      [
        30,
        43
      ],
      [
        46,
        24
      ],
      [
        45,
        0
      ],
      [
        44,
        23
      ],
      [
        55,
        45
      ],
      [
        33,
        20
      ],
      [
        27,
        43
      ],
      [
        31,
        44
      ],
      [
        35,
        64
      ],
      [
        38,
        67
      ],
      [
        0,
        39
      ],
      [
        53,
        52
      ],
      [
        49,
        46
      ],
      [
        23,
        42
      ]
    ]
  },
  "problem": 52,
  "can_use_bonuses": [
    {
      "bonus": "WALLHACK",
      "problem": 45
    },
    {
      "bonus": "GLOBALIST",
      "problem": 84
    },
    {
      "bonus": "WALLHACK",
      "problem": 125
    }
  ]
}