{
  "bonuses": [
    {
      "bonus": "GLOBALIST",
      "problem": 68,
      "position": [
        104,
        53
      ]
    },
    {
      "bonus": "WALLHACK",
      "problem": 15,
      "position": [
        75,
        18
      ]
    },
    {
      "bonus": "BREAK_A_LEG",
      "problem": 106,
      "position": [
        42,
        21
      ]
    }
  ],
  "hole": [
    [
      0,
      4
    ],
    [
      11,
      0
    ],
    [
      21,
      12
    ],
    [
      27,
      0
    ],
    [
      41,
      1
    ],
    [
      56,
      0
    ],
    [
      104,
      0
    ],
    [
      104,
      25
    ],
    [
      93,
      29
    ],
    [
      97,
      41
    ],
    [
      104,
      53
    ],
    [
      82,
      57
    ],
    [
      67,
      57
    ],
    [
      58,
      49
    ],
    [
      40,
      57
    ],
    [
      25,
      57
    ],
    [
      12,
      53
    ],
    [
      0,
      56
    ]
  ],
  "epsilon": 29340,
  "figure": {
    "edges": [
      [
        0,
        1
      ],
      [
        0,
        3
      ],
      [
        1,
        2
      ],
      [
        2,
        4
      ],
      [
        2,
        5
      ],
      [
        3,
        5
      ],
      [
        4,
        6
      ],
      [
        5,
        7
      ],
      [
        6,
        7
      ],
      [
        6,
        8
      ],
      [
        7,
        9
      ],
      [
        8,
        10
      ],
      [
        8,
        11
      ],
      [
        9,
        10
      ],
      [
        10,
        11
      ]
    ],
    "vertices": [
      [
        26,
        37
      ],
      [
        22,
        12
      ],
      [
        2,
        20
      ],
      [
        4,
        21
      ],
      [
        5,
        0
      ],
      [
        24,
        29
      ],
      [
        25,
        12
      ],
      [
        2,
        19
      ],
      [
        5,
        23
      ],
      [
        20,
        34
      ],
      [
        0,
        46
      ],
      [
        20,
        40
      ]
    ]
  },
  "problem": 58,
  "can_use_bonuses": [
    {
      "bonus": "GLOBALIST",
      "problem": 29
    },
    {
      "bonus": "SUPERFLEX",
      "problem": 47
    },
    {
      "bonus": "BREAK_A_LEG",
      "problem": 104
    }
  ]
}