{
  "bonuses": [
    {
      "bonus": "BREAK_A_LEG",
      "problem": 42,
      "position": [
        143,
        246
      ]
    },
    {
      "bonus": "WALLHACK",
      "problem": 49,
      "position": [
        210,
        279
      ]
    },
    {
      "bonus": "GLOBALIST",
      "problem": 62,
      "position": [
        117,
        285
      ]
    }
  ],
  "hole": [
    [
      31,
      56
    ],
    [
      65,
      58
    ],
    [
      83,
      28
    ],
    [
      95,
      0
    ],
    [
      125,
      0
    ],
    [
      108,
      22
    ],
    [
      99,
      54
    ],
    [
      130,
      54
    ],
    [
      159,
      22
    ],
    [
      187,
      50
    ],
    [
      154,
      67
    ],
    [
      119,
      93
    ],
    [
      97,
      119
    ],
    [
      119,
      138
    ],
    [
      124,
      166
    ],
    [
      120,
      197
    ],
    [
      133,
      217
    ],
    [
      172,
      243
    ],
    [
      215,
      253
    ],
    [
      255,
      278
    ],
    [
      266,
      319
    ],
    [
      225,
      301
    ],
    [
      185,
      287
    ],
    [
      141,
      275
    ],
    [
      111,
      310
    ],
    [
      95,
      271
    ],
    [
      85,
      289
    ],
    [
      57,
      319
    ],
    [
      30,
      345
    ],
    [
      43,
      317
    ],
    [
      56,
      282
    ],
    [
      31,
      318
    ],
    [
      49,
      281
    ],
    [
      42,
      267
    ],
    [
      17,
      251
    ],
    [
      36,
      231
    ],
    [
      63,
      202
    ],
    [
      59,
      169
    ],
    [
      65,
      121
    ],
    [
      54,
      90
    ],
    [
      29,
      73
    ],
    [
      0,
      49
    ]
  ],
  "epsilon": 36112,
  "figure": {
    "edges": [
      [
        0,
        2
      ],
      [
        0,
        4
      ],
      [
        1,
        3
      ],
      [
        1,
        5
      ],
      [
        2,
        6
      ],
      [
        3,
        8
      ],
      [
        4,
        5
      ],
      [
        4,
        7
      ],
      [
        5,
        9
      ],
      [
        5,
        10
      ],
      [
        6,
        7
      ],
      [
        7,
        10
      ],
      [
        7,
        13
      ],
      [
        8,
        9
      ],
      [
        9,
        10
      ],
      [
        9,
        15
      ],
      [
        10,
        12
      ],
      [
        10,
        16
      ],
      [
        10,
        18
      ],
      [
        11,
        12
      ],
      [
        11,
        17
      ],
      [
        12,
        20
      ],
      [
        13,
        14
      ],
      [
        13,
        21
      ],
      [
        14,
        24
      ],
      [
        15,
        22
      ],
      [
        16,
        22
      ],
      [
        17,
        25
      ],
      [
        18,
        20
      ],
      [
        18,
        21
      ],
      [
        18,
        27
      ],
      [
        19,
        20
      ],
      [
        19,
        28
      ],
      [
        20,
        25
      ],
      [
        20,
        26
      ],
      [
        20,
        29
      ],
      [
        21,
        30
      ],
      [
        23,
        25
      ],
      [
        23,
        35
      ],
      [
        24,
        30
      ],
      [
        25,
        34
      ],
      [
        26,
        33
      ],
      [
        27,
        31
      ],
      [
        28,
        29
      ],
      [
        29,
        31
      ],
      [
        32,
        37
      ],
      [
        32,
        39
      ],
      [
        33,
        34
      ],
      [
        33,
        40
      ],
      [
        34,
        36
      ],
      [
        34,
        37
      ],
      [
        34,
        40
      ],
      [
        34,
        41
      ],
      [
        35,
        37
      ],
      [
        35,
        38
      ],
      [
        36,
        41
      ],
      [
        36,
        42
      ],
      [
        37,
        41
      ],
      [
        37,
        43
      ],
      [
        37,
        45
      ],
      [
        38,
        43
      ],
      [
        39,
        45
      ],
      [
        41,
        44
      ],
      [
        41,
        48
      ],
      [
        41,
        49
      ],
      [
        42,
        47
      ],
      [
        42,
        50
      ],
      [
        44,
        52
      ],
      [
        45,
        46
      ],
      [
        45,
        51
      ],
      [
        46,
        53
      ],
      [
        47,
        50
      ],
      [
        47,
        54
      ],
      [
        48,
        51
      ],
      [
        49,
        50
      ],
      [
        49,
        52
      ],
      [
        49,
        56
      ],
      [
        50,
        55
      ],
      [
        51,
        53
      ],
      [
        52,
        56
      ],
      [
        54,
        57
      ],
      [
        55,
        57
      ]
    ],
    "vertices": [
      [
        0,
        65
      ],
      [
        7,
        142
      ],
      [
        14,
        38
      ],
      [
        20,
        171
      ],
      [
        22,
        86
      ],
      [
        32,
        119
      ],
      [
        42,
        39
      ],
      [
        49,
        71
      ],
      [
        57,
        165
      ],
      [
        62,
        135
      ],
      [
        63,
        102
      ],
      [
        69,
        163
      ],
      [
        70,
        131
      ],
      [
        71,
        49
      ],
      [
        77,
        7
      ],
      [
        93,
        147
      ],
      [
        94,
        92
      ],
      [
        94,
        172
      ],
      [
        97,
        98
      ],
      [
        97,
        155
      ],
      [
        102,
        125
      ],
      [
        108,
        66
      ],
      [
        113,
        123
      ],
      [
        114,
        188
      ],
      [
        116,
        0
      ],
      [
        116,
        152
      ],
      [
        122,
        94
      ],
      [
        123,
        85
      ],
      [
        131,
        158
      ],
      [
        134,
        128
      ],
      [
        135,
        32
      ],
      [
        144,
        104
      ],
      [
        146,
        202
      ],
      [
        151,
        106
      ],
      [
        151,
        140
      ],
      [
        153,
        195
      ],
      [
        166,
        100
      ],
      [
        174,
        172
      ],
      [
        175,
        212
      ],
      [
        175,
        232
      ],
      [
        181,
        123
      ],
      [
        191,
        137
      ],
      [
        194,
        62
      ],
      [
        199,
        194
      ],
      [
        202,
        180
      ],
      [
        204,
        199
      ],
      [
        223,
        231
      ],
      [
        229,
        35
      ],
      [
        233,
        142
      ],
      [
        234,
        125
      ],
      [
        236,
        79
      ],
      [
        237,
        183
      ],
      [
        246,
        169
      ],
      [
        251,
        218
      ],
      [
        271,
        14
      ],
      [
        278,
        85
      ],
      [
        278,
        141
      ],
      [
        300,
        46
      ]
    ]
  },
  "problem": 65,
  "can_use_bonuses": [
    {
      "bonus": "GLOBALIST",
      "problem": 18
    },
    {
      "bonus": "GLOBALIST",
      "problem": 28
    },
    {
      "bonus": "BREAK_A_LEG",
      "problem": 54
    }
  ]
}