{
  "bonuses": [
    {
      "bonus": "BREAK_A_LEG",
      "problem": 69,
      "position": [
        33,
        85
      ]
    },
    {
      "bonus": "WALLHACK",
      "problem": 102,
      "position": [
        282,
        66
      ]
    },
    {
      "bonus": "SUPERFLEX",
      "problem": 99,
      "position": [
        282,
        162
      ]
    }
  ],
  "hole": [
    [
      25,
      52
    ],
    [
      60,
      66
    ],
    [
      89,
      74
    ],
    [
      103,
      39
    ],
    [
      120,
      6
    ],
    [
      151,
      21
    ],
    [
      155,
      47
    ],
    [
      194,
      43
    ],
    [
      201,
      80
    ],
    [
      191,
      112
    ],
    [
      203,
      114
    ],
    [
      225,
      108
    ],
    [
      259,
      102
    ],
    [
      274,
      132
    ],
    [
      286,
      97
    ],
    [
      251,
      76
    ],
    [
      215,
      78
    ],
    [
      203,
      45
    ],
    [
      231,
      22
    ],
    [
      261,
      42
    ],
    [
      280,
      0
    ],
    [
      302,
      37
    ],
    [
      315,
      72
    ],
    [
      322,
      110
    ],
    [
      355,
      122
    ],
    [
      345,
      157
    ],
    [
      310,
      145
    ],
    [
      307,
      180
    ],
    [
      318,
      217
    ],
    [
      341,
      246
    ],
    [
      316,
      280
    ],
    [
      301,
      314
    ],
    [
      331,
      325
    ],
    [
      331,
      358
    ],
    [
      302,
      368
    ],
    [
      281,
      340
    ],
    [
      245,
      330
    ],
    [
      269,
      307
    ],
    [
      280,
      269
    ],
    [
      279,
      254
    ],
    [
      224,
      262
    ],
    [
      194,
      267
    ],
    [
      184,
      238
    ],
    [
      157,
      244
    ],
    [
      166,
      217
    ],
    [
      127,
      210
    ],
    [
      122,
      175
    ],
    [
      114,
      168
    ],
    [
      97,
      150
    ],
    [
      68,
      176
    ],
    [
      30,
      168
    ],
    [
      20,
      126
    ],
    [
      60,
      138
    ],
    [
      59,
      105
    ],
    [
      18,
      116
    ],
    [
      0,
      87
    ]
  ],
  "epsilon": 39345,
  "figure": {
    "edges": [
      [
        0,
        1
      ],
      [
        0,
        3
      ],
      [
        1,
        5
      ],
      [
        2,
        4
      ],
      [
        2,
        7
      ],
      [
        3,
        6
      ],
      [
        4,
        7
      ],
      [
        4,
        9
      ],
      [
        5,
        6
      ],
      [
        5,
        7
      ],
      [
        5,
        12
      ],
      [
        6,
        12
      ],
      [
        7,
        9
      ],
      [
        7,
        14
      ],
      [
        8,
        10
      ],
      [
        8,
        11
      ],
      [
        9,
        14
      ],
      [
        10,
        17
      ],
      [
        11,
        15
      ],
      [
        11,
        21
      ],
      [
        12,
        17
      ],
      [
        13,
        16
      ],
      [
        13,
        19
      ],
      [
        14,
        17
      ],
      [
        14,
        22
      ],
      [
        15,
        20
      ],
      [
        15,
        24
      ],
      [
        16,
        25
      ],
      [
        17,
        21
      ],
      [
        17,
        27
      ],
      [
        18,
        21
      ],
      [
        18,
        28
      ],
      [
        19,
        27
      ],
      [
        20,
        26
      ],
      [
        21,
        24
      ],
      [
        21,
        29
      ],
      [
        21,
        32
      ],
      [
        22,
        23
      ],
      [
        22,
        30
      ],
      [
        23,
        33
      ],
      [
        24,
        26
      ],
      [
        24,
        29
      ],
      [
        25,
        27
      ],
      [
        25,
        41
      ],
      [
        27,
        30
      ],
      [
        27,
        32
      ],
      [
        27,
        42
      ],
      [
        28,
        32
      ],
      [
        28,
        43
      ],
      [
        30,
        36
      ],
      [
        30,
        40
      ],
      [
        31,
        33
      ],
      [
        31,
        37
      ],
      [
        32,
        39
      ],
      [
        32,
        42
      ],
      [
        32,
        45
      ],
      [
        33,
        36
      ],
      [
        33,
        37
      ],
      [
        34,
        35
      ],
      [
        34,
        46
      ],
      [
        35,
        38
      ],
      [
        35,
        51
      ],
      [
        36,
        40
      ],
      [
        36,
        49
      ],
      [
        36,
        51
      ],
      [
        36,
        52
      ],
      [
        37,
        44
      ],
      [
        37,
        53
      ],
      [
        38,
        56
      ],
      [
        39,
        45
      ],
      [
        40,
        48
      ],
      [
        40,
        59
      ],
      [
        41,
        50
      ],
      [
        42,
        50
      ],
      [
        43,
        45
      ],
      [
        44,
        57
      ],
      [
        46,
        51
      ],
      [
        47,
        54
      ],
      [
        47,
        60
      ],
      [
        48,
        59
      ],
      [
        49,
        51
      ],
      [
        51,
        53
      ],
      [
        51,
        56
      ],
      [
        51,
        63
      ],
      [
        52,
        61
      ],
      [
        52,
        62
      ],
      [
        53,
        57
      ],
      [
        53,
        63
      ],
      [
        53,
        64
      ],
      [
        54,
        67
      ],
      [
        55,
        58
      ],
      [
        55,
        68
      ],
      [
        56,
        68
      ],
      [
        57,
        69
      ],
      [
        58,
        70
      ],
      [
        59,
        62
      ],
      [
        60,
        71
      ],
      [
        61,
        65
      ],
      [
        61,
        72
      ],
      [
        62,
        72
      ],
      [
        63,
        73
      ],
      [
        63,
        75
      ],
      [
        64,
        69
      ],
      [
        65,
        77
      ],
      [
        66,
        74
      ],
      [
        66,
        81
      ],
      [
        67,
        71
      ],
      [
        67,
        82
      ],
      [
        68,
        75
      ],
      [
        68,
        76
      ],
      [
        70,
        76
      ],
      [
        71,
        78
      ],
      [
        71,
        86
      ],
      [
        72,
        83
      ],
      [
        73,
        84
      ],
      [
        74,
        79
      ],
      [
        74,
        81
      ],
      [
        74,
        85
      ],
      [
        75,
        80
      ],
      [
        75,
        84
      ],
      [
        75,
        88
      ],
      [
        76,
        82
      ],
      [
        76,
        89
      ],
      [
        77,
        83
      ],
      [
        78,
        86
      ],
      [
        79,
        80
      ],
      [
        79,
        91
      ],
      [
        80,
        92
      ],
      [
        81,
        85
      ],
      [
        81,
        87
      ],
      [
        82,
        90
      ],
      [
        82,
        93
      ],
      [
        85,
        91
      ],
      [
        85,
        94
      ],
      [
        86,
        90
      ],
      [
        87,
        95
      ],
      [
        88,
        89
      ],
      [
        88,
        92
      ],
      [
        89,
        93
      ],
      [
        89,
        97
      ],
      [
        90,
        93
      ],
      [
        91,
        96
      ],
      [
        92,
        96
      ],
      [
        93,
        98
      ],
      [
        94,
        95
      ],
      [
        97,
        98
      ]
    ],
    "vertices": [
      [
        41,
        44
      ],
      [
        75,
        42
      ],
      [
        17,
        64
      ],
      [
        72,
        14
      ],
      [
        9,
        107
      ],
      [
        81,
        84
      ],
      [
        61,
        50
      ],
      [
        49,
        91
      ],
      [
        36,
        31
      ],
      [
        17,
        69
      ],
      [
        6,
        18
      ],
      [
        66,
        36
      ],
      [
        42,
        82
      ],
      [
        74,
        37
      ],
      [
        53,
        53
      ],
      [
        78,
        0
      ],
      [
        37,
        35
      ],
      [
        14,
        51
      ],
      [
        61,
        50
      ],
      [
        42,
        58
      ],
      [
        68,
        36
      ],
      [
        33,
        24
      ],
      [
        18,
        59
      ],
      [
        52,
        51
      ],
      [
        66,
        35
      ],
      [
        0,
        35
      ],
      [
        79,
        68
      ],
      [
        33,
        21
      ],
      [
        66,
        86
      ],
      [
        42,
        58
      ],
      [
        55,
        49
      ],
      [
        90,
        77
      ],
      [
        61,
        48
      ],
      [
        92,
        49
      ],
      [
        45,
        22
      ],
      [
        21,
        52
      ],
      [
        71,
        19
      ],
      [
        67,
        62
      ],
      [
        48,
        40
      ],
      [
        101,
        69
      ],
      [
        89,
        52
      ],
      [
        43,
        40
      ],
      [
        70,
        7
      ],
      [
        100,
        106
      ],
      [
        84,
        36
      ],
      [
        66,
        90
      ],
      [
        22,
        44
      ],
      [
        62,
        66
      ],
      [
        112,
        24
      ],
      [
        95,
        47
      ],
      [
        84,
        42
      ],
      [
        58,
        51
      ],
      [
        36,
        31
      ],
      [
        44,
        82
      ],
      [
        31,
        50
      ],
      [
        61,
        62
      ],
      [
        80,
        24
      ],
      [
        71,
        63
      ],
      [
        68,
        27
      ],
      [
        77,
        18
      ],
      [
        58,
        30
      ],
      [
        63,
        45
      ],
      [
        61,
        54
      ],
      [
        24,
        54
      ],
      [
        64,
        106
      ],
      [
        54,
        77
      ],
      [
        60,
        27
      ],
      [
        61,
        30
      ],
      [
        93,
        51
      ],
      [
        92,
        86
      ],
      [
        39,
        46
      ],
      [
        69,
        65
      ],
      [
        95,
        55
      ],
      [
        57,
        65
      ],
      [
        60,
        60
      ],
      [
        57,
        64
      ],
      [
        68,
        28
      ],
      [
        61,
        44
      ],
      [
        89,
        106
      ],
      [
        38,
        27
      ],
      [
        79,
        33
      ],
      [
        28,
        46
      ],
      [
        94,
        55
      ],
      [
        86,
        23
      ],
      [
        56,
        29
      ],
      [
        33,
        79
      ],
      [
        110,
        68
      ],
      [
        59,
        30
      ],
      [
        18,
        67
      ],
      [
        30,
        34
      ],
      [
        80,
        90
      ],
      [
        63,
        56
      ],
      [
        57,
        64
      ],
      [
        56,
        60
      ],
      [
        52,
        53
      ],
      [
        85,
        47
      ],
      [
        20,
        57
      ],
      [
        54,
        62
      ],
      [
        90,
        68
      ]
    ]
  },
  "problem": 68,
  "can_use_bonuses": [
    {
      "bonus": "SUPERFLEX",
      "problem": 17
    },
    {
      "bonus": "GLOBALIST",
      "problem": 58
    },
    {
      "bonus": "SUPERFLEX",
      "problem": 105
    }
  ]
}