{
  "bonuses": [
    {
      "bonus": "GLOBALIST",
      "problem": 83,
      "position": [
        77,
        30
      ]
    },
    {
      "bonus": "GLOBALIST",
      "problem": 39,
      "position": [
        81,
        45
      ]
    },
    {
      "bonus": "SUPERFLEX",
      "problem": 8,
      "position": [
        57,
        45
      ]
    }
  ],
  "hole": [
    [
      1,
      36
    ],
    [
      4,
      29
    ],
    [
      19,
      10
    ],
    [
      64,
      0
    ],
    [
      74,
      12
    ],
    [
      84,
      58
    ],
    [
      65,
      65
    ],
    [
      45,
      70
    ],
    [
      27,
      64
    ],
    [
      0,
      44
    ]
  ],
  "epsilon": 65574,
  "figure": {
    "edges": [
      [
        0,
        1
      ],
      [
        0,
        2
      ],
      [
        1,
        5
      ],
      [
        2,
        4
      ],
      [
        2,
        5
      ],
      [
        2,
        6
      ],
      [
        3,
        4
      ],
      [
        3,
        7
      ],
      [
        3,
        14
      ],
      [
        4,
        9
      ],
      [
        5,
        6
      ],
      [
        5,
        8
      ],
      [
        6,
        8
      ],
      [
        6,
        9
      ],
      [
        7,
        14
      ],
      [
        7,
        24
      ],
      [
        9,
        14
      ],
      [
        9,
        15
      ],
      [
        10,
        16
      ],
      [
        10,
        20
      ],
      [
        11,
        16
      ],
      [
        11,
        26
      ],
      [
        12,
        17
      ],
      [
        12,
        25
      ],
      [
        13,
        18
      ],
      [
        13,
        23
      ],
      [
        14,
        22
      ],
      [
        14,
        24
      ],
      [
        15,
        22
      ],
      [
        16,
        37
      ],
      [
        17,
        25
      ],
      [
        17,
        30
      ],
      [
        18,
        27
      ],
      [
        19,
        23
      ],
      [
        19,
        29
      ],
      [
        20,
        41
      ],
      [
        21,
        22
      ],
      [
        21,
        33
      ],
      [
        22,
        24
      ],
      [
        22,
        35
      ],
      [
        23,
        27
      ],
      [
        23,
        32
      ],
      [
        24,
        35
      ],
      [
        25,
        30
      ],
      [
        25,
        40
      ],
      [
        26,
        43
      ],
      [
        26,
        45
      ],
      [
        27,
        39
      ],
      [
        28,
        36
      ],
      [
        28,
        45
      ],
      [
        29,
        32
      ],
      [
        29,
        38
      ],
      [
        30,
        31
      ],
      [
        30,
        49
      ],
      [
        31,
        47
      ],
      [
        32,
        39
      ],
      [
        32,
        42
      ],
      [
        32,
        46
      ],
      [
        33,
        44
      ],
      [
        33,
        46
      ],
      [
        34,
        43
      ],
      [
        34,
        56
      ],
      [
        35,
        44
      ],
      [
        35,
        48
      ],
      [
        36,
        45
      ],
      [
        36,
        50
      ],
      [
        37,
        41
      ],
      [
        37,
        43
      ],
      [
        38,
        49
      ],
      [
        39,
        51
      ],
      [
        40,
        53
      ],
      [
        42,
        52
      ],
      [
        43,
        45
      ],
      [
        43,
        59
      ],
      [
        44,
        48
      ],
      [
        44,
        54
      ],
      [
        44,
        57
      ],
      [
        45,
        50
      ],
      [
        45,
        58
      ],
      [
        46,
        49
      ],
      [
        46,
        55
      ],
      [
        47,
        49
      ],
      [
        48,
        59
      ],
      [
        49,
        53
      ],
      [
        49,
        60
      ],
      [
        50,
        58
      ],
      [
        51,
        52
      ],
      [
        53,
        60
      ],
      [
        54,
        64
      ],
      [
        54,
        65
      ],
      [
        55,
        57
      ],
      [
        55,
        62
      ],
      [
        55,
        72
      ],
      [
        56,
        59
      ],
      [
        58,
        67
      ],
      [
        59,
        65
      ],
      [
        59,
        67
      ],
      [
        60,
        61
      ],
      [
        60,
        62
      ],
      [
        60,
        70
      ],
      [
        61,
        69
      ],
      [
        62,
        64
      ],
      [
        62,
        70
      ],
      [
        63,
        65
      ],
      [
        63,
        68
      ],
      [
        64,
        65
      ],
      [
        64,
        72
      ],
      [
        65,
        66
      ],
      [
        65,
        73
      ],
      [
        65,
        74
      ],
      [
        66,
        77
      ],
      [
        67,
        71
      ],
      [
        67,
        76
      ],
      [
        68,
        78
      ],
      [
        69,
        70
      ],
      [
        69,
        81
      ],
      [
        70,
        75
      ],
      [
        70,
        81
      ],
      [
        71,
        79
      ],
      [
        71,
        82
      ],
      [
        72,
        73
      ],
      [
        73,
        78
      ],
      [
        74,
        76
      ],
      [
        74,
        77
      ],
      [
        74,
        85
      ],
      [
        75,
        80
      ],
      [
        75,
        84
      ],
      [
        76,
        82
      ],
      [
        76,
        83
      ],
      [
        76,
        85
      ],
      [
        79,
        82
      ],
      [
        80,
        86
      ],
      [
        81,
        84
      ],
      [
        83,
        85
      ],
      [
        83,
        87
      ],
      [
        84,
        86
      ],
      [
        85,
        87
      ]
    ],
    "vertices": [
      [
        0,
        72
      ],
      [
        10,
        53
      ],
      [
        13,
        79
      ],
      [
        15,
        128
      ],
      [
        18,
        106
      ],
      [
        23,
        64
      ],
      [
        34,
        76
      ],
      [
        37,
        142
      ],
      [
        40,
        64
      ],
      [
        40,
        100
      ],
      [
        43,
        75
      ],
      [
        49,
        131
      ],
      [
        51,
        8
      ],
      [
        51,
        74
      ],
      [
        52,
        120
      ],
      [
        57,
        93
      ],
      [
        59,
        103
      ],
      [
        60,
        37
      ],
      [
        62,
        91
      ],
      [
        64,
        47
      ],
      [
        68,
        48
      ],
      [
        68,
        85
      ],
      [
        68,
        109
      ],
      [
        71,
        67
      ],
      [
        73,
        131
      ],
      [
        78,
        14
      ],
      [
        78,
        151
      ],
      [
        80,
        86
      ],
      [
        80,
        157
      ],
      [
        84,
        41
      ],
      [
        88,
        39
      ],
      [
        88,
        67
      ],
      [
        90,
        61
      ],
      [
        90,
        78
      ],
      [
        90,
        96
      ],
      [
        90,
        116
      ],
      [
        90,
        181
      ],
      [
        91,
        99
      ],
      [
        92,
        30
      ],
      [
        98,
        76
      ],
      [
        100,
        0
      ],
      [
        101,
        67
      ],
      [
        103,
        53
      ],
      [
        103,
        130
      ],
      [
        104,
        97
      ],
      [
        106,
        160
      ],
      [
        108,
        58
      ],
      [
        108,
        63
      ],
      [
        110,
        120
      ],
      [
        111,
        40
      ],
      [
        115,
        186
      ],
      [
        116,
        69
      ],
      [
        117,
        55
      ],
      [
        118,
        16
      ],
      [
        126,
        88
      ],
      [
        128,
        68
      ],
      [
        129,
        90
      ],
      [
        129,
        92
      ],
      [
        133,
        166
      ],
      [
        134,
        120
      ],
      [
        137,
        32
      ],
      [
        138,
        6
      ],
      [
        143,
        51
      ],
      [
        143,
        117
      ],
      [
        144,
        78
      ],
      [
        147,
        100
      ],
      [
        150,
        74
      ],
      [
        152,
        142
      ],
      [
        160,
        129
      ],
      [
        161,
        14
      ],
      [
        161,
        37
      ],
      [
        162,
        164
      ],
      [
        167,
        74
      ],
      [
        167,
        96
      ],
      [
        170,
        106
      ],
      [
        173,
        60
      ],
      [
        174,
        132
      ],
      [
        176,
        80
      ],
      [
        179,
        113
      ],
      [
        179,
        178
      ],
      [
        182,
        81
      ],
      [
        184,
        25
      ],
      [
        185,
        154
      ],
      [
        191,
        138
      ],
      [
        193,
        50
      ],
      [
        193,
        119
      ],
      [
        203,
        70
      ],
      [
        209,
        130
      ]
    ]
  },
  "problem": 77,
  "can_use_bonuses": [
    {
      "bonus": "SUPERFLEX",
      "problem": 26
    },
    {
      "bonus": "BREAK_A_LEG",
      "problem": 74
    },
    {
      "bonus": "GLOBALIST",
      "problem": 112
    }
  ]
}