{
  "bonuses": [
    {
      "bonus": "BREAK_A_LEG",
      "problem": 27,
      "position": [
        27,
        43
      ]
    },
    {
      "bonus": "WALLHACK",
      "problem": 43,
      "position": [
        111,
        36
      ]
    },
    {
      "bonus": "SUPERFLEX",
      "problem": 69,
      "position": [
        57,
        12
      ]
    }
  ],
  "hole": [
    [
      45,
      26
    ],
    [
      35,
      12
    ],
    [
      81,
      7
    ],
    [
      70,
      25
    ],
    [
      75,
      17
    ],
    [
      108,
      0
    ],
    [
      116,
      18
    ],
    [
      129,
      26
    ],
    [
      95,
      47
    ],
    [
      99,
      60
    ],
    [
      86,
      54
    ],
    [
      100,
      66
    ],
    [
      61,
      92
    ],
    [
      57,
      77
    ],
    [
      52,
      73
    ],
    [
      37,
      67
    ],
    [
      35,
      67
    ],
    [
      28,
      65
    ],
    [
      52,
      47
    ],
    [
      12,
      68
    ],
    [
      12,
      28
    ],
    [
      0,
      17
    ]
  ],
  "epsilon": 103449,
  "figure": {
    "edges": [
      [
        39,
        38
      ],
      [
        38,
        27
      ],
      [
        27,
        21
      ],
      [
        21,
        12
      ],
      [
        12,
        14
      ],
      [
        14,
        24
      ],
      [
        24,
        37
      ],
      [
        37,
        43
      ],
      [
        43,
        42
      ],
      [
        42,
        39
      ],
      [
        14,
        10
      ],
      [
        10,
        20
      ],
      [
        20,
        40
      ],
      [
        40,
        48
      ],
      [
        48,
        47
      ],
      [
        47,
        45
      ],
      [
        45,
        42
      ],
      [
        12,
        9
      ],
      [
        9,
        10
      ],
      [
        34,
        32
      ],
      [
        32,
        22
      ],
      [
        22,
        15
      ],
      [
        15,
        8
      ],
      [
        8,
        7
      ],
      [
        7,
        17
      ],
      [
        17,
        26
      ],
      [
        26,
        35
      ],
      [
        35,
        39
      ],
      [
        39,
        34
      ],
      [
        7,
        4
      ],
      [
        4,
        16
      ],
      [
        16,
        31
      ],
      [
        31,
        44
      ],
      [
        44,
        45
      ],
      [
        30,
        28
      ],
      [
        28,
        19
      ],
      [
        19,
        11
      ],
      [
        11,
        3
      ],
      [
        3,
        2
      ],
      [
        2,
        13
      ],
      [
        13,
        23
      ],
      [
        23,
        29
      ],
      [
        29,
        34
      ],
      [
        34,
        30
      ],
      [
        2,
        0
      ],
      [
        0,
        6
      ],
      [
        6,
        18
      ],
      [
        18,
        25
      ],
      [
        25,
        33
      ],
      [
        33,
        39
      ],
      [
        30,
        36
      ],
      [
        36,
        41
      ],
      [
        41,
        39
      ],
      [
        45,
        46
      ],
      [
        46,
        41
      ],
      [
        8,
        5
      ],
      [
        5,
        4
      ],
      [
        3,
        1
      ],
      [
        1,
        0
      ]
    ],
    "vertices": [
      [
        0,
        53
      ],
      [
        1,
        44
      ],
      [
        7,
        50
      ],
      [
        9,
        44
      ],
      [
        20,
        71
      ],
      [
        22,
        62
      ],
      [
        23,
        89
      ],
      [
        30,
        72
      ],
      [
        34,
        64
      ],
      [
        39,
        102
      ],
      [
        41,
        114
      ],
      [
        45,
        67
      ],
      [
        48,
        99
      ],
      [
        51,
        81
      ],
      [
        51,
        107
      ],
      [
        62,
        83
      ],
      [
        64,
        120
      ],
      [
        66,
        100
      ],
      [
        84,
        99
      ],
      [
        86,
        64
      ],
      [
        89,
        143
      ],
      [
        91,
        106
      ],
      [
        103,
        81
      ],
      [
        108,
        66
      ],
      [
        110,
        117
      ],
      [
        124,
        77
      ],
      [
        125,
        86
      ],
      [
        127,
        91
      ],
      [
        130,
        34
      ],
      [
        135,
        36
      ],
      [
        136,
        13
      ],
      [
        136,
        109
      ],
      [
        137,
        45
      ],
      [
        141,
        37
      ],
      [
        143,
        16
      ],
      [
        146,
        44
      ],
      [
        148,
        0
      ],
      [
        148,
        87
      ],
      [
        150,
        52
      ],
      [
        151,
        19
      ],
      [
        152,
        123
      ],
      [
        157,
        4
      ],
      [
        157,
        21
      ],
      [
        159,
        47
      ],
      [
        159,
        68
      ],
      [
        163,
        20
      ],
      [
        164,
        8
      ],
      [
        167,
        47
      ],
      [
        175,
        76
      ]
    ]
  },
  "problem": 81,
  "can_use_bonuses": [
    {
      "bonus": "BREAK_A_LEG",
      "problem": 2
    },
    {
      "bonus": "GLOBALIST",
      "problem": 3
    },
    {
      "bonus": "BREAK_A_LEG",
      "problem": 75
    }
  ]
}