{
  "bonuses": [
    {
      "bonus": "GLOBALIST",
      "problem": 2,
      "position": [
        194,
        218
      ]
    },
    {
      "bonus": "SUPERFLEX",
      "problem": 75,
      "position": [
        165,
        114
      ]
    },
    {
      "bonus": "BREAK_A_LEG",
      "problem": 108,
      "position": [
        162,
        189
      ]
    }
  ],
  "hole": [
    [
      22,
      25
    ],
    [
      25,
      20
    ],
    [
      39,
      0
    ],
    [
      116,
      77
    ],
    [
      122,
      34
    ],
    [
      154,
      0
    ],
    [
      180,
      39
    ],
    [
      155,
      71
    ],
    [
      184,
      152
    ],
    [
      194,
      218
    ],
    [
      131,
      217
    ],
    [
      119,
      154
    ],
    [
      87,
      128
    ],
    [
      61,
      207
    ],
    [
      34,
      161
    ],
    [
      0,
      153
    ],
    [
      15,
      111
    ],
    [
      0,
      80
    ]
  ],
  "epsilon": 152000,
  "figure": {
    "edges": [
      [
        0,
        1
      ],
      [
        0,
        2
      ],
      [
        0,
        4
      ],
      [
        0,
        6
      ],
      [
        1,
        4
      ],
      [
        1,
        7
      ],
      [
        1,
        10
      ],
      [
        2,
        5
      ],
      [
        3,
        5
      ],
      [
        3,
        8
      ],
      [
        4,
        5
      ],
      [
        4,
        7
      ],
      [
        5,
        9
      ],
      [
        6,
        11
      ],
      [
        6,
        12
      ],
      [
        6,
        17
      ],
      [
        7,
        14
      ],
      [
        7,
        15
      ],
      [
        8,
        13
      ],
      [
        9,
        13
      ],
      [
        9,
        14
      ],
      [
        10,
        15
      ],
      [
        10,
        22
      ],
      [
        10,
        38
      ],
      [
        11,
        23
      ],
      [
        11,
        24
      ],
      [
        11,
        34
      ],
      [
        12,
        21
      ],
      [
        12,
        24
      ],
      [
        14,
        18
      ],
      [
        15,
        18
      ],
      [
        15,
        22
      ],
      [
        16,
        26
      ],
      [
        16,
        27
      ],
      [
        17,
        24
      ],
      [
        17,
        25
      ],
      [
        18,
        19
      ],
      [
        18,
        29
      ],
      [
        19,
        27
      ],
      [
        19,
        33
      ],
      [
        20,
        32
      ],
      [
        20,
        34
      ],
      [
        21,
        24
      ],
      [
        21,
        28
      ],
      [
        21,
        35
      ],
      [
        22,
        29
      ],
      [
        23,
        24
      ],
      [
        24,
        32
      ],
      [
        25,
        32
      ],
      [
        26,
        36
      ],
      [
        27,
        33
      ],
      [
        27,
        36
      ],
      [
        28,
        35
      ],
      [
        29,
        37
      ],
      [
        30,
        33
      ],
      [
        30,
        40
      ],
      [
        31,
        38
      ],
      [
        31,
        40
      ],
      [
        31,
        46
      ],
      [
        32,
        39
      ],
      [
        32,
        41
      ],
      [
        33,
        37
      ],
      [
        33,
        44
      ],
      [
        34,
        41
      ],
      [
        34,
        53
      ],
      [
        35,
        39
      ],
      [
        35,
        42
      ],
      [
        36,
        42
      ],
      [
        36,
        47
      ],
      [
        38,
        46
      ],
      [
        38,
        49
      ],
      [
        39,
        45
      ],
      [
        39,
        50
      ],
      [
        39,
        51
      ],
      [
        40,
        46
      ],
      [
        40,
        48
      ],
      [
        41,
        50
      ],
      [
        41,
        53
      ],
      [
        42,
        52
      ],
      [
        42,
        54
      ],
      [
        43,
        54
      ],
      [
        43,
        55
      ],
      [
        44,
        47
      ],
      [
        44,
        48
      ],
      [
        45,
        56
      ],
      [
        46,
        57
      ],
      [
        46,
        58
      ],
      [
        47,
        52
      ],
      [
        48,
        59
      ],
      [
        49,
        57
      ],
      [
        50,
        53
      ],
      [
        50,
        60
      ],
      [
        51,
        54
      ],
      [
        51,
        61
      ],
      [
        52,
        54
      ],
      [
        53,
        61
      ],
      [
        54,
        62
      ],
      [
        54,
        63
      ],
      [
        55,
        62
      ],
      [
        56,
        60
      ],
      [
        57,
        64
      ],
      [
        58,
        59
      ],
      [
        61,
        63
      ],
      [
        61,
        64
      ],
      [
        62,
        63
      ],
      [
        62,
        64
      ],
      [
        63,
        64
      ]
    ],
    "vertices": [
      [
        0,
        155
      ],
      [
        7,
        177
      ],
      [
        15,
        143
      ],
      [
        24,
        132
      ],
      [
        27,
        171
      ],
      [
        31,
        152
      ],
      [
        41,
        37
      ],
      [
        42,
        184
      ],
      [
        43,
        123
      ],
      [
        51,
        152
      ],
      [
        53,
        219
      ],
      [
        55,
        17
      ],
      [
        56,
        56
      ],
      [
        58,
        130
      ],
      [
        59,
        172
      ],
      [
        60,
        199
      ],
      [
        62,
        123
      ],
      [
        70,
        28
      ],
      [
        73,
        185
      ],
      [
        75,
        167
      ],
      [
        76,
        15
      ],
      [
        76,
        71
      ],
      [
        76,
        215
      ],
      [
        79,
        21
      ],
      [
        79,
        47
      ],
      [
        82,
        19
      ],
      [
        82,
        103
      ],
      [
        82,
        143
      ],
      [
        86,
        93
      ],
      [
        88,
        200
      ],
      [
        93,
        192
      ],
      [
        93,
        222
      ],
      [
        96,
        35
      ],
      [
        96,
        165
      ],
      [
        98,
        0
      ],
      [
        101,
        74
      ],
      [
        102,
        123
      ],
      [
        102,
        186
      ],
      [
        106,
        252
      ],
      [
        112,
        53
      ],
      [
        112,
        201
      ],
      [
        114,
        19
      ],
      [
        116,
        96
      ],
      [
        118,
        112
      ],
      [
        120,
        162
      ],
      [
        124,
        79
      ],
      [
        125,
        227
      ],
      [
        126,
        137
      ],
      [
        131,
        183
      ],
      [
        131,
        267
      ],
      [
        133,
        35
      ],
      [
        137,
        53
      ],
      [
        137,
        113
      ],
      [
        140,
        13
      ],
      [
        142,
        84
      ],
      [
        145,
        125
      ],
      [
        150,
        75
      ],
      [
        151,
        245
      ],
      [
        153,
        222
      ],
      [
        154,
        199
      ],
      [
        160,
        48
      ],
      [
        165,
        47
      ],
      [
        165,
        106
      ],
      [
        173,
        78
      ],
      [
        194,
        98
      ]
    ]
  },
  "problem": 82,
  "can_use_bonuses": [
    {
      "bonus": "GLOBALIST",
      "problem": 25
    },
    {
      "bonus": "BREAK_A_LEG",
      "problem": 36
    },
    {
      "bonus": "SUPERFLEX",
      "problem": 41
    }
  ]
}