{
  "bonuses": [
    {
      "bonus": "GLOBALIST",
      "problem": 52,
      "position": [
        40,
        98
      ]
    },
    {
      "bonus": "SUPERFLEX",
      "problem": 99,
      "position": [
        33,
        60
      ]
    },
    {
      "bonus": "BREAK_A_LEG",
      "problem": 46,
      "position": [
        21,
        96
      ]
    }
  ],
  "hole": [
    [
      2,
      100
    ],
    [
      17,
      71
    ],
    [
      15,
      54
    ],
    [
      27,
      22
    ],
    [
      45,
      13
    ],
    [
      77,
      0
    ],
    [
      101,
      15
    ],
    [
      90,
      33
    ],
    [
      72,
      58
    ],
    [
      74,
      63
    ],
    [
      68,
      72
    ],
    [
      65,
      84
    ],
    [
      60,
      98
    ],
    [
      54,
      129
    ],
    [
      27,
      114
    ],
    [
      0,
      110
    ]
  ],
  "epsilon": 94675,
  "figure": {
    "edges": [
      [
        0,
        3
      ],
      [
        3,
        16
      ],
      [
        16,
        31
      ],
      [
        31,
        33
      ],
      [
        33,
        23
      ],
      [
        23,
        7
      ],
      [
        7,
        0
      ],
      [
        2,
        14
      ],
      [
        14,
        32
      ],
      [
        32,
        29
      ],
      [
        14,
        29
      ],
      [
        2,
        5
      ],
      [
        5,
        4
      ],
      [
        4,
        9
      ],
      [
        9,
        20
      ],
      [
        20,
        25
      ],
      [
        25,
        26
      ],
      [
        26,
        32
      ],
      [
        0,
        1
      ],
      [
        1,
        8
      ],
      [
        8,
        19
      ],
      [
        19,
        28
      ],
      [
        28,
        27
      ],
      [
        27,
        30
      ],
      [
        30,
        33
      ],
      [
        1,
        4
      ],
      [
        30,
        25
      ],
      [
        24,
        21
      ],
      [
        21,
        17
      ],
      [
        17,
        22
      ],
      [
        22,
        24
      ],
      [
        6,
        11
      ],
      [
        11,
        13
      ],
      [
        13,
        10
      ],
      [
        10,
        6
      ],
      [
        13,
        12
      ],
      [
        12,
        15
      ],
      [
        15,
        18
      ],
      [
        18,
        17
      ],
      [
        24,
        28
      ],
      [
        6,
        8
      ]
    ],
    "vertices": [
      [
        0,
        32
      ],
      [
        0,
        61
      ],
      [
        4,
        114
      ],
      [
        8,
        7
      ],
      [
        9,
        76
      ],
      [
        12,
        108
      ],
      [
        16,
        48
      ],
      [
        17,
        17
      ],
      [
        17,
        32
      ],
      [
        21,
        89
      ],
      [
        22,
        50
      ],
      [
        23,
        42
      ],
      [
        26,
        63
      ],
      [
        29,
        48
      ],
      [
        31,
        118
      ],
      [
        32,
        67
      ],
      [
        38,
        0
      ],
      [
        38,
        50
      ],
      [
        38,
        64
      ],
      [
        39,
        27
      ],
      [
        39,
        91
      ],
      [
        45,
        47
      ],
      [
        45,
        54
      ],
      [
        46,
        17
      ],
      [
        51,
        52
      ],
      [
        52,
        78
      ],
      [
        52,
        91
      ],
      [
        56,
        62
      ],
      [
        57,
        40
      ],
      [
        58,
        132
      ],
      [
        60,
        66
      ],
      [
        62,
        15
      ],
      [
        63,
        100
      ],
      [
        64,
        36
      ]
    ]
  },
  "problem": 84,
  "can_use_bonuses": [
    {
      "bonus": "GLOBALIST",
      "problem": 17
    },
    {
      "bonus": "WALLHACK",
      "problem": 38
    },
    {
      "bonus": "BREAK_A_LEG",
      "problem": 101
    }
  ]
}