{
  "bonuses": [
    {
      "bonus": "BREAK_A_LEG",
      "problem": 51,
      "position": [
        69,
        97
      ]
    },
    {
      "bonus": "SUPERFLEX",
      "problem": 94,
      "position": [
        66,
        81
      ]
    },
    {
      "bonus": "SUPERFLEX",
      "problem": 55,
      "position": [
        51,
        84
      ]
    }
  ],
  "hole": [
    [
      0,
      8
    ],
    [
      18,
      15
    ],
    [
      26,
      4
    ],
    [
      44,
      8
    ],
    [
      51,
      22
    ],
    [
      61,
      9
    ],
    [
      72,
      0
    ],
    [
      88,
      0
    ],
    [
      88,
      23
    ],
    [
      72,
      20
    ],
    [
      63,
      39
    ],
    [
      73,
      56
    ],
    [
      80,
      71
    ],
    [
      83,
      91
    ],
    [
      69,
      97
    ],
    [
      61,
      63
    ],
    [
      48,
      99
    ],
    [
      41,
      74
    ],
    [
      30,
      99
    ],
    [
      21,
      84
    ],
    [
      9,
      92
    ],
    [
      0,
      77
    ],
    [
      13,
      65
    ],
    [
      22,
      54
    ],
    [
      39,
      39
    ],
    [
      21,
      36
    ],
    [
      8,
      47
    ],
    [
      2,
      31
    ]
  ],
  "epsilon": 250000,
  "figure": {
    "edges": [
      [
        21,
        16
      ],
      [
        16,
        10
      ],
      [
        10,
        9
      ],
      [
        9,
        15
      ],
      [
        15,
        20
      ],
      [
        20,
        21
      ],
      [
        33,
        27
      ],
      [
        27,
        21
      ],
      [
        21,
        20
      ],
      [
        20,
        26
      ],
      [
        26,
        32
      ],
      [
        32,
        33
      ],
      [
        44,
        39
      ],
      [
        39,
        33
      ],
      [
        33,
        32
      ],
      [
        32,
        38
      ],
      [
        38,
        43
      ],
      [
        43,
        44
      ],
      [
        40,
        34
      ],
      [
        34,
        28
      ],
      [
        28,
        27
      ],
      [
        27,
        33
      ],
      [
        33,
        39
      ],
      [
        39,
        40
      ],
      [
        28,
        22
      ],
      [
        22,
        17
      ],
      [
        17,
        16
      ],
      [
        16,
        21
      ],
      [
        21,
        27
      ],
      [
        27,
        28
      ],
      [
        17,
        11
      ],
      [
        11,
        5
      ],
      [
        5,
        4
      ],
      [
        4,
        10
      ],
      [
        10,
        16
      ],
      [
        16,
        17
      ],
      [
        50,
        45
      ],
      [
        45,
        40
      ],
      [
        40,
        39
      ],
      [
        39,
        44
      ],
      [
        44,
        49
      ],
      [
        49,
        50
      ],
      [
        46,
        41
      ],
      [
        41,
        35
      ],
      [
        35,
        34
      ],
      [
        34,
        40
      ],
      [
        40,
        45
      ],
      [
        45,
        46
      ],
      [
        35,
        29
      ],
      [
        29,
        23
      ],
      [
        23,
        22
      ],
      [
        22,
        28
      ],
      [
        28,
        34
      ],
      [
        34,
        35
      ],
      [
        23,
        18
      ],
      [
        18,
        12
      ],
      [
        12,
        11
      ],
      [
        11,
        17
      ],
      [
        17,
        22
      ],
      [
        22,
        23
      ],
      [
        12,
        6
      ],
      [
        6,
        1
      ],
      [
        1,
        0
      ],
      [
        0,
        5
      ],
      [
        5,
        11
      ],
      [
        11,
        12
      ],
      [
        55,
        51
      ],
      [
        51,
        46
      ],
      [
        46,
        45
      ],
      [
        45,
        50
      ],
      [
        50,
        54
      ],
      [
        54,
        55
      ],
      [
        52,
        47
      ],
      [
        47,
        42
      ],
      [
        42,
        41
      ],
      [
        41,
        46
      ],
      [
        46,
        51
      ],
      [
        51,
        52
      ],
      [
        42,
        36
      ],
      [
        36,
        30
      ],
      [
        30,
        29
      ],
      [
        29,
        35
      ],
      [
        35,
        41
      ],
      [
        41,
        42
      ],
      [
        30,
        24
      ],
      [
        24,
        19
      ],
      [
        19,
        18
      ],
      [
        18,
        23
      ],
      [
        23,
        29
      ],
      [
        29,
        30
      ],
      [
        19,
        13
      ],
      [
        13,
        7
      ],
      [
        7,
        6
      ],
      [
        6,
        12
      ],
      [
        12,
        18
      ],
      [
        18,
        19
      ],
      [
        14,
        8
      ],
      [
        8,
        3
      ],
      [
        3,
        2
      ],
      [
        2,
        7
      ],
      [
        7,
        13
      ],
      [
        13,
        14
      ],
      [
        37,
        31
      ],
      [
        31,
        25
      ],
      [
        25,
        24
      ],
      [
        24,
        30
      ],
      [
        30,
        36
      ],
      [
        36,
        37
      ],
      [
        57,
        53
      ],
      [
        53,
        48
      ],
      [
        48,
        47
      ],
      [
        47,
        52
      ],
      [
        52,
        56
      ],
      [
        56,
        57
      ]
    ],
    "vertices": [
      [
        17,
        44
      ],
      [
        17,
        51
      ],
      [
        17,
        65
      ],
      [
        17,
        72
      ],
      [
        23,
        34
      ],
      [
        23,
        41
      ],
      [
        23,
        55
      ],
      [
        23,
        62
      ],
      [
        23,
        76
      ],
      [
        29,
        23
      ],
      [
        29,
        30
      ],
      [
        29,
        44
      ],
      [
        29,
        51
      ],
      [
        29,
        65
      ],
      [
        29,
        72
      ],
      [
        35,
        20
      ],
      [
        35,
        34
      ],
      [
        35,
        41
      ],
      [
        35,
        55
      ],
      [
        35,
        62
      ],
      [
        41,
        23
      ],
      [
        41,
        30
      ],
      [
        41,
        44
      ],
      [
        41,
        51
      ],
      [
        41,
        65
      ],
      [
        41,
        72
      ],
      [
        48,
        20
      ],
      [
        48,
        34
      ],
      [
        48,
        41
      ],
      [
        48,
        55
      ],
      [
        48,
        62
      ],
      [
        48,
        76
      ],
      [
        54,
        23
      ],
      [
        54,
        30
      ],
      [
        54,
        44
      ],
      [
        54,
        51
      ],
      [
        54,
        65
      ],
      [
        54,
        72
      ],
      [
        60,
        20
      ],
      [
        60,
        34
      ],
      [
        60,
        41
      ],
      [
        60,
        55
      ],
      [
        60,
        62
      ],
      [
        66,
        23
      ],
      [
        66,
        30
      ],
      [
        66,
        44
      ],
      [
        66,
        51
      ],
      [
        66,
        65
      ],
      [
        66,
        72
      ],
      [
        72,
        34
      ],
      [
        72,
        41
      ],
      [
        72,
        55
      ],
      [
        72,
        62
      ],
      [
        72,
        76
      ],
      [
        78,
        44
      ],
      [
        78,
        51
      ],
      [
        78,
        65
      ],
      [
        78,
        72
      ]
    ]
  },
  "problem": 86,
  "can_use_bonuses": [
    {
      "bonus": "BREAK_A_LEG",
      "problem": 73
    },
    {
      "bonus": "GLOBALIST",
      "problem": 93
    },
    {
      "bonus": "BREAK_A_LEG",
      "problem": 114
    }
  ]
}