{
  "bonuses": [
    {
      "bonus": "GLOBALIST",
      "problem": 59,
      "position": [
        115,
        101
      ]
    },
    {
      "bonus": "BREAK_A_LEG",
      "problem": 27,
      "position": [
        45,
        87
      ]
    },
    {
      "bonus": "BREAK_A_LEG",
      "problem": 123,
      "position": [
        90,
        60
      ]
    }
  ],
  "hole": [
    [
      19,
      0
    ],
    [
      29,
      16
    ],
    [
      43,
      28
    ],
    [
      56,
      0
    ],
    [
      69,
      34
    ],
    [
      94,
      19
    ],
    [
      115,
      16
    ],
    [
      115,
      34
    ],
    [
      100,
      44
    ],
    [
      115,
      63
    ],
    [
      104,
      77
    ],
    [
      115,
      101
    ],
    [
      93,
      99
    ],
    [
      74,
      71
    ],
    [
      63,
      93
    ],
    [
      54,
      116
    ],
    [
      36,
      108
    ],
    [
      17,
      109
    ],
    [
      29,
      75
    ],
    [
      45,
      67
    ],
    [
      41,
      47
    ],
    [
      22,
      59
    ],
    [
      3,
      72
    ],
    [
      0,
      52
    ],
    [
      0,
      18
    ]
  ],
  "epsilon": 160000,
  "figure": {
    "edges": [
      [
        7,
        6
      ],
      [
        6,
        3
      ],
      [
        3,
        7
      ],
      [
        3,
        4
      ],
      [
        4,
        7
      ],
      [
        7,
        8
      ],
      [
        8,
        5
      ],
      [
        5,
        4
      ],
      [
        8,
        9
      ],
      [
        9,
        10
      ],
      [
        10,
        7
      ],
      [
        7,
        11
      ],
      [
        11,
        10
      ],
      [
        11,
        6
      ],
      [
        9,
        12
      ],
      [
        12,
        8
      ],
      [
        5,
        1
      ],
      [
        1,
        2
      ],
      [
        2,
        8
      ],
      [
        2,
        0
      ],
      [
        0,
        1
      ]
    ],
    "vertices": [
      [
        16,
        74
      ],
      [
        25,
        60
      ],
      [
        30,
        60
      ],
      [
        43,
        67
      ],
      [
        46,
        79
      ],
      [
        49,
        94
      ],
      [
        60,
        26
      ],
      [
        60,
        84
      ],
      [
        60,
        89
      ],
      [
        72,
        94
      ],
      [
        75,
        79
      ],
      [
        77,
        67
      ],
      [
        105,
        47
      ]
    ]
  },
  "problem": 88,
  "can_use_bonuses": [
    {
      "bonus": "BREAK_A_LEG",
      "problem": 13
    },
    {
      "bonus": "BREAK_A_LEG",
      "problem": 43
    },
    {
      "bonus": "BREAK_A_LEG",
      "problem": 44
    }
  ]
}