{
  "vertices": [
    [
      63,
      66
    ],
    [
      35,
      62
    ],
    [
      35,
      62
    ],
    [
      49,
      3
    ],
    [
      40,
      88
    ],
    [
      40,
      34
    ],
    [
      22,
      66
    ],
    [
      20,
      68
    ],
    [
      17,
      12
    ],
    [
      12,
      46
    ],
    [
      6,
      91
    ]
  ],
  "problem": 56,
  "time": "20210710_220237",
  "solver": "nakayama-sa"
}