{
  "vertices": [
    [
      29,
      61
    ],
    [
      15,
      27
    ],
    [
      1,
      47
    ],
    [
      53,
      55
    ],
    [
      36,
      37
    ],
    [
      9,
      69
    ],
    [
      63,
      31
    ],
    [
      32,
      61
    ],
    [
      28,
      81
    ],
    [
      56,
      57
    ],
    [
      57,
      4
    ],
    [
      49,
      77
    ],
    [
      72,
      39
    ],
    [
      78,
      13
    ]
  ],
  "problem": 52,
  "time": "20210710_201738",
  "solver": "nakayama-sa"
}