{
  "vertices": [
    [
      18,
      27
    ],
    [
      2,
      24
    ],
    [
      0,
      29
    ],
    [
      7,
      44
    ],
    [
      15,
      52
    ],
    [
      31,
      50
    ],
    [
      22,
      0
    ],
    [
      30,
      56
    ],
    [
      30,
      61
    ],
    [
      18,
      58
    ],
    [
      21,
      43
    ],
    [
      9,
      45
    ],
    [
      12,
      0
    ]
  ],
  "problem": 49,
  "time": "20210710_082423",
  "solver": "nakayama-sa"
}