{
  "vertices": [
    [
      163,
      76
    ],
    [
      172,
      74
    ],
    [
      164,
      68
    ],
    [
      170,
      66
    ],
    [
      37,
      6
    ],
    [
      47,
      6
    ],
    [
      143,
      118
    ],
    [
      38,
      16
    ],
    [
      47,
      19
    ],
    [
      37,
      177
    ],
    [
      43,
      167
    ],
    [
      208,
      82
    ],
    [
      36,
      167
    ],
    [
      161,
      9
    ],
    [
      34,
      158
    ],
    [
      59,
      54
    ],
    [
      96,
      11
    ],
    [
      12,
      52
    ],
    [
      116,
      180
    ],
    [
      193,
      119
    ],
    [
      21,
      212
    ],
    [
      24,
      130
    ],
    [
      57,
      99
    ],
    [
      142,
      58
    ],
    [
      8,
      98
    ],
    [
      165,
      190
    ],
    [
      61,
      96
    ],
    [
      66,
      134
    ],
    [
      150,
      141
    ],
    [
      134,
      99
    ],
    [
      133,
      129
    ],
    [
      40,
      68
    ],
    [
      110,
      97
    ],
    [
      140,
      150
    ],
    [
      130,
      122
    ],
    [
      104,
      124
    ],
    [
      115,
      136
    ],
    [
      60,
      103
    ],
    [
      104,
      112
    ],
    [
      129,
      131
    ],
    [
      4,
      155
    ],
    [
      113,
      127
    ],
    [
      123,
      130
    ],
    [
      102,
      120
    ],
    [
      70,
      109
    ],
    [
      117,
      129
    ],
    [
      109,
      120
    ],
    [
      90,
      134
    ],
    [
      58,
      138
    ]
  ],
  "problem": 83,
  "time": "20210710_220237",
  "solver": "nakayama-sa"
}