{
  "vertices": [
    [
      30,
      15
    ],
    [
      48,
      109
    ],
    [
      60,
      20
    ],
    [
      46,
      27
    ],
    [
      99,
      64
    ],
    [
      51,
      80
    ],
    [
      102,
      49
    ],
    [
      56,
      31
    ],
    [
      80,
      47
    ],
    [
      92,
      46
    ],
    [
      59,
      46
    ],
    [
      49,
      49
    ],
    [
      40,
      49
    ],
    [
      28,
      31
    ],
    [
      66,
      44
    ],
    [
      49,
      56
    ],
    [
      46,
      52
    ],
    [
      80,
      45
    ],
    [
      30,
      45
    ],
    [
      62,
      54
    ],
    [
      49,
      64
    ],
    [
      44,
      62
    ],
    [
      80,
      34
    ],
    [
      59,
      61
    ],
    [
      54,
      69
    ],
    [
      37,
      64
    ],
    [
      18,
      54
    ],
    [
      71,
      42
    ],
    [
      85,
      25
    ],
    [
      48,
      70
    ],
    [
      80,
      9
    ],
    [
      65,
      80
    ],
    [
      37,
      74
    ],
    [
      70,
      81
    ],
    [
      90,
      85
    ],
    [
      86,
      69
    ]
  ],
  "problem": 3,
  "time": "20210710_201617",
  "solver": "nakayama-sa"
}