{
  "vertices": [
    [
      2,
      12
    ],
    [
      28,
      3
    ],
    [
      22,
      31
    ],
    [
      22,
      31
    ],
    [
      42,
      11
    ],
    [
      49,
      38
    ]
  ],
  "problem": 37,
  "time": "20210710_082731",
  "solver": "nakayama-sa"
}