{
  "vertices": [
    [
      20,
      2
    ],
    [
      15,
      34
    ],
    [
      26,
      66
    ],
    [
      48,
      18
    ],
    [
      49,
      40
    ],
    [
      14,
      33
    ]
  ],
  "problem": 40,
  "time": "20210710_075932",
  "solver": "nakayama-sa"
}